test/mmap_sim/output.txt
========================================
[1/2] Compiling mmap-DDR accelerator...
========================================
../../rtl/core/pe_top.v:1268: warning: Unsized expression (('sd1)<<(C_BANK_ADDR_W)) expanded beyond and was clipped to 65568 bits. Try using sized operands.
../../rtl/core/pe_top.v:1268: warning: Unsized expression (('sd1)<<(C_BANK_ADDR_W)) expanded beyond and was clipped to 65568 bits. Try using sized operands.
../../rtl/core/pe_top.v:1268: warning: Unsized expression (('sd1)<<(C_BANK_ADDR_W)) expanded beyond and was clipped to 65568 bits. Try using sized operands.
[OK] Compile passed.

========================================
[2/2] Running mmap-DDR test...
========================================
     -.--ns INFO     gpi                                ..mbed\gpi_embed.cpp:94   in _embed_init_python              Using Python 3.11.9 interpreter at C:/Users/Administrator/.conda/envs/gcnenv/python.exe
     -.--ns ERROR    gpi                                ..mbed\gpi_embed.cpp:155  in _embed_init_python              Unexpected sys.executable value (expected 'C:/Users/Administrator/.conda/envs/gcnenv/python.exe', got 'C:\iverilog\bin\vvp.exe')
     -.--ns INFO     gpi                                ..\gpi\GpiCommon.cpp:79   in gpi_print_registered_impl       VPI registered
     0.00ns INFO     cocotb                             Running on Icarus Verilog version 12.0 (devel)
     0.00ns INFO     cocotb                             Seeding Python random module with 1782909310
     0.00ns INFO     cocotb                             Initialized cocotb v2.0.1 from C:\Users\Administrator\.conda\envs\gcnenv\Lib\site-packages\cocotb
     0.00ns INFO     cocotb.regression                  pytest not found, install it to enable better AssertionError messages
     0.00ns WARNING  py.warnings                        C:\Users\Administrator\.conda\envs\gcnenv\Lib\site-packages\cocotb\_init.py:102: DeprecationWarning: COCOTB_TESTCASE is deprecated in favor of COCOTB_TEST_FILTER
                                                          _setup_regression_manager()
     0.00ns INFO     cocotb                             Running tests
     0.00ns INFO     cocotb.regression                  running test.test_mmap (1/1)
                                                            Main test: mmap DDR → AXI responder → axi_loader → PE → compute → drain C.
     0.00ns INFO     cocotb.tb_mmap                     ======================================================================
     0.00ns INFO     cocotb.tb_mmap                     MMAP-DDR: A(251,257) × B(257,121) → C(251,121)
     0.00ns INFO     cocotb.tb_mmap                     Rows: 87 82 82  NNZ: 3123 3127 3115  Golden nz: 26324
Header @ 0x0000: rows=[87, 82, 82] nnz=[3123, 3127, 3115]
PE0 @ 0x0100: 87 rows, 3123 nnz
PE1 @ 0x12000: 82 rows, 3127 nnz
PE2 @ 0x24000: 82 rows, 3115 nnz
B @ 0x36000: 257 rows, 4720 nnz
   140.00ns INFO     cocotb.tb_mmap                     Writing 8388608 bytes directly to mmap...
   140.00ns INFO     cocotb.tb_mmap                     DDR dumped: 8388608 bytes → d:\BaiduSyncdisk\PROJECT\SPGEMM-Accelerator-simple\test\mmap_sim\sim_build\ddr_dump.bin
   140.00ns INFO     cocotb.tb_mmap                     DDR loaded: rows=87 82 82 nnz=3123 3127 3115
   150.00ns WARNING  cocotb.tb_mmap                     [TOP] → IDLE
   170.00ns INFO     cocotb.tb_mmap                     Launched, waiting for done...
   180.00ns WARNING  cocotb.tb_mmap                     [TOP] → LOAD
277190.00ns WARNING  cocotb.tb_mmap                     [TOP] → COMPUTE
[LOADER] HDR: rows=   87,   82,   82 nnz= 3123, 3127, 3115
[LOADER] A_DESC pe=0 row=    0 crow=  0 nnz=  33 off=    0
[LOADER] A_DESC pe=0 row=    1 crow=  1 nnz=  44 off=   33
[LOADER] A_DESC pe=0 row=    2 crow=  2 nnz=  44 off=   77
[LOADER] A_COL pe=0 addr=     0 data=   20
[LOADER] A_COL pe=0 addr=     1 data=   25
[LOADER] A_COL pe=0 addr=     2 data=   26
[LOADER] A_COL pe=0 addr=     3 data=   28
[LOADER] A_COL pe=0 addr=     4 data=   33
[LOADER] B_DESC row=    0 data=00000010 (nnz=  16 b_off=      0)
[LOADER] B_DESC row=    1 data=00004017 (nnz=  23 b_off=     16)
[LOADER] B_DESC row=    2 data=00009c10 (nnz=  16 b_off=     39)
[LOADER] B_COL addr=     0 data=0x0001 bank=     0
[LOADER] B_COL addr=     1 data=0x000b bank=     1
[LOADER] B_COL addr=     2 data=0x000c bank=     2
[LOADER] B_COL addr=     3 data=0x000d bank=     3
[LOADER] B_COL addr=     4 data=0x0015 bank=     4
tb_mmap.u_accel.u_cluster.gen_pe[2].u_pe: TRACE state=1 gen_state=0 row=  0 a_rd=    0 a_val=0x4600 a_col=0x0001 gt_next=    0
tb_mmap.u_accel.u_cluster.gen_pe[1].u_pe: TRACE state=1 gen_state=0 row=  0 a_rd=    0 a_val=0x4200 a_col=0x0001 gt_next=    0
tb_mmap.u_accel.u_cluster.gen_pe[0].u_pe: TRACE state=1 gen_state=0 row=  0 a_rd=    0 a_val=0x4200 a_col=0x0014 gt_next=    0
tb_mmap.u_accel.u_cluster.gen_pe[2].u_pe: LOAD_DESC row=  0 crow=167 nnz=  28 off=    0 raw=0000038a7
tb_mmap.u_accel.u_cluster.gen_pe[1].u_pe: LOAD_DESC row=  0 crow= 85 nnz=  60 off=    0 raw=000007855
tb_mmap.u_accel.u_cluster.gen_pe[0].u_pe: LOAD_DESC row=  0 crow=  0 nnz=  33 off=    0 raw=000004200
tb_mmap.u_accel.u_cluster.gen_pe[0].u_pe: TRACE state=2 gen_state=0 row=  0 a_rd=    0 a_val=0x4200 a_col=0x0014 gt_next=    0
tb_mmap.u_accel.u_cluster.gen_pe[1].u_pe: TRACE state=2 gen_state=0 row=  0 a_rd=    0 a_val=0x4200 a_col=0x0001 gt_next=    0
tb_mmap.u_accel.u_cluster.gen_pe[2].u_pe: TRACE state=2 gen_state=0 row=  0 a_rd=    0 a_val=0x4600 a_col=0x0001 gt_next=    0
tb_mmap.u_accel.u_cluster.gen_pe[0].u_pe: GEN_IDLE row=  0 cur_a_nnz=   33 state_next=     GEN_FETCH
tb_mmap.u_accel.u_cluster.gen_pe[1].u_pe: GEN_IDLE row=  0 cur_a_nnz=   60 state_next=     GEN_FETCH
tb_mmap.u_accel.u_cluster.gen_pe[2].u_pe: GEN_IDLE row=  0 cur_a_nnz=   28 state_next=     GEN_FETCH
tb_mmap.u_accel.u_cluster.gen_pe[2].u_pe: TRACE state=3 gen_state=1 row=  0 a_rd=    1 a_val=0x4700 a_col=0x000e gt_next=    1
tb_mmap.u_accel.u_cluster.gen_pe[1].u_pe: TRACE state=3 gen_state=1 row=  0 a_rd=    1 a_val=0x4600 a_col=0x0005 gt_next=    1
tb_mmap.u_accel.u_cluster.gen_pe[0].u_pe: TRACE state=3 gen_state=1 row=  0 a_rd=    1 a_val=0x4500 a_col=0x0019 gt_next=    1
tb_mmap.u_accel.u_cluster.gen_pe[2].u_pe: GEN_FETCH row=  0 t=    0 a_col=0x0001 k_idx=  1 b_nnz=   23 b_off=        16
tb_mmap.u_accel.u_cluster.gen_pe[1].u_pe: GEN_FETCH row=  0 t=    0 a_col=0x0001 k_idx=  1 b_nnz=   23 b_off=        16
tb_mmap.u_accel.u_cluster.gen_pe[0].u_pe: GEN_FETCH row=  0 t=    0 a_col=0x0014 k_idx= 20 b_nnz=   19 b_off=       342
tb_mmap.u_accel.u_cluster.gen_pe[0].u_pe: TRACE state=3 gen_state=2 row=  0 a_rd=    2 a_val=0x4400 a_col=0x001a gt_next=    2
tb_mmap.u_accel.u_cluster.gen_pe[1].u_pe: TRACE state=3 gen_state=2 row=  0 a_rd=    2 a_val=0x4500 a_col=0x0006 gt_next=    2
tb_mmap.u_accel.u_cluster.gen_pe[2].u_pe: TRACE state=3 gen_state=2 row=  0 a_rd=    2 a_val=0x4200 a_col=0x0012 gt_next=    2
tb_mmap.u_accel.u_cluster.gen_pe[2].u_pe: TRACE state=3 gen_state=2 row=  0 a_rd=    3 a_val=0x4400 a_col=0x001f gt_next=    3
tb_mmap.u_accel.u_cluster.gen_pe[1].u_pe: TRACE state=3 gen_state=2 row=  0 a_rd=    3 a_val=0x4200 a_col=0x0008 gt_next=    3
tb_mmap.u_accel.u_cluster.gen_pe[0].u_pe: TRACE state=3 gen_state=2 row=  0 a_rd=    3 a_val=0x4000 a_col=0x001c gt_next=    3
tb_mmap.u_accel.u_cluster.gen_pe[0].u_pe: TRACE state=3 gen_state=2 row=  0 a_rd=    4 a_val=0x4400 a_col=0x0021 gt_next=    4
tb_mmap.u_accel.u_cluster.gen_pe[1].u_pe: TRACE state=3 gen_state=2 row=  0 a_rd=    4 a_val=0x4200 a_col=0x000f gt_next=    4
tb_mmap.u_accel.u_cluster.gen_pe[2].u_pe: TRACE state=3 gen_state=2 row=  0 a_rd=    4 a_val=0x4000 a_col=0x0021 gt_next=    4
tb_mmap.u_accel.u_cluster.gen_pe[2].u_pe: TRACE state=3 gen_state=2 row=  0 a_rd=    5 a_val=0x4600 a_col=0x002b gt_next=    5
tb_mmap.u_accel.u_cluster.gen_pe[1].u_pe: TRACE state=3 gen_state=2 row=  0 a_rd=    5 a_val=0x3c00 a_col=0x0011 gt_next=    5
tb_mmap.u_accel.u_cluster.gen_pe[0].u_pe: TRACE state=3 gen_state=2 row=  0 a_rd=    5 a_val=0x4700 a_col=0x0025 gt_next=    5
tb_mmap.u_accel.u_cluster.gen_pe[0].u_pe: TRACE state=3 gen_state=2 row=  0 a_rd=    6 a_val=0x4600 a_col=0x0026 gt_next=    6
tb_mmap.u_accel.u_cluster.gen_pe[1].u_pe: TRACE state=3 gen_state=2 row=  0 a_rd=    6 a_val=0x4200 a_col=0x0016 gt_next=    6
tb_mmap.u_accel.u_cluster.gen_pe[2].u_pe: TRACE state=3 gen_state=2 row=  0 a_rd=    6 a_val=0x3c00 a_col=0x0030 gt_next=    6
tb_mmap.u_accel.u_cluster.gen_pe[2].u_pe: TRACE state=3 gen_state=2 row=  0 a_rd=    7 a_val=0x4500 a_col=0x0033 gt_next=    7
tb_mmap.u_accel.u_cluster.gen_pe[1].u_pe: TRACE state=3 gen_state=2 row=  0 a_rd=    7 a_val=0x4000 a_col=0x0017 gt_next=    7
tb_mmap.u_accel.u_cluster.gen_pe[0].u_pe: TRACE state=3 gen_state=2 row=  0 a_rd=    7 a_val=0x4700 a_col=0x002c gt_next=    7
tb_mmap.u_accel.u_cluster.gen_pe[0].u_pe: TRACE state=3 gen_state=2 row=  0 a_rd=    8 a_val=0x4200 a_col=0x0053 gt_next=    8
tb_mmap.u_accel.u_cluster.gen_pe[1].u_pe: TRACE state=3 gen_state=2 row=  0 a_rd=    8 a_val=0x4000 a_col=0x001e gt_next=    8
tb_mmap.u_accel.u_cluster.gen_pe[2].u_pe: TRACE state=3 gen_state=2 row=  0 a_rd=    8 a_val=0x4500 a_col=0x003a gt_next=    8
tb_mmap.u_accel.u_cluster.gen_pe[2].u_pe: TRACE state=3 gen_state=2 row=  0 a_rd=    9 a_val=0x4000 a_col=0x003d gt_next=    9
tb_mmap.u_accel.u_cluster.gen_pe[1].u_pe: TRACE state=3 gen_state=2 row=  0 a_rd=    9 a_val=0x4400 a_col=0x0023 gt_next=    9
tb_mmap.u_accel.u_cluster.gen_pe[0].u_pe: TRACE state=3 gen_state=2 row=  0 a_rd=    9 a_val=0x4500 a_col=0x005f gt_next=    9
tb_mmap.u_accel.u_cluster.gen_pe[0].u_pe: TRACE state=3 gen_state=2 row=  0 a_rd=   10 a_val=0x4700 a_col=0x006b gt_next=   10
tb_mmap.u_accel.u_cluster.gen_pe[1].u_pe: TRACE state=3 gen_state=2 row=  0 a_rd=   10 a_val=0x4200 a_col=0x002b gt_next=   10
tb_mmap.u_accel.u_cluster.gen_pe[2].u_pe: TRACE state=3 gen_state=2 row=  0 a_rd=   10 a_val=0x4600 a_col=0x0040 gt_next=   10
tb_mmap.u_accel.u_cluster.gen_pe[2].u_pe: TRACE state=3 gen_state=2 row=  0 a_rd=   11 a_val=0x4000 a_col=0x0044 gt_next=   11
tb_mmap.u_accel.u_cluster.gen_pe[1].u_pe: TRACE state=3 gen_state=2 row=  0 a_rd=   11 a_val=0x4200 a_col=0x0032 gt_next=   11
tb_mmap.u_accel.u_cluster.gen_pe[0].u_pe: TRACE state=3 gen_state=2 row=  0 a_rd=   11 a_val=0x4400 a_col=0x006e gt_next=   11
tb_mmap.u_accel.u_cluster.gen_pe[0].u_pe: TRACE state=3 gen_state=2 row=  0 a_rd=   12 a_val=0x4200 a_col=0x006f gt_next=   12
tb_mmap.u_accel.u_cluster.gen_pe[1].u_pe: TRACE state=3 gen_state=2 row=  0 a_rd=   12 a_val=0x4500 a_col=0x0037 gt_next=   12
tb_mmap.u_accel.u_cluster.gen_pe[2].u_pe: TRACE state=3 gen_state=2 row=  0 a_rd=   12 a_val=0x3c00 a_col=0x004c gt_next=   12
tb_mmap.u_accel.u_cluster.gen_pe[2].u_pe: TRACE state=3 gen_state=2 row=  0 a_rd=   13 a_val=0x4500 a_col=0x005d gt_next=   13
tb_mmap.u_accel.u_cluster.gen_pe[1].u_pe: TRACE state=3 gen_state=2 row=  0 a_rd=   13 a_val=0x4200 a_col=0x0039 gt_next=   13
tb_mmap.u_accel.u_cluster.gen_pe[0].u_pe: TRACE state=3 gen_state=2 row=  0 a_rd=   13 a_val=0x4700 a_col=0x0072 gt_next=   13
tb_mmap.u_accel.u_cluster.gen_pe[0].u_pe: TRACE state=3 gen_state=2 row=  0 a_rd=   14 a_val=0x4700 a_col=0x0079 gt_next=   14
tb_mmap.u_accel.u_cluster.gen_pe[1].u_pe: TRACE state=3 gen_state=2 row=  0 a_rd=   14 a_val=0x3c00 a_col=0x003b gt_next=   14
tb_mmap.u_accel.u_cluster.gen_pe[2].u_pe: TRACE state=3 gen_state=2 row=  0 a_rd=   14 a_val=0x4200 a_col=0x006d gt_next=   14
tb_mmap.u_accel.u_cluster.gen_pe[2].u_pe: TRACE state=3 gen_state=2 row=  0 a_rd=   15 a_val=0x4400 a_col=0x007a gt_next=   15
tb_mmap.u_accel.u_cluster.gen_pe[1].u_pe: TRACE state=3 gen_state=2 row=  0 a_rd=   15 a_val=0x4600 a_col=0x0044 gt_next=   15
tb_mmap.u_accel.u_cluster.gen_pe[0].u_pe: TRACE state=3 gen_state=2 row=  0 a_rd=   15 a_val=0x4600 a_col=0x007a gt_next=   15
tb_mmap.u_accel.u_cluster.gen_pe[0].u_pe: TRACE state=3 gen_state=2 row=  0 a_rd=   16 a_val=0x4600 a_col=0x0096 gt_next=   16
tb_mmap.u_accel.u_cluster.gen_pe[1].u_pe: TRACE state=3 gen_state=2 row=  0 a_rd=   16 a_val=0x4500 a_col=0x004c gt_next=   16
tb_mmap.u_accel.u_cluster.gen_pe[2].u_pe: TRACE state=3 gen_state=2 row=  0 a_rd=   16 a_val=0x4400 a_col=0x00a4 gt_next=   16
tb_mmap.u_accel.u_cluster.gen_pe[2].u_pe: TRACE state=3 gen_state=2 row=  0 a_rd=   17 a_val=0x4500 a_col=0x00aa gt_next=   17
tb_mmap.u_accel.u_cluster.gen_pe[1].u_pe: TRACE state=3 gen_state=2 row=  0 a_rd=   17 a_val=0x4000 a_col=0x004f gt_next=   17
tb_mmap.u_accel.u_cluster.gen_pe[0].u_pe: TRACE state=3 gen_state=2 row=  0 a_rd=   17 a_val=0x4200 a_col=0x0099 gt_next=   17
tb_mmap.u_accel.u_cluster.gen_pe[0].u_pe: TRACE state=3 gen_state=2 row=  0 a_rd=   18 a_val=0x3c00 a_col=0x009b gt_next=   18
tb_mmap.u_accel.u_cluster.gen_pe[1].u_pe: TRACE state=3 gen_state=2 row=  0 a_rd=   18 a_val=0x4200 a_col=0x005c gt_next=   18
tb_mmap.u_accel.u_cluster.gen_pe[2].u_pe: TRACE state=3 gen_state=2 row=  0 a_rd=   18 a_val=0x4600 a_col=0x00b0 gt_next=   18
tb_mmap.u_accel.u_cluster.gen_pe[2].u_pe: TRACE state=3 gen_state=2 row=  0 a_rd=   19 a_val=0x4400 a_col=0x00b2 gt_next=   19
tb_mmap.u_accel.u_cluster.gen_pe[1].u_pe: TRACE state=3 gen_state=2 row=  0 a_rd=   19 a_val=0x4200 a_col=0x0063 gt_next=   19
tb_mmap.u_accel.u_cluster.gen_pe[0].u_pe: TRACE state=3 gen_state=2 row=  0 a_rd=   19 a_val=0x3c00 a_col=0x00a2 gt_next=   19
tb_mmap.u_accel.u_cluster.gen_pe[0].u_pe: TRACE state=3 gen_state=2 row=  0 a_rd=   20 a_val=0x4700 a_col=0x00b8 gt_next=   20
tb_mmap.u_accel.u_cluster.gen_pe[1].u_pe: TRACE state=3 gen_state=2 row=  0 a_rd=   20 a_val=0x4000 a_col=0x0064 gt_next=   20
tb_mmap.u_accel.u_cluster.gen_pe[2].u_pe: TRACE state=3 gen_state=2 row=  0 a_rd=   20 a_val=0x3c00 a_col=0x00b5 gt_next=   20
tb_mmap.u_accel.u_cluster.gen_pe[2].u_pe: TRACE state=3 gen_state=2 row=  0 a_rd=   21 a_val=0x4400 a_col=0x00c0 gt_next=   21
tb_mmap.u_accel.u_cluster.gen_pe[1].u_pe: TRACE state=3 gen_state=2 row=  0 a_rd=   21 a_val=0x4700 a_col=0x0066 gt_next=   21
tb_mmap.u_accel.u_cluster.gen_pe[0].u_pe: TRACE state=3 gen_state=2 row=  0 a_rd=   21 a_val=0x4500 a_col=0x00ba gt_next=   21
tb_mmap.u_accel.u_cluster.gen_pe[0].u_pe: TRACE state=3 gen_state=2 row=  0 a_rd=   22 a_val=0x4000 a_col=0x00bd gt_next=   22
tb_mmap.u_accel.u_cluster.gen_pe[1].u_pe: TRACE state=3 gen_state=2 row=  0 a_rd=   22 a_val=0x4600 a_col=0x0067 gt_next=   22
tb_mmap.u_accel.u_cluster.gen_pe[2].u_pe: TRACE state=3 gen_state=2 row=  0 a_rd=   22 a_val=0x3c00 a_col=0x00ca gt_next=   22
tb_mmap.u_accel.u_cluster.gen_pe[2].u_pe: TRACE state=3 gen_state=2 row=  0 a_rd=   23 a_val=0x3c00 a_col=0x00d8 gt_next=   23
tb_mmap.u_accel.u_cluster.gen_pe[1].u_pe: TRACE state=3 gen_state=2 row=  0 a_rd=   23 a_val=0x3c00 a_col=0x006c gt_next=   23
tb_mmap.u_accel.u_cluster.gen_pe[0].u_pe: TRACE state=3 gen_state=2 row=  0 a_rd=   23 a_val=0x3c00 a_col=0x00be gt_next=   23
tb_mmap.u_accel.u_cluster.gen_pe[0].u_pe: TRACE state=3 gen_state=2 row=  0 a_rd=   24 a_val=0x4600 a_col=0x00c0 gt_next=   24
tb_mmap.u_accel.u_cluster.gen_pe[1].u_pe: TRACE state=3 gen_state=2 row=  0 a_rd=   24 a_val=0x4700 a_col=0x006d gt_next=   24
tb_mmap.u_accel.u_cluster.gen_pe[2].u_pe: TRACE state=3 gen_state=2 row=  0 a_rd=   24 a_val=0x4700 a_col=0x00e0 gt_next=   24
tb_mmap.u_accel.u_cluster.gen_pe[2].u_pe: TRACE state=3 gen_state=2 row=  0 a_rd=   25 a_val=0x4000 a_col=0x00e5 gt_next=   25
tb_mmap.u_accel.u_cluster.gen_pe[1].u_pe: TRACE state=3 gen_state=2 row=  0 a_rd=   25 a_val=0x4600 a_col=0x006e gt_next=   25
tb_mmap.u_accel.u_cluster.gen_pe[0].u_pe: TRACE state=3 gen_state=2 row=  0 a_rd=   25 a_val=0x4500 a_col=0x00c1 gt_next=   25
tb_mmap.u_accel.u_cluster.gen_pe[0].u_pe: TRACE state=3 gen_state=2 row=  0 a_rd=   26 a_val=0x4600 a_col=0x00ce gt_next=   26
tb_mmap.u_accel.u_cluster.gen_pe[1].u_pe: TRACE state=3 gen_state=2 row=  0 a_rd=   26 a_val=0x4400 a_col=0x0077 gt_next=   26
tb_mmap.u_accel.u_cluster.gen_pe[2].u_pe: TRACE state=3 gen_state=2 row=  0 a_rd=   26 a_val=0x4000 a_col=0x00ec gt_next=   26
tb_mmap.u_accel.u_cluster.gen_pe[2].u_pe: TRACE state=3 gen_state=2 row=  0 a_rd=   27 a_val=0x4400 a_col=0x00f8 gt_next=   27
tb_mmap.u_accel.u_cluster.gen_pe[1].u_pe: TRACE state=3 gen_state=2 row=  0 a_rd=   27 a_val=0x4000 a_col=0x0079 gt_next=   27
tb_mmap.u_accel.u_cluster.gen_pe[0].u_pe: TRACE state=3 gen_state=2 row=  0 a_rd=   27 a_val=0x3c00 a_col=0x00d3 gt_next=   27
tb_mmap.u_accel.u_cluster.gen_pe[0].u_pe: TRACE state=3 gen_state=2 row=  0 a_rd=   28 a_val=0x4000 a_col=0x00d9 gt_next=   28
tb_mmap.u_accel.u_cluster.gen_pe[1].u_pe: TRACE state=3 gen_state=2 row=  0 a_rd=   28 a_val=0x3c00 a_col=0x007a gt_next=   28
tb_mmap.u_accel.u_cluster.gen_pe[2].u_pe: TRACE state=3 gen_state=2 row=  0 a_rd=   28 a_val=0x3c00 a_col=0x0001 gt_next=   28
tb_mmap.u_accel.u_cluster.gen_pe[2].u_pe: TRACE state=3 gen_state=2 row=  0 a_rd=   28 a_val=0x3c00 a_col=0x0001 gt_next=   28
tb_mmap.u_accel.u_cluster.gen_pe[1].u_pe: TRACE state=3 gen_state=2 row=  0 a_rd=   29 a_val=0x3c00 a_col=0x0081 gt_next=   29
tb_mmap.u_accel.u_cluster.gen_pe[0].u_pe: TRACE state=3 gen_state=2 row=  0 a_rd=   29 a_val=0x4700 a_col=0x00db gt_next=   29
tb_mmap.u_accel.u_cluster.gen_pe[0].u_pe: TRACE state=3 gen_state=2 row=  0 a_rd=   30 a_val=0x3c00 a_col=0x00e8 gt_next=   30
tb_mmap.u_accel.u_cluster.gen_pe[1].u_pe: TRACE state=3 gen_state=2 row=  0 a_rd=   30 a_val=0x4000 a_col=0x0087 gt_next=   30
tb_mmap.u_accel.u_cluster.gen_pe[2].u_pe: TRACE state=3 gen_state=3 row=  0 a_rd=   28 a_val=0x3c00 a_col=0x0001 gt_next=   28
tb_mmap.u_accel.u_cluster.gen_pe[2].u_pe: TRACE state=3 gen_state=3 row=  0 a_rd=   28 a_val=0x3c00 a_col=0x0001 gt_next=   28
tb_mmap.u_accel.u_cluster.gen_pe[1].u_pe: TRACE state=3 gen_state=2 row=  0 a_rd=   31 a_val=0x4500 a_col=0x008b gt_next=   31
tb_mmap.u_accel.u_cluster.gen_pe[0].u_pe: TRACE state=3 gen_state=2 row=  0 a_rd=   31 a_val=0x4200 a_col=0x00ed gt_next=   31
tb_mmap.u_accel.u_cluster.gen_pe[0].u_pe: TRACE state=3 gen_state=2 row=  0 a_rd=   32 a_val=0x4200 a_col=0x00f4 gt_next=   32
tb_mmap.u_accel.u_cluster.gen_pe[1].u_pe: TRACE state=3 gen_state=2 row=  0 a_rd=   32 a_val=0x3c00 a_col=0x008f gt_next=   32
tb_mmap.u_accel.u_cluster.gen_pe[2].u_pe: NEXT_ROW row=  0 →          1 comp_sel=0→1 row_count=   82
tb_mmap.u_accel.u_cluster.gen_pe[2].u_pe: TRACE state=1 gen_state=0 row=  1 a_rd=   28 a_val=0x3c00 a_col=0x0001 gt_next=   28
tb_mmap.u_accel.u_cluster.gen_pe[1].u_pe: TRACE state=3 gen_state=2 row=  0 a_rd=   33 a_val=0x4700 a_col=0x0090 gt_next=   33
tb_mmap.u_accel.u_cluster.gen_pe[0].u_pe: TRACE state=3 gen_state=2 row=  0 a_rd=   33 a_val=0x4000 a_col=0x0002 gt_next=   33
tb_mmap.u_accel.u_cluster.gen_pe[2].u_pe: LOAD_DESC row=  1 crow=168 nnz=  75 off=   28 raw=000e096a8
tb_mmap.u_accel.u_cluster.gen_pe[0].u_pe: TRACE state=3 gen_state=2 row=  0 a_rd=   33 a_val=0x4000 a_col=0x0002 gt_next=   33
tb_mmap.u_accel.u_cluster.gen_pe[1].u_pe: TRACE state=3 gen_state=2 row=  0 a_rd=   34 a_val=0x4600 a_col=0x0091 gt_next=   34
tb_mmap.u_accel.u_cluster.gen_pe[2].u_pe: TRACE state=2 gen_state=0 row=  1 a_rd=   28 a_val=0x3c00 a_col=0x0001 gt_next=    0
tb_mmap.u_accel.u_cluster.gen_pe[2].u_pe: GEN_IDLE row=  1 cur_a_nnz=   75 state_next=     GEN_FETCH
tb_mmap.u_accel.u_cluster.gen_pe[2].u_pe: TRACE state=3 gen_state=1 row=  1 a_rd=   29 a_val=0x4400 a_col=0x000c gt_next=    1
tb_mmap.u_accel.u_cluster.gen_pe[1].u_pe: TRACE state=3 gen_state=2 row=  0 a_rd=   35 a_val=0x4200 a_col=0x0094 gt_next=   35
tb_mmap.u_accel.u_cluster.gen_pe[0].u_pe: TRACE state=3 gen_state=3 row=  0 a_rd=   33 a_val=0x4000 a_col=0x0002 gt_next=   33
tb_mmap.u_accel.u_cluster.gen_pe[2].u_pe: GEN_FETCH row=  1 t=    0 a_col=0x0001 k_idx=  1 b_nnz=   23 b_off=        16
tb_mmap.u_accel.u_cluster.gen_pe[0].u_pe: TRACE state=3 gen_state=3 row=  0 a_rd=   33 a_val=0x4000 a_col=0x0002 gt_next=   33
tb_mmap.u_accel.u_cluster.gen_pe[1].u_pe: TRACE state=3 gen_state=2 row=  0 a_rd=   36 a_val=0x4000 a_col=0x0095 gt_next=   36
tb_mmap.u_accel.u_cluster.gen_pe[2].u_pe: TRACE state=3 gen_state=2 row=  1 a_rd=   30 a_val=0x3c00 a_col=0x000f gt_next=    2
tb_mmap.u_accel.u_cluster.gen_pe[2].u_pe: TRACE state=3 gen_state=2 row=  1 a_rd=   31 a_val=0x4600 a_col=0x0011 gt_next=    3
tb_mmap.u_accel.u_cluster.gen_pe[1].u_pe: TRACE state=3 gen_state=2 row=  0 a_rd=   37 a_val=0x3c00 a_col=0x0096 gt_next=   37
tb_mmap.u_accel.u_cluster.gen_pe[0].u_pe: NEXT_ROW row=  0 →          1 comp_sel=0→1 row_count=   87
tb_mmap.u_accel.u_cluster.gen_pe[0].u_pe: TRACE state=1 gen_state=0 row=  1 a_rd=   33 a_val=0x4000 a_col=0x0002 gt_next=   33
tb_mmap.u_accel.u_cluster.gen_pe[1].u_pe: TRACE state=3 gen_state=2 row=  0 a_rd=   38 a_val=0x4700 a_col=0x0097 gt_next=   38
tb_mmap.u_accel.u_cluster.gen_pe[2].u_pe: TRACE state=3 gen_state=2 row=  1 a_rd=   32 a_val=0x4400 a_col=0x0013 gt_next=    4
tb_mmap.u_accel.u_cluster.gen_pe[0].u_pe: LOAD_DESC row=  1 crow=  1 nnz=  44 off=   33 raw=001085801
tb_mmap.u_accel.u_cluster.gen_pe[2].u_pe: TRACE state=3 gen_state=2 row=  1 a_rd=   33 a_val=0x4500 a_col=0x0019 gt_next=    5
tb_mmap.u_accel.u_cluster.gen_pe[1].u_pe: TRACE state=3 gen_state=2 row=  0 a_rd=   39 a_val=0x4600 a_col=0x0098 gt_next=   39
tb_mmap.u_accel.u_cluster.gen_pe[0].u_pe: TRACE state=2 gen_state=0 row=  1 a_rd=   33 a_val=0x4000 a_col=0x0002 gt_next=    0
tb_mmap.u_accel.u_cluster.gen_pe[0].u_pe: GEN_IDLE row=  1 cur_a_nnz=   44 state_next=     GEN_FETCH
tb_mmap.u_accel.u_cluster.gen_pe[0].u_pe: TRACE state=3 gen_state=1 row=  1 a_rd=   34 a_val=0x4400 a_col=0x0007 gt_next=    1
tb_mmap.u_accel.u_cluster.gen_pe[1].u_pe: TRACE state=3 gen_state=2 row=  0 a_rd=   40 a_val=0x4000 a_col=0x009c gt_next=   40
tb_mmap.u_accel.u_cluster.gen_pe[2].u_pe: TRACE state=3 gen_state=2 row=  1 a_rd=   34 a_val=0x4600 a_col=0x001f gt_next=    6
tb_mmap.u_accel.u_cluster.gen_pe[0].u_pe: GEN_FETCH row=  1 t=    0 a_col=0x0002 k_idx=  2 b_nnz=   16 b_off=        39
tb_mmap.u_accel.u_cluster.gen_pe[2].u_pe: TRACE state=3 gen_state=2 row=  1 a_rd=   35 a_val=0x4000 a_col=0x0023 gt_next=    7
tb_mmap.u_accel.u_cluster.gen_pe[1].u_pe: TRACE state=3 gen_state=2 row=  0 a_rd=   41 a_val=0x4500 a_col=0x00a0 gt_next=   41
tb_mmap.u_accel.u_cluster.gen_pe[0].u_pe: TRACE state=3 gen_state=2 row=  1 a_rd=   35 a_val=0x4700 a_col=0x000b gt_next=    2
tb_mmap.u_accel.u_cluster.gen_pe[0].u_pe: TRACE state=3 gen_state=2 row=  1 a_rd=   36 a_val=0x4700 a_col=0x0019 gt_next=    3
tb_mmap.u_accel.u_cluster.gen_pe[1].u_pe: TRACE state=3 gen_state=2 row=  0 a_rd=   42 a_val=0x4700 a_col=0x00a5 gt_next=   42
tb_mmap.u_accel.u_cluster.gen_pe[2].u_pe: TRACE state=3 gen_state=2 row=  1 a_rd=   36 a_val=0x4700 a_col=0x0025 gt_next=    8
tb_mmap.u_accel.u_cluster.gen_pe[2].u_pe: TRACE state=3 gen_state=2 row=  1 a_rd=   37 a_val=0x4400 a_col=0x0028 gt_next=    9
tb_mmap.u_accel.u_cluster.gen_pe[1].u_pe: TRACE state=3 gen_state=2 row=  0 a_rd=   43 a_val=0x4500 a_col=0x00a7 gt_next=   43
tb_mmap.u_accel.u_cluster.gen_pe[0].u_pe: TRACE state=3 gen_state=2 row=  1 a_rd=   37 a_val=0x3c00 a_col=0x0026 gt_next=    4
tb_mmap.u_accel.u_cluster.gen_pe[0].u_pe: TRACE state=3 gen_state=2 row=  1 a_rd=   38 a_val=0x3c00 a_col=0x002d gt_next=    5
tb_mmap.u_accel.u_cluster.gen_pe[1].u_pe: TRACE state=3 gen_state=2 row=  0 a_rd=   44 a_val=0x4200 a_col=0x00a9 gt_next=   44
tb_mmap.u_accel.u_cluster.gen_pe[2].u_pe: TRACE state=3 gen_state=2 row=  1 a_rd=   38 a_val=0x4200 a_col=0x0029 gt_next=   10
