sim_row_accum.vcd
$date
	Sun Jun 21 19:54:50 2026
$end
$version
	Icarus Verilog
$end
$timescale
	1ps
$end
$scope module tb_row_accumulator_4bank $end
$var wire 1 ! row_done $end
$var wire 32 " out_value [31:0] $end
$var wire 1 # out_valid $end
$var wire 16 $ out_row_id [15:0] $end
$var wire 9 % out_col_id [8:0] $end
$var wire 1 & issue_ready $end
$var wire 1 ' busy $end
$var reg 1 ( clk $end
$var reg 1 ) issue_valid $end
$var reg 36 * lane_col_id [35:0] $end
$var reg 64 + lane_product [63:0] $end
$var reg 4 , lane_valid [3:0] $end
$var reg 1 - out_ready $end
$var reg 16 . row_id_in [15:0] $end
$var reg 1 / row_input_done $end
$var reg 1 0 row_start $end
$var reg 1 1 rst_n $end
$var integer 32 2 cur_test_row_id [31:0] $end
$var integer 32 3 fail_cnt [31:0] $end
$var integer 32 4 i [31:0] $end
$var integer 32 5 pass_cnt [31:0] $end
$var integer 32 6 ref_nonzero [31:0] $end
$scope module dut $end
$var wire 1 7 all_clr_done $end
$var wire 1 8 all_fifos_empty $end
$var wire 1 9 all_rmw_done $end
$var wire 1 ( clk $end
$var wire 1 : cur_valid_entry $end
$var wire 1 ; do_enqueue $end
$var wire 7 < drain_rd_addr [6:0] $end
$var wire 1 & issue_ready $end
$var wire 1 ) issue_valid $end
$var wire 36 = lane_col_id [35:0] $end
$var wire 64 > lane_product [63:0] $end
$var wire 4 ? lane_valid [3:0] $end
$var wire 1 @ last_cell $end
$var wire 1 - out_ready $end
$var wire 16 A row_id_in [15:0] $end
$var wire 1 / row_input_done $end
$var wire 1 0 row_start $end
$var wire 1 1 rst_n $end
$var wire 1 B tag_clear_pulse $end
$var wire 64 C wr_data_flat [63:0] $end
$var wire 28 D wr_addr_flat [27:0] $end
$var wire 16 E sel_tag [15:0] $end
$var wire 32 F sel_acc [31:0] $end
$var wire 1 G rmw_b3 $end
$var wire 1 H rmw_b2 $end
$var wire 1 I rmw_b1 $end
$var wire 1 J rmw_b0 $end
$var wire 3 K mc3 [2:0] $end
$var wire 3 L mc2 [2:0] $end
$var wire 3 M mc1 [2:0] $end
$var wire 3 N mc0 [2:0] $end
$var wire 4 O free_b3 [3:0] $end
$var wire 4 P free_b2 [3:0] $end
$var wire 4 Q free_b1 [3:0] $end
$var wire 4 R free_b0 [3:0] $end
$var wire 1 S emp_b3 $end
$var wire 1 T emp_b2 $end
$var wire 1 U emp_b1 $end
$var wire 1 V emp_b0 $end
$var wire 16 W dtag_b3 [15:0] $end
$var wire 16 X dtag_b2 [15:0] $end
$var wire 16 Y dtag_b1 [15:0] $end
$var wire 16 Z dtag_b0 [15:0] $end
$var wire 32 [ dacc_b3 [31:0] $end
$var wire 32 \ dacc_b2 [31:0] $end
$var wire 32 ] dacc_b1 [31:0] $end
$var wire 32 ^ dacc_b0 [31:0] $end
$var wire 1 _ clr_b3 $end
$var wire 1 ` clr_b2 $end
$var wire 1 a clr_b1 $end
$var wire 1 b clr_b0 $end
$var wire 4 c bwv3 [3:0] $end
$var wire 4 d bwv2 [3:0] $end
$var wire 4 e bwv1 [3:0] $end
$var wire 4 f bwv0 [3:0] $end
$var wire 2 g bid3 [1:0] $end
$var wire 2 h bid2 [1:0] $end
$var wire 2 i bid1 [1:0] $end
$var wire 2 j bid0 [1:0] $end
$var parameter 32 k ACC_W $end
$var parameter 33 l BANK_ADDR_W $end
$var parameter 32 m BANK_DEPTH $end
$var parameter 32 n BANK_FIFO_DEPTH $end
$var parameter 32 o BANK_FIFO_LOG $end
$var parameter 33 p BANK_LAST $end
$var parameter 32 q COL_W $end
$var parameter 32 r EPOCH_W $end
$var parameter 32 s OUT_COLS $end
$var parameter 32 t PROD_W $end
$var parameter 32 u ROW_W $end
$var parameter 3 v S_ACCUM $end
$var parameter 3 w S_CLEAR_TAGS $end
$var parameter 3 x S_DONE $end
$var parameter 3 y S_DRAIN $end
$var parameter 3 z S_IDLE $end
$var parameter 3 { S_WAIT_DRAIN $end
$var reg 2 | bank_sel [1:0] $end
$var reg 1 ' busy $end
$var reg 1 } clr_triggered $end
$var reg 16 ~ cur_row_id [15:0] $end
$var reg 1 !" drain_emit $end
$var reg 7 "" group_addr [6:0] $end
$var reg 1 #" input_done_latch $end
$var reg 9 $" out_col_id [8:0] $end
$var reg 16 %" out_row_id [15:0] $end
$var reg 1 # out_valid $end
$var reg 32 &" out_value [31:0] $end
$var reg 9 '" prev_col [8:0] $end
$var reg 1 (" prev_col_valid $end
$var reg 1 ! row_done $end
$var reg 16 )" row_epoch [15:0] $end
$var reg 3 *" state [2:0] $end
$var integer 32 +" ai [31:0] $end
$var integer 32 ," bi [31:0] $end
$scope module u_bank0 $end
$var wire 1 ( clk $end
$var wire 1 -" deq_fire $end
$var wire 32 ." drain_acc [31:0] $end
$var wire 7 /" drain_rd_addr [6:0] $end
$var wire 16 0" drain_tag [15:0] $end
$var wire 16 1" row_epoch [15:0] $end
$var wire 1 1 rst_n $end
$var wire 1 b tag_clear_busy $end
$var wire 1 B tag_clear_en $end
$var wire 3 2" waddr0 [2:0] $end
$var wire 28 3" wr_addr_flat [27:0] $end
$var wire 64 4" wr_data_flat [63:0] $end
$var wire 4 5" wr_valid [3:0] $end
$var wire 3 6" wr_cnt [2:0] $end
$var wire 3 7" waddr3 [2:0] $end
$var wire 3 8" waddr2 [2:0] $end
$var wire 3 9" waddr1 [2:0] $end
$var wire 2 :" slot3 [1:0] $end
$var wire 2 ;" slot2 [1:0] $end
$var wire 2 <" slot1 [1:0] $end
$var wire 1 J rmw_busy $end
$var wire 4 =" free_count [3:0] $end
$var wire 1 V fifo_empty $end
$var parameter 32 >" ACC_W $end
$var parameter 33 ?" BANK_ADDR_W $end
$var parameter 32 @" BANK_DEPTH $end
$var parameter 33 A" BANK_LAST $end
$var parameter 34 B" ENTRY_W $end
$var parameter 32 C" EPOCH_W $end
$var parameter 32 D" FIFO_DEPTH $end
$var parameter 32 E" FIFO_DEPTH_LOG $end
$var parameter 33 F" FIFO_MASK $end
$var parameter 32 G" PROD_W $end
$var parameter 2 H" RMW_ADD $end
$var parameter 2 I" RMW_IDLE $end
$var parameter 2 J" RMW_READ $end
$var parameter 2 K" RMW_WRITE $end
$var reg 1 b clr_active $end
$var reg 7 L" clr_idx [6:0] $end
$var reg 4 M" fifo_cnt [3:0] $end
$var reg 3 N" fifo_head [2:0] $end
$var reg 3 O" fifo_tail [2:0] $end
$var reg 7 P" rmw_addr [6:0] $end
$var reg 32 Q" rmw_new [31:0] $end
$var reg 32 R" rmw_old [31:0] $end
$var reg 16 S" rmw_old_tag [15:0] $end
$var reg 16 T" rmw_prod [15:0] $end
$var reg 2 U" rmw_st [1:0] $end
$var integer 32 V" ci [31:0] $end
$var integer 32 W" fi [31:0] $end
$upscope $end
$scope module u_bank1 $end
$var wire 1 ( clk $end
$var wire 1 X" deq_fire $end
$var wire 32 Y" drain_acc [31:0] $end
$var wire 7 Z" drain_rd_addr [6:0] $end
$var wire 16 [" drain_tag [15:0] $end
$var wire 16 \" row_epoch [15:0] $end
$var wire 1 1 rst_n $end
$var wire 1 a tag_clear_busy $end
$var wire 1 B tag_clear_en $end
$var wire 3 ]" waddr0 [2:0] $end
$var wire 28 ^" wr_addr_flat [27:0] $end
$var wire 64 _" wr_data_flat [63:0] $end
$var wire 4 `" wr_valid [3:0] $end
$var wire 3 a" wr_cnt [2:0] $end
$var wire 3 b" waddr3 [2:0] $end
$var wire 3 c" waddr2 [2:0] $end
$var wire 3 d" waddr1 [2:0] $end
$var wire 2 e" slot3 [1:0] $end
$var wire 2 f" slot2 [1:0] $end
$var wire 2 g" slot1 [1:0] $end
$var wire 1 I rmw_busy $end
$var wire 4 h" free_count [3:0] $end
$var wire 1 U fifo_empty $end
$var parameter 32 i" ACC_W $end
$var parameter 33 j" BANK_ADDR_W $end
$var parameter 32 k" BANK_DEPTH $end
$var parameter 33 l" BANK_LAST $end
$var parameter 34 m" ENTRY_W $end
$var parameter 32 n" EPOCH_W $end
$var parameter 32 o" FIFO_DEPTH $end
$var parameter 32 p" FIFO_DEPTH_LOG $end
$var parameter 33 q" FIFO_MASK $end
$var parameter 32 r" PROD_W $end
$var parameter 2 s" RMW_ADD $end
$var parameter 2 t" RMW_IDLE $end
$var parameter 2 u" RMW_READ $end
$var parameter 2 v" RMW_WRITE $end
$var reg 1 a clr_active $end
$var reg 7 w" clr_idx [6:0] $end
$var reg 4 x" fifo_cnt [3:0] $end
$var reg 3 y" fifo_head [2:0] $end
$var reg 3 z" fifo_tail [2:0] $end
$var reg 7 {" rmw_addr [6:0] $end
$var reg 32 |" rmw_new [31:0] $end
$var reg 32 }" rmw_old [31:0] $end
$var reg 16 ~" rmw_old_tag [15:0] $end
$var reg 16 !# rmw_prod [15:0] $end
$var reg 2 "# rmw_st [1:0] $end
$var integer 32 ## ci [31:0] $end
$var integer 32 $# fi [31:0] $end
$upscope $end
$scope module u_bank2 $end
$var wire 1 ( clk $end
$var wire 1 %# deq_fire $end
$var wire 32 &# drain_acc [31:0] $end
$var wire 7 '# drain_rd_addr [6:0] $end
$var wire 16 (# drain_tag [15:0] $end
$var wire 16 )# row_epoch [15:0] $end
$var wire 1 1 rst_n $end
$var wire 1 ` tag_clear_busy $end
$var wire 1 B tag_clear_en $end
$var wire 3 *# waddr0 [2:0] $end
$var wire 28 +# wr_addr_flat [27:0] $end
$var wire 64 ,# wr_data_flat [63:0] $end
$var wire 4 -# wr_valid [3:0] $end
$var wire 3 .# wr_cnt [2:0] $end
$var wire 3 /# waddr3 [2:0] $end
$var wire 3 0# waddr2 [2:0] $end
$var wire 3 1# waddr1 [2:0] $end
$var wire 2 2# slot3 [1:0] $end
$var wire 2 3# slot2 [1:0] $end
$var wire 2 4# slot1 [1:0] $end
$var wire 1 H rmw_busy $end
$var wire 4 5# free_count [3:0] $end
$var wire 1 T fifo_empty $end
$var parameter 32 6# ACC_W $end
$var parameter 33 7# BANK_ADDR_W $end
$var parameter 32 8# BANK_DEPTH $end
$var parameter 33 9# BANK_LAST $end
$var parameter 34 :# ENTRY_W $end
$var parameter 32 ;# EPOCH_W $end
$var parameter 32 <# FIFO_DEPTH $end
$var parameter 32 =# FIFO_DEPTH_LOG $end
$var parameter 33 ># FIFO_MASK $end
$var parameter 32 ?# PROD_W $end
$var parameter 2 @# RMW_ADD $end
$var parameter 2 A# RMW_IDLE $end
$var parameter 2 B# RMW_READ $end
$var parameter 2 C# RMW_WRITE $end
$var reg 1 ` clr_active $end
$var reg 7 D# clr_idx [6:0] $end
$var reg 4 E# fifo_cnt [3:0] $end
$var reg 3 F# fifo_head [2:0] $end
$var reg 3 G# fifo_tail [2:0] $end
$var reg 7 H# rmw_addr [6:0] $end
$var reg 32 I# rmw_new [31:0] $end
$var reg 32 J# rmw_old [31:0] $end
$var reg 16 K# rmw_old_tag [15:0] $end
$var reg 16 L# rmw_prod [15:0] $end
$var reg 2 M# rmw_st [1:0] $end
$var integer 32 N# ci [31:0] $end
$var integer 32 O# fi [31:0] $end
$upscope $end
$scope module u_bank3 $end
$var wire 1 ( clk $end
$var wire 1 P# deq_fire $end
$var wire 32 Q# drain_acc [31:0] $end
$var wire 7 R# drain_rd_addr [6:0] $end
$var wire 16 S# drain_tag [15:0] $end
$var wire 16 T# row_epoch [15:0] $end
$var wire 1 1 rst_n $end
$var wire 1 _ tag_clear_busy $end
$var wire 1 B tag_clear_en $end
$var wire 3 U# waddr0 [2:0] $end
$var wire 28 V# wr_addr_flat [27:0] $end
$var wire 64 W# wr_data_flat [63:0] $end
$var wire 4 X# wr_valid [3:0] $end
$var wire 3 Y# wr_cnt [2:0] $end
$var wire 3 Z# waddr3 [2:0] $end
$var wire 3 [# waddr2 [2:0] $end
$var wire 3 \# waddr1 [2:0] $end
$var wire 2 ]# slot3 [1:0] $end
$var wire 2 ^# slot2 [1:0] $end
$var wire 2 _# slot1 [1:0] $end
$var wire 1 G rmw_busy $end
$var wire 4 `# free_count [3:0] $end
$var wire 1 S fifo_empty $end
$var parameter 32 a# ACC_W $end
$var parameter 33 b# BANK_ADDR_W $end
$var parameter 32 c# BANK_DEPTH $end
$var parameter 33 d# BANK_LAST $end
$var parameter 34 e# ENTRY_W $end
$var parameter 32 f# EPOCH_W $end
$var parameter 32 g# FIFO_DEPTH $end
$var parameter 32 h# FIFO_DEPTH_LOG $end
$var parameter 33 i# FIFO_MASK $end
$var parameter 32 j# PROD_W $end
$var parameter 2 k# RMW_ADD $end
$var parameter 2 l# RMW_IDLE $end
$var parameter 2 m# RMW_READ $end
$var parameter 2 n# RMW_WRITE $end
$var reg 1 _ clr_active $end
$var reg 7 o# clr_idx [6:0] $end
$var reg 4 p# fifo_cnt [3:0] $end
$var reg 3 q# fifo_head [2:0] $end
$var reg 3 r# fifo_tail [2:0] $end
$var reg 7 s# rmw_addr [6:0] $end
$var reg 32 t# rmw_new [31:0] $end
$var reg 32 u# rmw_old [31:0] $end
$var reg 16 v# rmw_old_tag [15:0] $end
$var reg 16 w# rmw_prod [15:0] $end
$var reg 2 x# rmw_st [1:0] $end
$var integer 32 y# ci [31:0] $end
$var integer 32 z# fi [31:0] $end
$upscope $end
$upscope $end
$scope begin bp_test $end
$var integer 32 {# bp_emit [31:0] $end
$var integer 32 |# bp_last_col [31:0] $end
$var integer 32 }# bp_timeout [31:0] $end
$scope begin bp_check $end
$var integer 32 ~# bp_cur_col [31:0] $end
$upscope $end
$upscope $end
$scope begin rand_test $end
$var reg 9 !$ c0r [8:0] $end
$var reg 9 "$ c1r [8:0] $end
$var reg 9 #$ c2r [8:0] $end
$var reg 9 $$ c3r [8:0] $end
$var reg 16 %$ p0r [15:0] $end
$var reg 16 &$ p1r [15:0] $end
$var reg 16 '$ p2r [15:0] $end
$var reg 16 ($ p3r [15:0] $end
$var reg 4 )$ vr [3:0] $end
$var integer 32 *$ bundle_i [31:0] $end
$var integer 32 +$ num_bundles [31:0] $end
$var integer 32 ,$ num_rows [31:0] $end
$var integer 32 -$ row_i [31:0] $end
$upscope $end
$scope task done_input $end
$upscope $end
$scope task issue_bundle $end
$var reg 9 .$ c0 [8:0] $end
$var reg 9 /$ c1 [8:0] $end
$var reg 9 0$ c2 [8:0] $end
$var reg 9 1$ c3 [8:0] $end
$var reg 16 2$ p0 [15:0] $end
$var reg 16 3$ p1 [15:0] $end
$var reg 16 4$ p2 [15:0] $end
$var reg 16 5$ p3 [15:0] $end
$var reg 4 6$ vld [3:0] $end
$var integer 32 7$ timeout [31:0] $end
$upscope $end
$scope task ref_add $end
$var integer 32 8$ col [31:0] $end
$var integer 32 9$ prod [31:0] $end
$var integer 32 :$ sp [31:0] $end
$upscope $end
$scope task ref_clear $end
$var integer 32 ;$ i [31:0] $end
$upscope $end
$scope task start_row $end
$var reg 16 <$ rid [15:0] $end
$upscope $end
$scope task verify_row $end
$var reg 16 =$ expected_row_id [15:0] $end
$var integer 32 >$ col [31:0] $end
$var integer 32 ?$ emit_count [31:0] $end
$var integer 32 @$ last_col [31:0] $end
$var integer 32 A$ max_cycles [31:0] $end
$var integer 32 B$ timeout [31:0] $end
$var integer 32 C$ val [31:0] $end
$scope begin chk_blk $end
$var integer 32 D$ ii [31:0] $end
$upscope $end
$scope begin cnt_blk $end
$var integer 32 E$ ii [31:0] $end
$upscope $end
$upscope $end
$upscope $end
$enddefinitions $end
$comment Show the parameter values. $end
$dumpall
b11 n#
b1 m#
b0 l#
b10 k#
b10000 j#
b111 i#
b11 h#
b1000 g#
b10000 f#
b10111 e#
b1111111 d#
b10000000 c#
b111 b#
b100000 a#
b11 C#
b1 B#
b0 A#
b10 @#
b10000 ?#
b111 >#
b11 =#
b1000 <#
b10000 ;#
b10111 :#
b1111111 9#
b10000000 8#
b111 7#
b100000 6#
b11 v"
b1 u"
b0 t"
b10 s"
b10000 r"
b111 q"
b11 p"
b1000 o"
b10000 n"
b10111 m"
b1111111 l"
b10000000 k"
b111 j"
b100000 i"
b11 K"
b1 J"
b0 I"
b10 H"
b10000 G"
b111 F"
b11 E"
b1000 D"
b10000 C"
b10111 B"
b1111111 A"
b10000000 @"
b111 ?"
b100000 >"
b10 {
b0 z
b11 y
b100 x
b101 w
b1 v
b10000 u
b10000 t
b1000000000 s
b10000 r
b1001 q
b1111111 p
b11 o
b1000 n
b10000000 m
b111 l
b100000 k
$end
#0
$dumpvars
bx E$
bx D$
bx C$
bx B$
bx A$
bx @$
bx ?$
bx >$
bx =$
bx <$
b1000000000 ;$
bx :$
bx 9$
bx 8$
bx 7$
bx 6$
bx 5$
bx 4$
bx 3$
bx 2$
bx 1$
bx 0$
bx /$
bx .$
bx -$
bx ,$
bx +$
bx *$
bx )$
bx ($
bx '$
bx &$
bx %$
bx $$
bx #$
bx "$
bx !$
bx ~#
bx }#
bx |#
bx {#
b1000 z#
b10000000 y#
b0 x#
b0 w#
b0 v#
b0 u#
b0 t#
b0 s#
b0 r#
b0 q#
b0 p#
b0 o#
b1000 `#
b0 _#
b0 ^#
b0 ]#
b0 \#
b0 [#
b0 Z#
b0 Y#
b0 X#
b0 W#
b0 V#
b0 U#
b1 T#
b0 S#
b0 R#
bx Q#
0P#
b1000 O#
b10000000 N#
b0 M#
b0 L#
b0 K#
b0 J#
b0 I#
b0 H#
b0 G#
b0 F#
b0 E#
b0 D#
b1000 5#
b0 4#
b0 3#
b0 2#
b0 1#
b0 0#
b0 /#
b0 .#
b0 -#
b0 ,#
b0 +#
b0 *#
b1 )#
b0 (#
b0 '#
bx &#
0%#
b1000 $#
b10000000 ##
b0 "#
b0 !#
b0 ~"
b0 }"
b0 |"
b0 {"
b0 z"
b0 y"
b0 x"
b0 w"
b1000 h"
b0 g"
b0 f"
b0 e"
b0 d"
b0 c"
b0 b"
b0 a"
b0 `"
b0 _"
b0 ^"
b0 ]"
b1 \"
b0 ["
b0 Z"
bx Y"
0X"
b1000 W"
b10000000 V"
b0 U"
b0 T"
b0 S"
b0 R"
b0 Q"
b0 P"
b0 O"
b0 N"
b0 M"
b0 L"
b1000 ="
b0 <"
b0 ;"
b0 :"
b0 9"
b0 8"
b0 7"
b0 6"
b0 5"
b0 4"
b0 3"
b0 2"
b1 1"
b0 0"
b0 /"
bx ."
0-"
bx ,"
bx +"
b0 *"
b1 )"
0("
b0 '"
b0 &"
b0 %"
b0 $"
0#"
b0 ""
0!"
b0 ~
0}
b0 |
b0 j
b0 i
b0 h
b0 g
b0 f
b0 e
b0 d
b0 c
0b
0a
0`
0_
bx ^
bx ]
bx \
bx [
b0 Z
b0 Y
b0 X
b0 W
1V
1U
1T
1S
b1000 R
b1000 Q
b1000 P
b1000 O
b0 N
b0 M
b0 L
b0 K
0J
0I
0H
0G
bx F
b0 E
b0 D
b0 C
0B
b0 A
0@
b0 ?
b0 >
b0 =
b0 <
0;
0:
19
18
17
b0 6
b0 5
bx 4
b0 3
bx 2
01
00
0/
b0 .
0-
b0 ,
b0 +
b0 *
0)
0(
0'
0&
b0 %
b0 $
0#
b0 "
0!
$end
#5000
b10000000 y#
b1000 z#
b10000000 N#
b1000 O#
b10000000 ##
b1000 $#
b10000000 V"
b1000 W"
1(
#10000
0(
#15000
b1000 W"
b10000000 V"
b1000 $#
b10000000 ##
b1000 O#
b10000000 N#
b1000 z#
b10000000 y#
1(
#20000
0(
#25000
b10000000 y#
b1000 z#
b10000000 N#
b1000 O#
b10000000 ##
b1000 $#
b10000000 V"
b1000 W"
1(
#30000
0(
#35000
b1000 W"
b10000000 V"
b1000 $#
b10000000 ##
b1000 O#
b10000000 N#
b1000 z#
b10000000 y#
1(
#40000
0(
#45000
11
1(
#50000
0(
#55000
1(
#60000
0(
#65000
1(
#70000
0(
#75000
b1 <$
1(
#80000
10
b1 .
b1 A
0(
#85000
1&
b1 *"
1'
b1 ~
1(
#86000
b100 5$
b11 4$
b10 3$
b1 2$
b11 1$
b10 0$
b1 /$
b0 .$
b1111 6$
b1000000000 ;$
b1 2
00
#90000
b1 6"
b1 9"
b1 <"
b1 7"
b1 :"
b1 8"
b1 ;"
b1 a"
b1 b"
b1 e"
b1 c"
b1 f"
b1 .#
b1 /#
b1 2#
b1 Y#
b1 f
b1 5"
b10 e
b10 `"
b100 d
b100 -#
b1000 c
b1000 X#
b1 N
b1 M
b1 L
b1 K
b1 i
b10 h
b11 g
1;
b100 :$
b100 9$
b11 8$
b0 7$
b100000000000000001100000000000000100000000000000001 C
b100000000000000001100000000000000100000000000000001 4"
b100000000000000001100000000000000100000000000000001 _"
b100000000000000001100000000000000100000000000000001 ,#
b100000000000000001100000000000000100000000000000001 W#
b100000000000000001100000000000000100000000000000001 +
b100000000000000001100000000000000100000000000000001 >
b11000000010000000001000000000 *
b11000000010000000001000000000 =
b1111 ,
b1111 ?
1)
0(
#95000
1-"
1X"
1%#
1P#
08
0V
b111 R
b111 ="
b1 M"
b10 9"
b10 8"
b10 7"
b1 2"
b1 O"
0U
b111 Q
b111 h"
b1 x"
b1 d"
b10 c"
b10 b"
b1 ]"
b1 z"
0T
b111 P
b111 5#
b1 E#
b1 1#
b1 0#
b10 /#
b1 *#
b1 G#
0S
b111 O
b111 `#
b1 p#
b1 \#
b1 [#
b1 Z#
b1 U#
b1 r#
b100 ,"
b100 +"
1(
#96000
b0 6"
b1 9"
b0 <"
b1 7"
b0 :"
b1 8"
b0 ;"
b0 a"
b1 b"
b0 e"
b1 c"
b0 f"
b0 .#
b1 /#
b0 2#
b0 Y#
b0 f
b0 5"
b0 e
b0 `"
b0 d
b0 -#
b0 c
b0 X#
0;
0)
#100000
1/
0(
#105000
0&
09
0P#
18
0%#
0X"
0-"
b10 *"
1#"
1G
b1 x#
b100 w#
1S
b1000 O
b1000 `#
b0 p#
b1 q#
1H
b1 M#
b11 L#
1T
b1000 P
b1000 5#
b0 E#
b1 F#
1I
b1 "#
b10 !#
1U
b1000 Q
b1000 h"
b0 x"
b1 y"
1J
b1 U"
b1 T"
1V
b1000 R
b1000 ="
b0 M"
b1 N"
1(
#106000
b100 6
b1000000000 E$
1-
b11111111111111111111111111111111 @$
b0 ?$
b0 B$
b1001110001000 A$
b1 =$
0/
#110000
0(
#115000
b10 U"
bx R"
b10 "#
bx }"
b10 M#
bx J#
b10 x#
bx u#
1(
#116000
b1 B$
#120000
0(
#125000
b11 x#
b100 t#
b11 M#
b11 I#
b11 "#
b10 |"
b11 U"
b1 Q"
1(
#126000
b10 B$
#130000
0(
#135000
19
1:
b1 F
b1 E
0J
b0 U"
b1 ^
b1 ."
b1 Z
b1 0"
0I
b0 "#
b10 ]
b10 Y"
b1 Y
b1 ["
0H
b0 M#
b11 \
b11 &#
b1 X
b1 (#
0G
b0 x#
b100 [
b100 Q#
b1 W
b1 S#
1(
#136000
b11 B$
#140000
0(
#145000
b11 *"
1(
#146000
b100 B$
#150000
0(
#155000
b1 "
b1 &"
b1 $
b1 %"
1#
1!"
1(
#156000
b101 B$
b1 ?$
b0 @$
b1 C$
b0 >$
#160000
0(
#165000
b10 F
1("
b1 |
0!"
0#
1(
#166000
b110 B$
#170000
0(
#175000
b10 "
b10 &"
b1 %
b1 $"
1#
1!"
1(
#176000
b111 B$
b10 ?$
b1 @$
b10 C$
b1 >$
#180000
0(
#185000
b11 F
b1 '"
b10 |
0!"
0#
1(
#186000
b1000 B$
#190000
0(
#195000
b11 "
b11 &"
b10 %
b10 $"
1#
1!"
1(
#196000
b1001 B$
b11 ?$
b10 @$
b11 C$
b10 >$
#200000
0(
#205000
b100 F
b10 '"
b11 |
0!"
0#
1(
#206000
b1010 B$
#210000
0(
#215000
b100 "
b100 &"
b11 %
b11 $"
1#
1!"
1(
#216000
b1011 B$
b100 ?$
b11 @$
b100 C$
b11 >$
#220000
0(
#225000
0:
b0 E
bx F
b11 '"
b0 Z
b0 0"
bx ^
bx ."
b0 Y
b0 ["
bx ]
bx Y"
b0 X
b0 (#
bx \
bx &#
b0 W
b0 S#
bx [
bx Q#
b1 <
b1 /"
b1 Z"
b1 '#
b1 R#
b1 ""
b0 |
0!"
0#
1(
#226000
b1100 B$
#230000
0(
#235000
b1 |
1(
#236000
b1101 B$
#240000
0(
#245000
b10 |
1(
#246000
b1110 B$
#250000
0(
#255000
b11 |
1(
#256000
b1111 B$
#260000
0(
#265000
b10 <
b10 /"
b10 Z"
b10 '#
b10 R#
b10 ""
b0 |
1(
#266000
b10000 B$
#270000
0(
#275000
b1 |
1(
#276000
b10001 B$
#280000
0(
#285000
b10 |
1(
#286000
b10010 B$
#290000
0(
#295000
b11 |
1(
#296000
b10011 B$
#300000
0(
#305000
b11 <
b11 /"
b11 Z"
b11 '#
b11 R#
b11 ""
b0 |
1(
#306000
b10100 B$
#310000
0(
#315000
b1 |
1(
#316000
b10101 B$
#320000
0(
#325000
b10 |
1(
#326000
b10110 B$
#330000
0(
#335000
b11 |
1(
#336000
b10111 B$
#340000
0(
#345000
b100 <
b100 /"
b100 Z"
b100 '#
b100 R#
b100 ""
b0 |
1(
#346000
b11000 B$
#350000
0(
#355000
b1 |
1(
#356000
b11001 B$
#360000
0(
#365000
b10 |
1(
#366000
b11010 B$
#370000
0(
#375000
b11 |
1(
#376000
b11011 B$
#380000
0(
#385000
b101 <
b101 /"
b101 Z"
b101 '#
b101 R#
b101 ""
b0 |
1(
#386000
b11100 B$
#390000
0(
#395000
b1 |
1(
#396000
b11101 B$
#400000
0(
#405000
b10 |
1(
#406000
b11110 B$
#410000
0(
#415000
b11 |
1(
#416000
b11111 B$
#420000
0(
#425000
b110 <
b110 /"
b110 Z"
b110 '#
b110 R#
b110 ""
b0 |
1(
#426000
b100000 B$
#430000
0(
#435000
b1 |
1(
#436000
b100001 B$
#440000
0(
#445000
b10 |
1(
#446000
b100010 B$
#450000
0(
#455000
b11 |
1(
#456000
b100011 B$
#460000
0(
#465000
b111 <
b111 /"
b111 Z"
b111 '#
b111 R#
b111 ""
b0 |
1(
#466000
b100100 B$
#470000
0(
#475000
b1 |
1(
#476000
b100101 B$
#480000
0(
#485000
b10 |
1(
#486000
b100110 B$
#490000
0(
#495000
b11 |
1(
#496000
b100111 B$
#500000
0(
#505000
b1000 <
b1000 /"
b1000 Z"
b1000 '#
b1000 R#
b1000 ""
b0 |
1(
#506000
b101000 B$
#510000
0(
#515000
b1 |
1(
#516000
b101001 B$
#520000
0(
#525000
b10 |
1(
#526000
b101010 B$
#530000
0(
#535000
b11 |
1(
#536000
b101011 B$
#540000
0(
#545000
b1001 <
b1001 /"
b1001 Z"
b1001 '#
b1001 R#
b1001 ""
b0 |
1(
#546000
b101100 B$
#550000
0(
#555000
b1 |
1(
#556000
b101101 B$
#560000
0(
#565000
b10 |
1(
#566000
b101110 B$
#570000
0(
#575000
b11 |
1(
#576000
b101111 B$
#580000
0(
#585000
b1010 <
b1010 /"
b1010 Z"
b1010 '#
b1010 R#
b1010 ""
b0 |
1(
#586000
b110000 B$
#590000
0(
#595000
b1 |
1(
#596000
b110001 B$
#600000
0(
#605000
b10 |
1(
#606000
b110010 B$
#610000
0(
#615000
b11 |
1(
#616000
b110011 B$
#620000
0(
#625000
b1011 <
b1011 /"
b1011 Z"
b1011 '#
b1011 R#
b1011 ""
b0 |
1(
#626000
b110100 B$
#630000
0(
#635000
b1 |
1(
#636000
b110101 B$
#640000
0(
#645000
b10 |
1(
#646000
b110110 B$
#650000
0(
#655000
b11 |
1(
#656000
b110111 B$
#660000
0(
#665000
b1100 <
b1100 /"
b1100 Z"
b1100 '#
b1100 R#
b1100 ""
b0 |
1(
#666000
b111000 B$
#670000
0(
#675000
b1 |
1(
#676000
b111001 B$
#680000
0(
#685000
b10 |
1(
#686000
b111010 B$
#690000
0(
#695000
b11 |
1(
#696000
b111011 B$
#700000
0(
#705000
b1101 <
b1101 /"
b1101 Z"
b1101 '#
b1101 R#
b1101 ""
b0 |
1(
#706000
b111100 B$
#710000
0(
#715000
b1 |
1(
#716000
b111101 B$
#720000
0(
#725000
b10 |
1(
#726000
b111110 B$
#730000
0(
#735000
b11 |
1(
#736000
b111111 B$
#740000
0(
#745000
b1110 <
b1110 /"
b1110 Z"
b1110 '#
b1110 R#
b1110 ""
b0 |
1(
#746000
b1000000 B$
#750000
0(
#755000
b1 |
1(
#756000
b1000001 B$
#760000
0(
#765000
b10 |
1(
#766000
b1000010 B$
#770000
0(
#775000
b11 |
1(
#776000
b1000011 B$
#780000
0(
#785000
b1111 <
b1111 /"
b1111 Z"
b1111 '#
b1111 R#
b1111 ""
b0 |
1(
#786000
b1000100 B$
#790000
0(
#795000
b1 |
1(
#796000
b1000101 B$
#800000
0(
#805000
b10 |
1(
#806000
b1000110 B$
#810000
0(
#815000
b11 |
1(
#816000
b1000111 B$
#820000
0(
#825000
b10000 <
b10000 /"
b10000 Z"
b10000 '#
b10000 R#
b10000 ""
b0 |
1(
#826000
b1001000 B$
#830000
0(
#835000
b1 |
1(
#836000
b1001001 B$
#840000
0(
#845000
b10 |
1(
#846000
b1001010 B$
#850000
0(
#855000
b11 |
1(
#856000
b1001011 B$
#860000
0(
#865000
b10001 <
b10001 /"
b10001 Z"
b10001 '#
b10001 R#
b10001 ""
b0 |
1(
#866000
b1001100 B$
#870000
0(
#875000
b1 |
1(
#876000
b1001101 B$
#880000
0(
#885000
b10 |
1(
#886000
b1001110 B$
#890000
0(
#895000
b11 |
1(
#896000
b1001111 B$
#900000
0(
#905000
b10010 <
b10010 /"
b10010 Z"
b10010 '#
b10010 R#
b10010 ""
b0 |
1(
#906000
b1010000 B$
#910000
0(
#915000
b1 |
1(
#916000
b1010001 B$
#920000
0(
#925000
b10 |
1(
#926000
b1010010 B$
#930000
0(
#935000
b11 |
1(
#936000
b1010011 B$
#940000
0(
