test/pe_sim/sim_build/pe_cluster_dump.vcd
$date
	Sat Jun 27 11:53:46 2026
$end
$version
	Icarus Verilog
$end
$timescale
	1ps
$end
$scope module tb_pe_cluster $end
$scope module u_cluster $end
$scope begin gen_pe[0] $end
$scope module u_pe $end
$var reg 3 ! state [2:0] $end
$upscope $end
$upscope $end
$upscope $end
$upscope $end
$enddefinitions $end
$comment Show the parameter values. $end
$dumpall
$end
#0
$dumpvars
b0 !
$end
#284420000
b1 !
#284430000
b10 !
#284440000
b11 !
#284790000
b100 !
#284890000
b101 !
#284900000
b110 !
#284910000
b1 !
#284920000
b10 !
#284930000
b11 !
#285390000
b100 !
#285490000
b101 !
#285500000
b110 !
#285510000
b1 !
#285520000
b10 !
#285530000
b11 !
#285990000
b100 !
#286070000
b101 !
#286080000
b110 !
#286090000
b1 !
#286100000
b10 !
#286110000
b11 !
#286470000
b100 !
#286540000
b101 !
#286550000
b110 !
#286560000
b1 !
#286570000
b10 !
#286580000
b11 !
#286860000
b100 !
#286920000
b101 !
#286930000
b110 !
#286940000
b1 !
#286950000
b10 !
#286960000
b11 !
#287060000
b100 !
#287100000
b101 !
#287190000
b110 !
#287200000
b1 !
#287210000
b10 !
#287220000
b11 !
#287880000
b100 !
#288020000
b101 !
#288030000
b110 !
#288040000
b1 !
#288050000
b10 !
#288060000
b11 !
#288510000
b100 !
#288600000
b101 !
#288610000
b110 !
#288620000
b1 !
#288630000
b10 !
#288640000
b11 !
#288780000
b100 !
#288800000
b101 !
#289040000
b110 !
#289050000
b1 !
#289060000
b10 !
#289070000
b11 !
#289510000
b100 !
#289620000
b101 !
#289630000
b110 !
#289640000
b1 !
#289650000
b10 !
#289660000
b11 !
#289700000
b100 !
#289720000
b101 !
#289920000
b110 !
#289930000
b1 !
#289940000
b10 !
#289950000
b11 !
#290280000
b100 !
#290350000
b101 !
#290360000
b110 !
#290370000
b1 !
#290380000
b10 !
#290390000
b11 !
#291120000
b100 !
#291260000
b101 !
#291270000
b110 !
#291280000
b1 !
#291290000
b10 !
#291300000
b11 !
#291570000
b100 !
#291640000
b101 !
#291660000
b110 !
#291670000
b1 !
#291680000
b10 !
#291690000
b11 !
#291810000
b100 !
#291850000
b101 !
#291980000
b110 !
#291990000
b1 !
#292000000
b10 !
#292010000
b11 !
#292170000
b100 !
#292220000
b101 !
#292230000
b110 !
#292240000
b1 !
#292250000
b10 !
#292260000
b11 !
#292830000
b100 !
#292950000
b101 !
#292960000
b110 !
#292970000
b1 !
#292980000
b10 !
#292990000
b11 !
#293690000
b100 !
#293820000
b101 !
#293830000
b110 !
#293840000
b1 !
#293850000
b10 !
#293860000
b11 !
#294230000
b100 !
#294320000
b101 !
#294330000
b110 !
#294340000
b1 !
#294350000
b10 !
#294360000
b11 !
#294680000
b100 !
#294740000
b101 !
#294750000
b110 !
#294760000
b1 !
#294770000
b10 !
#294780000
b11 !
#294860000
b100 !
#294900000
b101 !
#295060000
b110 !
#295070000
b1 !
#295080000
b10 !
#295090000
b11 !
#295270000
b100 !
#295340000
b101 !
#295350000
b110 !
#295360000
b1 !
#295370000
b10 !
#295380000
b11 !
#296140000
b100 !
#296260000
b101 !
#296270000
b110 !
#296280000
b1 !
#296290000
b10 !
#296300000
b11 !
#296970000
b100 !
#297100000
b101 !
#297110000
b110 !
#297120000
b1 !
#297130000
b10 !
#297140000
b11 !
#297690000
b100 !
#297800000
b101 !
#297810000
b110 !
#297820000
b1 !
#297830000
b10 !
#297840000
b11 !
#298030000
b100 !
#298070000
b101 !
#298190000
b110 !
#298200000
b1 !
#298210000
b10 !
#298220000
b11 !
#298280000
b100 !
#298300000
b101 !
#298330000
b110 !
#298340000
b1 !
#298350000
b10 !
#298360000
b11 !
#298790000
b100 !
#298890000
b101 !
#298900000
b110 !
#298910000
b1 !
#298920000
b10 !
#298930000
b11 !
#299520000
b100 !
#299630000
b101 !
#299640000
b110 !
#299650000
b1 !
#299660000
b10 !
#299670000
b11 !
#299830000
b100 !
#299880000
b101 !
#299980000
b110 !
#299990000
b1 !
#300000000
b10 !
#300010000
b11 !
#300100000
b100 !
#300120000
b101 !
#300140000
b110 !
#300150000
b1 !
#300160000
b10 !
#300170000
b11 !
#300950000
b100 !
#301100000
b101 !
#301110000
b110 !
#301120000
b1 !
#301130000
b10 !
#301140000
b11 !
#301600000
b100 !
#301710000
b101 !
#301720000
b110 !
#301730000
b1 !
#301740000
b10 !
#301750000
b11 !
#302140000
b100 !
#302190000
b101 !
#302200000
b110 !
#302210000
b1 !
#302220000
b10 !
#302230000
b11 !
#302880000
b100 !
#303000000
b101 !
#303010000
b110 !
#303020000
b1 !
#303030000
b10 !
#303040000
b11 !
#303680000
b100 !
#303790000
b101 !
#303800000
b110 !
#303810000
b1 !
#303820000
b10 !
#303830000
b11 !
#304360000
b100 !
#304450000
b101 !
#304460000
b110 !
#304470000
b1 !
#304480000
b10 !
#304490000
b11 !
#304900000
b100 !
#305000000
b101 !
#305010000
b110 !
#305020000
b1 !
#305030000
b10 !
#305040000
b11 !
#305090000
b100 !
#305100000
b101 !
#305300000
b110 !
#305310000
b1 !
#305320000
b10 !
#305330000
b11 !
#305940000
b100 !
#306050000
b101 !
#306060000
b110 !
#306070000
b1 !
#306080000
b10 !
#306090000
b11 !
#306520000
b100 !
#306610000
b101 !
#306620000
b110 !
#306630000
b1 !
#306640000
b10 !
#306650000
b11 !
#306860000
b100 !
#306910000
b101 !
#307010000
b110 !
#307020000
b1 !
#307030000
b10 !
#307040000
b11 !
#307570000
b100 !
#307650000
b101 !
#307660000
b110 !
#307670000
b1 !
#307680000
b10 !
#307690000
b11 !
#307860000
b100 !
#307930000
b101 !
#308000000
b110 !
#308010000
b1 !
#308020000
b10 !
#308030000
b11 !
#308610000
b100 !
#308730000
b101 !
#308740000
b110 !
#308750000
b1 !
#308760000
b10 !
#308770000
b11 !
#308870000
b100 !
#308920000
b101 !
#309090000
b110 !
#309100000
b1 !
#309110000
b10 !
#309120000
b11 !
#309740000
b100 !
#309830000
b101 !
#309840000
b110 !
#309850000
b1 !
#309860000
b10 !
#309870000
b11 !
#309920000
b100 !
#309940000
b101 !
#310230000
b110 !
#310240000
b1 !
#310250000
b10 !
#310260000
b11 !
#310720000
b100 !
#310810000
b101 !
#310820000
b110 !
#310830000
b1 !
#310840000
b10 !
#310850000
b11 !
#311080000
b100 !
#311130000
b101 !
#311230000
b110 !
#311240000
b1 !
#311250000
b10 !
#311260000
b11 !
#311410000
b100 !
#311450000
b101 !
#311460000
b110 !
#311470000
b1 !
#311480000
b10 !
#311490000
b11 !
#311800000
b100 !
#311870000
b101 !
#311880000
b110 !
#311890000
b1 !
#311900000
b10 !
#311910000
b11 !
#312620000
b100 !
#312730000
b101 !
#312740000
b110 !
#312750000
b1 !
#312760000
b10 !
#312770000
b11 !
#313390000
b100 !
#313500000
b101 !
#313510000
b110 !
#313520000
b1 !
#313530000
b10 !
#313540000
b11 !
#314000000
b100 !
#314070000
b101 !
#314080000
b110 !
#314090000
b1 !
#314100000
b10 !
#314110000
b11 !
#314320000
b100 !
#314390000
b101 !
#314530000
b110 !
#314540000
b1 !
#314550000
b10 !
#314560000
b11 !
#314650000
b100 !
#314670000
b101 !
#314690000
b110 !
#314700000
b1 !
#314710000
b10 !
#314720000
b11 !
#314950000
b100 !
#315010000
b101 !
#315020000
b110 !
#315030000
b1 !
#315040000
b10 !
#315050000
b11 !
#315750000
b100 !
#315880000
b101 !
#315890000
b110 !
#315900000
b1 !
#315910000
b10 !
#315920000
b11 !
#316340000
b100 !
#316460000
b101 !
#316470000
b110 !
#316480000
b1 !
#316490000
b10 !
#316500000
b11 !
#317040000
b100 !
#317160000
b101 !
#317170000
b110 !
#317180000
b1 !
#317190000
b10 !
#317200000
b11 !
#317720000
b100 !
#317790000
b101 !
#317800000
b110 !
#317810000
b1 !
#317820000
b10 !
#317830000
b11 !
#318040000
b100 !
#318100000
b101 !
#318240000
b110 !
#318250000
b1 !
#318260000
b10 !
#318270000
b11 !
#318870000
b100 !
#319010000
b101 !
#319020000
b110 !
#319030000
b111 !
