test/pe_sim/sim_build/pe_cluster_dump.vcd
$date
	Sun Jun 28 11:44:14 2026
$end
$version
	Icarus Verilog
$end
$timescale
	1ps
$end
$scope module tb_pe_cluster $end
$scope module u_cluster $end
$scope begin gen_pe[0] $end
$scope module u_pe $end
$var reg 3 ! state [2:0] $end
$upscope $end
$upscope $end
$upscope $end
$upscope $end
$enddefinitions $end
$comment Show the parameter values. $end
$dumpall
$end
#0
$dumpvars
b0 !
$end
#21430000
b1 !
#21440000
b10 !
#21450000
b11 !
#21980000
b100 !
#21990000
b101 !
#22010000
b110 !
#22020000
b1 !
#22030000
b10 !
#22040000
b11 !
#22570000
b100 !
#22580000
b101 !
#22600000
b110 !
#22610000
b1 !
#22620000
b10 !
#22630000
b11 !
#23160000
b100 !
#23170000
b101 !
#23190000
b110 !
#23200000
b1 !
#23210000
b10 !
#23220000
b11 !
#23750000
b100 !
#23760000
b101 !
#23780000
b110 !
#23790000
b1 !
#23800000
b10 !
#23810000
b11 !
#24340000
b100 !
#24350000
b101 !
#24370000
b110 !
#24380000
b1 !
#24390000
b10 !
#24400000
b11 !
#24930000
b100 !
#24940000
b101 !
#24960000
b110 !
#24970000
b1 !
#24980000
b10 !
#24990000
b11 !
#25520000
b100 !
#25530000
b101 !
#25550000
b110 !
#25560000
b1 !
#25570000
b10 !
#25580000
b11 !
#26110000
b100 !
#26120000
b101 !
#26140000
b110 !
#26150000
b1 !
#26160000
b10 !
#26170000
b11 !
#26700000
b100 !
#26710000
b101 !
#26730000
b110 !
#26740000
b1 !
#26750000
b10 !
#26760000
b11 !
#27290000
b100 !
#27300000
b101 !
#27320000
b110 !
#27330000
b1 !
#27340000
b10 !
#27350000
b11 !
#27880000
b100 !
#27890000
b101 !
#27910000
b110 !
#27920000
b1 !
#27930000
b10 !
#27940000
b11 !
#28470000
b100 !
#28480000
b101 !
#28500000
b110 !
#28510000
b1 !
#28520000
b10 !
#28530000
b11 !
#29060000
b100 !
#29070000
b101 !
#29090000
b110 !
#29100000
b1 !
#29110000
b10 !
#29120000
b11 !
#29650000
b100 !
#29660000
b101 !
#29680000
b110 !
#29690000
b111 !
#33120000
b0 !
#33210000
b1 !
#33220000
b10 !
#33230000
b11 !
#33760000
b100 !
#33770000
b101 !
#33790000
b110 !
#33800000
b1 !
#33810000
b10 !
#33820000
b11 !
#34350000
b100 !
#34360000
b101 !
#34380000
b110 !
#34390000
b1 !
#34400000
b10 !
#34410000
b11 !
#34940000
b100 !
#34950000
b101 !
#34970000
b110 !
#34980000
b1 !
#34990000
b10 !
#35000000
b11 !
#35530000
b100 !
#35540000
b101 !
#35560000
b110 !
#35570000
b1 !
#35580000
b10 !
#35590000
b11 !
#36120000
b100 !
#36130000
b101 !
#36150000
b110 !
#36160000
b1 !
#36170000
b10 !
#36180000
b11 !
#36710000
b100 !
#36720000
b101 !
#36740000
b110 !
#36750000
b1 !
#36760000
b10 !
#36770000
b11 !
#37300000
b100 !
#37310000
b101 !
#37330000
b110 !
#37340000
b1 !
#37350000
b10 !
#37360000
b11 !
#37890000
b100 !
#37900000
b101 !
#37920000
b110 !
#37930000
b1 !
#37940000
b10 !
#37950000
b11 !
#38480000
b100 !
#38490000
b101 !
#38510000
b110 !
#38520000
b1 !
#38530000
b10 !
#38540000
b11 !
#39070000
b100 !
#39080000
b101 !
#39100000
b110 !
#39110000
b1 !
#39120000
b10 !
#39130000
b11 !
#39660000
b100 !
#39670000
b101 !
#39690000
b110 !
#39700000
b1 !
#39710000
b10 !
#39720000
b11 !
#40250000
b100 !
#40260000
b101 !
#40280000
b110 !
#40290000
b1 !
#40300000
b10 !
#40310000
b11 !
#40840000
b100 !
#40850000
b101 !
#40870000
b110 !
#40880000
b1 !
#40890000
b10 !
#40900000
b11 !
#41430000
b100 !
#41440000
b101 !
#41460000
b110 !
#41470000
b111 !
