test/pe_sim/sim_build/pe_cluster_dump.vcd
$date
	Thu Jun 25 16:10:10 2026
$end
$version
	Icarus Verilog
$end
$timescale
	1ps
$end
$scope module tb_pe_cluster $end
$scope module u_cluster $end
$scope begin gen_pe[0] $end
$scope module u_pe $end
$var reg 3 ! state [2:0] $end
$upscope $end
$upscope $end
$upscope $end
$upscope $end
$enddefinitions $end
$comment Show the parameter values. $end
$dumpall
$end
#0
$dumpvars
b0 !
$end
#295390000
b1 !
#295400000
b10 !
#295410000
b11 !
#297200000
b100 !
#297210000
b101 !
#297250000
b110 !
#297260000
b1 !
#297270000
b10 !
#297280000
b11 !
#299510000
b100 !
#299520000
b101 !
#299560000
b110 !
#299570000
b1 !
#299580000
b10 !
#299590000
b11 !
#301720000
b100 !
#301730000
b101 !
#301770000
b110 !
#301780000
b1 !
#301790000
b10 !
#301800000
b11 !
#303500000
b100 !
#303510000
b101 !
#303550000
b110 !
#303560000
b1 !
#303570000
b10 !
#303580000
b11 !
#304890000
b100 !
#304900000
b101 !
#304940000
b110 !
#304950000
b1 !
#304960000
b10 !
#304970000
b11 !
#305430000
b100 !
#305440000
b101 !
#305480000
b110 !
#305490000
b1 !
#305500000
b10 !
#305510000
b11 !
#308770000
b100 !
#308780000
b101 !
#308820000
b110 !
#308830000
b1 !
#308840000
b10 !
#308850000
b11 !
#311020000
b100 !
#311030000
b101 !
#311070000
b110 !
#311080000
b1 !
#311090000
b10 !
#311100000
b11 !
#311680000
b100 !
#311690000
b101 !
#311730000
b110 !
#311740000
b1 !
#311750000
b10 !
#311760000
b11 !
#313910000
b100 !
#313920000
b101 !
#313960000
b110 !
#313970000
b1 !
#313980000
b10 !
#313990000
b11 !
#314100000
b100 !
#314110000
b101 !
#314520000
b110 !
#314530000
b1 !
#314540000
b10 !
#314550000
b11 !
#316130000
b100 !
#316140000
b101 !
#316180000
b110 !
#316190000
b1 !
#316200000
b10 !
#316210000
b11 !
#319800000
b100 !
#319810000
b101 !
#319850000
b110 !
#319860000
b1 !
#319870000
b10 !
#319880000
b11 !
#321170000
b100 !
#321180000
b101 !
#321220000
b110 !
#321230000
b1 !
#321240000
b10 !
#321250000
b11 !
#321760000
b100 !
#321770000
b101 !
#321850000
b110 !
#321860000
b1 !
#321870000
b10 !
#321880000
b11 !
#322580000
b100 !
#322590000
b101 !
#322630000
b110 !
#322640000
b1 !
#322650000
b10 !
#322660000
b11 !
#325450000
b100 !
#325460000
b101 !
#325500000
b110 !
#325510000
b111 !
