test/pe_sim/sim_build/pe_cluster_dump.vcd
$date
	Sat Jun 27 05:05:18 2026
$end
$version
	Icarus Verilog
$end
$timescale
	1ps
$end
$scope module tb_pe_cluster $end
$scope module u_cluster $end
$scope begin gen_pe[0] $end
$scope module u_pe $end
$var reg 3 ! state [2:0] $end
$upscope $end
$upscope $end
$upscope $end
$upscope $end
$enddefinitions $end
$comment Show the parameter values. $end
$dumpall
$end
#0
$dumpvars
b0 !
$end
#284420000
b1 !
#284430000
b10 !
#284440000
b11 !
#284790000
b100 !
#284890000
b101 !
#284900000
b110 !
#284910000
b1 !
#284920000
b10 !
#284930000
b11 !
#285390000
b100 !
#285490000
b101 !
#285500000
b110 !
#285510000
b1 !
#285520000
b10 !
#285530000
b11 !
#285990000
b100 !
#286070000
b101 !
#286080000
b110 !
#286090000
b1 !
#286100000
b10 !
#286110000
b11 !
#286470000
b100 !
#286540000
b101 !
#286550000
b110 !
#286560000
b1 !
#286570000
b10 !
#286580000
b11 !
#286860000
b100 !
#286920000
b101 !
#286930000
b110 !
#286940000
b1 !
#286950000
b10 !
#286960000
b11 !
#287060000
b100 !
#287100000
b101 !
#287190000
b110 !
#287200000
b1 !
#287210000
b10 !
#287220000
b11 !
#287880000
b100 !
#288020000
b101 !
#288030000
b110 !
#288040000
b1 !
#288050000
b10 !
#288060000
b11 !
#288510000
b100 !
#288600000
b101 !
#288610000
b110 !
#288620000
b1 !
#288630000
b10 !
#288640000
b11 !
#288780000
b100 !
#288800000
b101 !
#289040000
b110 !
#289050000
b1 !
#289060000
b10 !
#289070000
b11 !
#289510000
b100 !
#289620000
b101 !
#289630000
b110 !
#289640000
b1 !
#289650000
b10 !
#289660000
b11 !
#289700000
b100 !
#289720000
b101 !
#289920000
b110 !
#289930000
b1 !
#289940000
b10 !
#289950000
b11 !
#290280000
b100 !
#290350000
b101 !
#290360000
b110 !
#290370000
b1 !
#290380000
b10 !
#290390000
b11 !
#291120000
b100 !
#291260000
b101 !
#291270000
b110 !
#291280000
b1 !
#291290000
b10 !
#291300000
b11 !
#291570000
b100 !
#291640000
b101 !
#291660000
b110 !
#291670000
b1 !
#291680000
b10 !
#291690000
b11 !
#291810000
b100 !
#291850000
b101 !
#291980000
b110 !
#291990000
b1 !
#292000000
b10 !
#292010000
b11 !
#292170000
b100 !
#292220000
b101 !
#292230000
b110 !
#292240000
b1 !
#292250000
b10 !
#292260000
b11 !
