test/pe_sim/sim_build/pe_cluster_dump.vcd
$date
	Fri Jun 26 22:49:41 2026
$end
$version
	Icarus Verilog
$end
$timescale
	1ps
$end
$scope module tb_pe_cluster $end
$scope module u_cluster $end
$scope begin gen_pe[0] $end
$scope module u_pe $end
$var reg 3 ! state [2:0] $end
$upscope $end
$upscope $end
$upscope $end
$upscope $end
$enddefinitions $end
$comment Show the parameter values. $end
$dumpall
$end
#0
$dumpvars
b0 !
$end
#327120000
b1 !
#327130000
b10 !
#327140000
b11 !
#327490000
b100 !
#327590000
b101 !
#327600000
b110 !
#327610000
b1 !
#327620000
b10 !
#327630000
b11 !
#328090000
b100 !
#328190000
b101 !
#328200000
b110 !
#328210000
b1 !
#328220000
b10 !
#328230000
b11 !
#328690000
b100 !
#328770000
b101 !
#328780000
b110 !
#328790000
b1 !
#328800000
b10 !
#328810000
b11 !
#329170000
b100 !
#329240000
b101 !
#329250000
b110 !
#329260000
b1 !
#329270000
b10 !
#329280000
b11 !
#329560000
b100 !
#329620000
b101 !
#329630000
b110 !
#329640000
b1 !
#329650000
b10 !
#329660000
b11 !
#329760000
b100 !
#329800000
b101 !
#329820000
b110 !
#329830000
b1 !
#329840000
b10 !
#329850000
b11 !
#330510000
b100 !
#330650000
b101 !
#330660000
b110 !
#330670000
b1 !
#330680000
b10 !
#330690000
b11 !
#331140000
b100 !
#331230000
b101 !
#331240000
b110 !
#331250000
b1 !
#331260000
b10 !
#331270000
b11 !
#331410000
b100 !
#331430000
b101 !
#331440000
b110 !
#331450000
b1 !
#331460000
b10 !
#331470000
b11 !
#331910000
b100 !
#332020000
b101 !
#332030000
b110 !
#332040000
b1 !
#332050000
b10 !
#332060000
b11 !
#332100000
b100 !
#332120000
b101 !
#332280000
b110 !
#332290000
b1 !
#332300000
b10 !
#332310000
b11 !
#332640000
b100 !
#332710000
b101 !
#332720000
b110 !
#332730000
b1 !
#332740000
b10 !
#332750000
b11 !
#333480000
b100 !
#333620000
b101 !
#333630000
b110 !
#333640000
b1 !
#333650000
b10 !
#333660000
b11 !
#333930000
b100 !
#334000000
b101 !
#334010000
b110 !
#334020000
b1 !
#334030000
b10 !
#334040000
b11 !
#334160000
b100 !
#334200000
b101 !
#334210000
b110 !
#334220000
b1 !
#334230000
b10 !
#334240000
b11 !
#334400000
b100 !
#334450000
b101 !
#334460000
b110 !
#334470000
b1 !
#334480000
b10 !
#334490000
b11 !
#335060000
b100 !
#335180000
b101 !
#335190000
b110 !
#335200000
b1 !
#335210000
b10 !
#335220000
b11 !
#335920000
b100 !
#336050000
b101 !
#336060000
b110 !
#336070000
b1 !
#336080000
b10 !
#336090000
b11 !
#336460000
b100 !
#336550000
b101 !
#336560000
b110 !
#336570000
b1 !
#336580000
b10 !
#336590000
b11 !
#336910000
b100 !
#336970000
b101 !
#336980000
b110 !
#336990000
b1 !
#337000000
b10 !
#337010000
b11 !
#337090000
b100 !
#337130000
b101 !
#337250000
b110 !
#337260000
b1 !
#337270000
b10 !
#337280000
b11 !
#337460000
b100 !
#337530000
b101 !
#337540000
b110 !
#337550000
b1 !
#337560000
b10 !
#337570000
b11 !
#338330000
b100 !
#338450000
b101 !
#338460000
b110 !
#338470000
b1 !
#338480000
b10 !
#338490000
b11 !
#339160000
b100 !
#339290000
b101 !
#339300000
b110 !
#339310000
b1 !
#339320000
b10 !
#339330000
b11 !
#339880000
b100 !
#339990000
b101 !
#340000000
b110 !
#340010000
b1 !
#340020000
b10 !
#340030000
b11 !
#340220000
b100 !
#340260000
b101 !
#340270000
b110 !
#340280000
b1 !
#340290000
b10 !
#340300000
b11 !
#340360000
b100 !
#340380000
b101 !
#340450000
b110 !
#340460000
b1 !
#340470000
b10 !
#340480000
b11 !
#340910000
b100 !
#341010000
b101 !
#341020000
b110 !
#341030000
b1 !
#341040000
b10 !
#341050000
b11 !
#341640000
b100 !
#341750000
b101 !
#341760000
b110 !
#341770000
b1 !
#341780000
b10 !
#341790000
b11 !
#341950000
b100 !
#342000000
b101 !
#342010000
b110 !
#342020000
b1 !
#342030000
b10 !
#342040000
b11 !
#342130000
b100 !
#342150000
b101 !
#342200000
b110 !
#342210000
b1 !
#342220000
b10 !
#342230000
b11 !
#343010000
b100 !
#343160000
b101 !
#343170000
b110 !
#343180000
b1 !
#343190000
b10 !
#343200000
b11 !
#343660000
b100 !
#343770000
b101 !
#343780000
b110 !
#343790000
b1 !
#343800000
b10 !
#343810000
b11 !
#344200000
b100 !
#344250000
b101 !
#344260000
b110 !
#344270000
b1 !
#344280000
b10 !
#344290000
b11 !
#344940000
b100 !
#345060000
b101 !
#345070000
b110 !
#345080000
b1 !
#345090000
b10 !
#345100000
b11 !
#345740000
b100 !
#345850000
b101 !
#345860000
b110 !
#345870000
b1 !
#345880000
b10 !
#345890000
b11 !
#346420000
b100 !
#346510000
b101 !
#346520000
b110 !
#346530000
b1 !
#346540000
b10 !
#346550000
b11 !
#346960000
b100 !
#347060000
b101 !
#347070000
b110 !
#347080000
b1 !
#347090000
b10 !
#347100000
b11 !
#347150000
b100 !
#347160000
b101 !
#347410000
b110 !
#347420000
b1 !
#347430000
b10 !
#347440000
b11 !
#348050000
b100 !
#348160000
b101 !
#348170000
b110 !
#348180000
b1 !
#348190000
b10 !
#348200000
b11 !
#348630000
b100 !
#348720000
b101 !
#348730000
b110 !
#348740000
b1 !
#348750000
b10 !
#348760000
b11 !
#348970000
b100 !
#349020000
b101 !
#349110000
b110 !
#349120000
b1 !
#349130000
b10 !
#349140000
b11 !
#349670000
b100 !
#349750000
b101 !
#349760000
b110 !
#349770000
b1 !
#349780000
b10 !
#349790000
b11 !
#349960000
b100 !
#350030000
b101 !
#350140000
b110 !
#350150000
b1 !
#350160000
b10 !
#350170000
b11 !
#350750000
b100 !
#350870000
b101 !
#350880000
b110 !
#350890000
b1 !
#350900000
b10 !
#350910000
b11 !
#351010000
b100 !
#351060000
b101 !
#351230000
b110 !
#351240000
b1 !
#351250000
b10 !
#351260000
b11 !
#351880000
b100 !
#351970000
b101 !
#351980000
b110 !
#351990000
b1 !
#352000000
b10 !
#352010000
b11 !
#352060000
b100 !
#352080000
b101 !
#352410000
b110 !
#352420000
b1 !
#352430000
b10 !
#352440000
b11 !
#352900000
b100 !
#352990000
b101 !
#353000000
b110 !
#353010000
b1 !
#353020000
b10 !
#353030000
b11 !
#353260000
b100 !
#353310000
b101 !
#353370000
b110 !
#353380000
b1 !
#353390000
b10 !
#353400000
b11 !
#353550000
b100 !
#353590000
b101 !
#353600000
b110 !
#353610000
b1 !
#353620000
b10 !
#353630000
b11 !
#353940000
b100 !
#354010000
b101 !
#354020000
b110 !
#354030000
b1 !
#354040000
b10 !
#354050000
b11 !
#354760000
b100 !
#354870000
b101 !
#354880000
b110 !
#354890000
b1 !
#354900000
b10 !
#354910000
b11 !
#355530000
b100 !
#355640000
b101 !
#355650000
b110 !
#355660000
b1 !
#355670000
b10 !
#355680000
b11 !
#356140000
b100 !
#356210000
b101 !
#356220000
b110 !
#356230000
b1 !
#356240000
b10 !
#356250000
b11 !
#356460000
b100 !
#356530000
b101 !
#356540000
b110 !
#356550000
b1 !
#356560000
b10 !
#356570000
b11 !
#356660000
b100 !
#356680000
b101 !
#356810000
b110 !
#356820000
b1 !
#356830000
b10 !
#356840000
b11 !
#357070000
b100 !
#357130000
b101 !
#357140000
b110 !
#357150000
b1 !
#357160000
b10 !
#357170000
b11 !
#357870000
b100 !
#358000000
b101 !
#358010000
b110 !
#358020000
b1 !
#358030000
b10 !
#358040000
b11 !
#358460000
b100 !
#358580000
b101 !
#358590000
b110 !
#358600000
b1 !
#358610000
b10 !
#358620000
b11 !
#359160000
b100 !
#359280000
b101 !
#359290000
b110 !
#359300000
b1 !
#359310000
b10 !
#359320000
b11 !
#359840000
b100 !
#359910000
b101 !
#359920000
b110 !
#359930000
b1 !
#359940000
b10 !
#359950000
b11 !
#360160000
b100 !
#360220000
b101 !
#360230000
b110 !
#360240000
b1 !
#360250000
b10 !
#360260000
b11 !
#360860000
b100 !
#361000000
b101 !
#361010000
b110 !
#361020000
b111 !
