test/pe_sim/sim_build/pe_dump.vcd
$date
	Mon Jun 29 08:37:40 2026
$end
$version
	Icarus Verilog
$end
$timescale
	1ps
$end
$scope module tb_pe_top $end
$scope module u_pe $end
$var reg 3 ! state [2:0] $end
$upscope $end
$upscope $end
$scope module tb_pe_top $end
$scope module u_pe $end
$var reg 8 " row_idx [7:0] $end
$upscope $end
$upscope $end
$scope module tb_pe_top $end
$scope module u_pe $end
$var reg 3 # gen_state [2:0] $end
$upscope $end
$upscope $end
$scope module tb_pe_top $end
$scope module u_pe $end
$var reg 1 $ done $end
$upscope $end
$upscope $end
$enddefinitions $end
$comment Show the parameter values. $end
$dumpall
$end
#0
$dumpvars
0$
b0 #
b0 "
b0 !
$end
#237930000
b1 !
#237940000
b10 !
#237950000
b1 #
b11 !
#237960000
b10 #
#238290000
b11 #
#238310000
b110 !
#238320000
b1 "
b1 !
b0 #
#238330000
b10 !
#238340000
b11 !
b1 #
#238350000
b10 #
#238790000
b11 #
#238810000
b110 !
#238820000
b10 "
b1 !
b0 #
#238830000
b10 !
#238840000
b11 !
b1 #
#238850000
b10 #
#239290000
b11 #
#239300000
b110 !
#239310000
b0 #
b1 !
b11 "
#239320000
b10 !
#239330000
b1 #
b11 !
#239340000
b10 #
#239680000
b11 #
#239690000
b110 !
#239700000
b100 "
b1 !
b0 #
#239710000
b10 !
#239720000
b11 !
b1 #
#239730000
b10 #
#239990000
b11 #
#240010000
b110 !
#240020000
b101 "
b1 !
b0 #
#240030000
b10 !
#240040000
b11 !
b1 #
#240050000
b10 #
#240130000
b11 #
#240200000
b110 !
#240210000
b0 #
b1 !
b110 "
#240220000
b10 !
#240230000
b1 #
b11 !
#240240000
b10 #
#240880000
b11 #
#240900000
b110 !
#240910000
b0 #
b1 !
b111 "
#240920000
b10 !
#240930000
b1 #
b11 !
#240940000
b10 #
#241370000
b11 #
#241390000
b110 !
#241400000
b1000 "
b1 !
b0 #
#241410000
b10 !
#241420000
b11 !
b1 #
#241430000
b10 #
#241550000
b11 #
#241650000
b110 !
#241660000
b1001 "
b1 !
b0 #
#241670000
b10 !
#241680000
b11 !
b1 #
#241690000
b10 #
#242110000
b11 #
#242130000
b110 !
#242140000
b1010 "
b1 !
b0 #
#242150000
b10 !
#242160000
b11 !
b1 #
#242170000
b10 #
#242190000
b11 #
#242380000
b110 !
#242390000
b0 #
b1 !
b1011 "
#242400000
b10 !
#242410000
b1 #
b11 !
#242420000
b10 #
#242730000
b11 #
#242750000
b110 !
#242760000
b1100 "
b1 !
b0 #
#242770000
b10 !
#242780000
b11 !
b1 #
#242790000
b10 #
#243500000
b11 #
#243520000
b110 !
#243530000
b0 #
b1 !
b1101 "
#243540000
b10 !
#243550000
b1 #
b11 !
#243560000
b10 #
#243810000
b11 #
#243830000
b110 !
#243840000
b1110 "
b1 !
b0 #
#243850000
b10 !
#243860000
b11 !
b1 #
#243870000
b10 #
#243970000
b11 #
#244040000
b110 !
#244050000
b0 #
b1 !
b1111 "
#244060000
b10 !
#244070000
b1 #
b11 !
#244080000
b10 #
#244220000
b11 #
#244240000
b110 !
#244250000
b0 #
b1 !
b10000 "
#244260000
b10 !
#244270000
b1 #
b11 !
#244280000
b10 #
#244830000
b11 #
#244850000
b110 !
#244860000
b10001 "
b1 !
b0 #
#244870000
b10 !
#244880000
b11 !
b1 #
#244890000
b10 #
#245570000
b11 #
#245590000
b110 !
#245600000
b10010 "
b1 !
b0 #
#245610000
b10 !
#245620000
b11 !
b1 #
#245630000
b10 #
#245980000
b11 #
#246000000
b110 !
#246010000
b0 #
b1 !
b10011 "
#246020000
b10 !
#246030000
b1 #
b11 !
#246040000
b10 #
#246340000
b11 #
#246360000
b110 !
#246370000
b0 #
b1 !
b10100 "
#246380000
b10 !
#246390000
b1 #
b11 !
#246400000
b10 #
#246460000
b11 #
#246540000
b110 !
#246550000
b0 #
b1 !
b10101 "
#246560000
b10 !
#246570000
b1 #
b11 !
#246580000
b10 #
#246740000
b11 #
#246760000
b110 !
#246770000
b0 #
b1 !
b10110 "
#246780000
b10 !
#246790000
b1 #
b11 !
#246800000
b10 #
#247540000
b11 #
#247560000
b110 !
#247570000
b0 #
b1 !
b10111 "
#247580000
b10 !
#247590000
b1 #
b11 !
#247600000
b10 #
#248250000
b11 #
#248270000
b110 !
#248280000
b11000 "
b1 !
b0 #
#248290000
b10 !
#248300000
b11 !
b1 #
#248310000
b10 #
#248840000
b11 #
#248860000
b110 !
#248870000
b0 #
b1 !
b11001 "
#248880000
b10 !
#248890000
b1 #
b11 !
#248900000
b10 #
#249070000
b11 #
#249090000
b110 !
#249100000
b11010 "
b1 !
b0 #
#249110000
b10 !
#249120000
b11 !
b1 #
#249130000
b10 #
#249170000
b11 #
#249270000
b110 !
#249280000
b11011 "
b1 !
b0 #
#249290000
b10 !
#249300000
b11 !
b1 #
#249310000
b10 #
#249720000
b11 #
#249740000
b110 !
#249750000
b0 #
b1 !
b11100 "
#249760000
b10 !
#249770000
b1 #
b11 !
#249780000
b10 #
#250350000
b11 #
#250370000
b110 !
#250380000
b11101 "
b1 !
b0 #
#250390000
b10 !
#250400000
b11 !
b1 #
#250410000
b10 #
#250550000
b11 #
#250570000
b110 !
#250580000
b11110 "
b1 !
b0 #
#250590000
b10 !
#250600000
b11 !
b1 #
#250610000
b10 #
#250680000
b11 #
#250770000
b110 !
#250780000
b11111 "
b1 !
b0 #
#250790000
b10 !
#250800000
b11 !
b1 #
#250810000
b10 #
#251570000
b11 #
#251590000
b110 !
#251600000
b100000 "
b1 !
b0 #
#251610000
b10 !
#251620000
b11 !
b1 #
#251630000
b10 #
#252070000
b11 #
#252090000
b110 !
#252100000
b100001 "
b1 !
b0 #
#252110000
b10 !
#252120000
b11 !
b1 #
#252130000
b10 #
#252500000
b11 #
#252520000
b110 !
#252530000
b0 #
b1 !
b100010 "
#252540000
b10 !
#252550000
b1 #
b11 !
#252560000
b10 #
#253190000
b11 #
#253210000
b110 !
#253220000
b100011 "
b1 !
b0 #
#253230000
b10 !
#253240000
b11 !
b1 #
#253250000
b10 #
#253870000
b11 #
#253890000
b110 !
#253900000
b100100 "
b1 !
b0 #
#253910000
b10 !
#253920000
b11 !
b1 #
#253930000
b10 #
#254440000
b11 #
#254460000
b110 !
#254470000
b0 #
b1 !
b100101 "
#254480000
b10 !
#254490000
b1 #
b11 !
#254500000
b10 #
#254890000
b11 #
#254910000
b110 !
#254920000
b100110 "
b1 !
b0 #
#254930000
b10 !
#254940000
b11 !
b1 #
#254950000
b10 #
#254980000
b11 #
#255090000
b110 !
#255100000
b100111 "
b1 !
b0 #
#255110000
b10 !
#255120000
b11 !
b1 #
#255130000
b10 #
#255720000
b11 #
#255740000
b110 !
#255750000
b0 #
b1 !
b101000 "
#255760000
b10 !
#255770000
b1 #
b11 !
#255780000
b10 #
#256190000
b11 #
#256210000
b110 !
#256220000
b101001 "
b1 !
b0 #
#256230000
b10 !
#256240000
b11 !
b1 #
#256250000
b10 #
#256440000
b11 #
#256480000
b110 !
#256490000
b0 #
b1 !
b101010 "
#256500000
b10 !
#256510000
b1 #
b11 !
#256520000
b10 #
#257030000
b11 #
#257050000
b110 !
#257060000
b101011 "
b1 !
b0 #
#257070000
b10 !
#257080000
b11 !
b1 #
#257090000
b10 #
#257240000
b11 #
#257260000
b110 !
#257270000
b0 #
b1 !
b101100 "
#257280000
b10 !
#257290000
b1 #
b11 !
#257300000
b10 #
#257860000
b11 #
#257880000
b110 !
#257890000
b0 #
b1 !
b101101 "
#257900000
b10 !
#257910000
b1 #
b11 !
#257920000
b10 #
#258000000
b11 #
#258120000
b110 !
#258130000
b0 #
b1 !
b101110 "
#258140000
b10 !
#258150000
b1 #
b11 !
#258160000
b10 #
#258760000
b11 #
#258780000
b110 !
#258790000
b0 #
b1 !
b101111 "
#258800000
b10 !
#258810000
b1 #
b11 !
#258820000
b10 #
#258850000
b11 #
#258970000
b110 !
#258980000
b110000 "
b1 !
b0 #
#258990000
b10 !
#259000000
b11 !
b1 #
#259010000
b10 #
#259450000
b11 #
#259470000
b110 !
#259480000
b110001 "
b1 !
b0 #
#259490000
b10 !
#259500000
b11 !
b1 #
#259510000
b10 #
#259720000
b11 #
#259750000
b110 !
#259760000
b110010 "
b1 !
b0 #
#259770000
b10 !
#259780000
b11 !
b1 #
#259790000
b10 #
#259920000
b11 #
#259940000
b110 !
#259950000
b0 #
b1 !
b110011 "
#259960000
b10 !
#259970000
b1 #
b11 !
#259980000
b10 #
#260270000
b11 #
#260290000
b110 !
#260300000
b110100 "
b1 !
b0 #
#260310000
b10 !
#260320000
b11 !
b1 #
#260330000
b10 #
#261020000
b11 #
#261040000
b110 !
#261050000
b0 #
b1 !
b110101 "
#261060000
b10 !
#261070000
b1 #
b11 !
#261080000
b10 #
#261680000
b11 #
#261700000
b110 !
#261710000
b0 #
b1 !
b110110 "
#261720000
b10 !
#261730000
b1 #
b11 !
#261740000
b10 #
#262180000
b11 #
#262200000
b110 !
#262210000
b0 #
b1 !
b110111 "
#262220000
b10 !
#262230000
b1 #
b11 !
#262240000
b10 #
#262430000
b11 #
#262450000
b110 !
#262460000
b111000 "
b1 !
b0 #
#262470000
b10 !
#262480000
b11 !
b1 #
#262490000
b10 #
#262560000
b11 #
#262660000
b110 !
#262670000
b0 #
b1 !
b111001 "
#262680000
b10 !
#262690000
b1 #
b11 !
#262700000
b10 #
#262910000
b11 #
#262930000
b110 !
#262940000
b111010 "
b1 !
b0 #
#262950000
b10 !
#262960000
b11 !
b1 #
#262970000
b10 #
#263650000
b11 #
#263670000
b110 !
#263680000
b111011 "
b1 !
b0 #
#263690000
b10 !
#263700000
b11 !
b1 #
#263710000
b10 #
#264110000
b11 #
#264130000
b110 !
#264140000
b111100 "
b1 !
b0 #
#264150000
b10 !
#264160000
b11 !
b1 #
#264170000
b10 #
#264690000
b11 #
#264710000
b110 !
#264720000
b111101 "
b1 !
b0 #
#264730000
b10 !
#264740000
b11 !
b1 #
#264750000
b10 #
#265250000
b11 #
#265270000
b110 !
#265280000
b111110 "
b1 !
b0 #
#265290000
b10 !
#265300000
b11 !
b1 #
#265310000
b10 #
#265500000
b11 #
#265520000
b110 !
#265530000
b0 #
b1 !
b111111 "
#265540000
b10 !
#265550000
b1 #
b11 !
#265560000
b10 #
#266250000
b11 #
#266270000
b110 !
#266280000
b1000000 "
b1 !
b0 #
#266290000
b10 !
#266300000
b11 !
b1 #
#266310000
b10 #
#266390000
b11 #
#266480000
b110 !
#266490000
b0 #
b1 !
b1000001 "
#266500000
b10 !
#266510000
b1 #
b11 !
#266520000
b10 #
#266700000
b11 #
#266720000
b110 !
#266730000
b0 #
b1 !
b1000010 "
#266740000
b10 !
#266750000
b1 #
b11 !
#266760000
b10 #
#267110000
b11 #
#267130000
b110 !
#267140000
b1000011 "
b1 !
b0 #
#267150000
b10 !
#267160000
b11 !
b1 #
#267170000
b10 #
#267790000
b11 #
#267810000
b110 !
#267820000
b1000100 "
b1 !
b0 #
#267830000
b10 !
#267840000
b11 !
b1 #
#267850000
b10 #
#267950000
b11 #
#268010000
b110 !
#268020000
b1000101 "
b1 !
b0 #
#268030000
b10 !
#268040000
b11 !
b1 #
#268050000
b10 #
#268170000
b11 #
#268190000
b110 !
#268200000
b1000110 "
b1 !
b0 #
#268210000
b10 !
#268220000
b11 !
b1 #
#268230000
b10 #
#268910000
b11 #
#268930000
b110 !
#268940000
b1000111 "
b1 !
b0 #
#268950000
b10 !
#268960000
b11 !
b1 #
#268970000
b10 #
#269440000
b11 #
#269460000
b110 !
#269470000
b0 #
b1 !
b1001000 "
#269480000
b10 !
#269490000
b1 #
b11 !
#269500000
b10 #
#269780000
b11 #
#269800000
b110 !
#269810000
b0 #
b1 !
b1001001 "
#269820000
b10 !
#269830000
b1 #
b11 !
#269840000
b10 #
#270270000
b11 #
#270280000
b110 !
#270290000
b0 #
b1 !
b1001010 "
#270300000
b10 !
#270310000
b1 #
b11 !
#270320000
b10 #
#270390000
b11 #
#270480000
b110 !
#270490000
b0 #
b1 !
b1001011 "
#270500000
b10 !
#270510000
b1 #
b11 !
#270520000
b10 #
#270800000
b11 #
#270820000
b110 !
#270830000
b0 #
b1 !
b1001100 "
#270840000
b10 !
#270850000
b1 #
b11 !
#270860000
b10 #
#271300000
b11 #
#271320000
b110 !
#271330000
b0 #
b1 !
b1001101 "
#271340000
b10 !
#271350000
b1 #
b11 !
#271360000
b10 #
#271680000
b11 #
#271700000
b110 !
#271710000
b0 #
b1 !
b1001110 "
#271720000
b10 !
#271730000
b1 #
b11 !
#271740000
b10 #
#271820000
b11 #
#271900000
b110 !
#271910000
b0 #
b1 !
b1001111 "
#271920000
b10 !
#271930000
b1 #
b11 !
#271940000
b10 #
#272070000
b11 #
#272090000
b110 !
#272100000
b1010000 "
b1 !
b0 #
#272110000
b10 !
#272120000
b11 !
b1 #
#272130000
b10 #
#272340000
b11 #
#272360000
b110 !
#272370000
b0 #
b1 !
b1010001 "
#272380000
b10 !
#272390000
b1 #
b11 !
#272400000
b10 #
#272840000
b11 #
#272860000
b110 !
#272870000
b0 #
b1 !
b1010010 "
#272880000
b10 !
#272890000
b1 #
b11 !
#272900000
b10 #
#273550000
b11 #
#273570000
b110 !
#273580000
b1010011 "
b1 !
b0 #
#273590000
b10 !
#273600000
b11 !
b1 #
#273610000
b10 #
#274020000
b11 #
#274030000
b110 !
#274040000
b1010100 "
b1 !
b0 #
#274050000
b10 !
#274060000
b11 !
b1 #
#274070000
b10 #
#274770000
b11 #
#274790000
b110 !
#274800000
b1010101 "
b1 !
b0 #
#274810000
b10 !
#274820000
b11 !
b1 #
#274830000
b10 #
#275430000
b11 #
#275450000
b110 !
#275460000
b1010110 "
b1 !
b0 #
#275470000
b10 !
#275480000
b11 !
b1 #
#275490000
b10 #
#276160000
b11 #
#276180000
b110 !
#276190000
b0 #
b1 !
b1010111 "
#276200000
b10 !
#276210000
b1 #
b11 !
#276220000
b10 #
#276870000
b11 #
#276890000
b110 !
#276900000
b1011000 "
b1 !
b0 #
#276910000
b10 !
#276920000
b11 !
b1 #
#276930000
b10 #
#277470000
b11 #
#277490000
b110 !
#277500000
b1011001 "
b1 !
b0 #
#277510000
b10 !
#277520000
b11 !
b1 #
#277530000
b10 #
#277940000
b11 #
#277960000
b110 !
#277970000
b0 #
b1 !
b1011010 "
#277980000
b10 !
#277990000
b1 #
b11 !
#278000000
b10 #
#278220000
b11 #
#278240000
b110 !
#278250000
b0 #
b1 !
b1011011 "
#278260000
b10 !
#278270000
b1 #
b11 !
#278280000
b10 #
#279030000
b11 #
#279050000
b110 !
#279060000
b1011100 "
b1 !
b0 #
#279070000
b10 !
#279080000
b11 !
b1 #
#279090000
b10 #
#279380000
b11 #
#279390000
b110 !
#279400000
b1011101 "
b1 !
b0 #
#279410000
b10 !
#279420000
b11 !
b1 #
#279430000
b10 #
#279850000
b11 #
#279870000
b110 !
#279880000
b1011110 "
b1 !
b0 #
#279890000
b10 !
#279900000
b11 !
b1 #
#279910000
b10 #
#280000000
b11 #
#280050000
b110 !
#280060000
b1011111 "
b1 !
b0 #
#280070000
b10 !
#280080000
b11 !
b1 #
#280090000
b10 #
#280200000
b11 #
#280230000
b110 !
#280240000
b1100000 "
b1 !
b0 #
#280250000
b10 !
#280260000
b11 !
b1 #
#280270000
b10 #
#280530000
b11 #
#280550000
b110 !
#280560000
b1100001 "
b1 !
b0 #
#280570000
b10 !
#280580000
b11 !
b1 #
#280590000
b10 #
#281300000
b11 #
#281310000
b110 !
#281320000
b1100010 "
b1 !
b0 #
#281330000
b10 !
#281340000
b11 !
b1 #
#281350000
b10 #
#282070000
b11 #
#282090000
b110 !
#282100000
b1100011 "
b1 !
b0 #
#282110000
b10 !
#282120000
b11 !
b1 #
#282130000
b10 #
#282230000
b11 #
#282290000
b110 !
#282300000
b1100100 "
b1 !
b0 #
#282310000
b10 !
#282320000
b11 !
b1 #
#282330000
b10 #
#282590000
b11 #
#282610000
b110 !
#282620000
b1100101 "
b1 !
b0 #
#282630000
b10 !
#282640000
b11 !
b1 #
#282650000
b10 #
#282980000
b11 #
#283000000
b110 !
#283010000
b0 #
b1 !
b1100110 "
#283020000
b10 !
#283030000
b1 #
b11 !
#283040000
b10 #
#283390000
b11 #
#283410000
b110 !
#283420000
b1100111 "
b1 !
b0 #
#283430000
b10 !
#283440000
b11 !
b1 #
#283450000
b10 #
#284190000
b11 #
#284210000
b110 !
#284220000
b1101000 "
b1 !
b0 #
#284230000
b10 !
#284240000
b11 !
b1 #
#284250000
b10 #
#284400000
b11 #
#284450000
b110 !
#284460000
b1101001 "
b1 !
b0 #
#284470000
b10 !
#284480000
b11 !
b1 #
#284490000
b10 #
#284540000
b11 #
#284620000
b110 !
#284630000
b0 #
b1 !
b1101010 "
#284640000
b10 !
#284650000
b1 #
b11 !
#284660000
b10 #
#285420000
b11 #
#285440000
b110 !
#285450000
b0 #
b1 !
b1101011 "
#285460000
b10 !
#285470000
b1 #
b11 !
#285480000
b10 #
#285770000
b11 #
#285790000
b110 !
#285800000
b1101100 "
b1 !
b0 #
#285810000
b10 !
#285820000
b11 !
b1 #
#285830000
b10 #
#286180000
b11 #
#286200000
b110 !
#286210000
b0 #
b1 !
b1101101 "
#286220000
b10 !
#286230000
b1 #
b11 !
#286240000
b10 #
#286660000
b11 #
#286680000
b110 !
#286690000
b0 #
b1 !
b1101110 "
#286700000
b10 !
#286710000
b1 #
b11 !
#286720000
b10 #
#287090000
b11 #
#287110000
b110 !
#287120000
b1101111 "
b1 !
b0 #
#287130000
b10 !
#287140000
b11 !
b1 #
#287150000
b10 #
#287290000
b11 #
#287310000
b110 !
#287320000
b1110000 "
b1 !
b0 #
#287330000
b10 !
#287340000
b11 !
b1 #
#287350000
b10 #
#287520000
b11 #
#287540000
b110 !
#287550000
b0 #
b1 !
b1110001 "
#287560000
b10 !
#287570000
b1 #
b11 !
#287580000
b10 #
#287660000
b11 #
#287730000
b110 !
#287740000
b1110010 "
b1 !
b0 #
#287750000
b10 !
#287760000
b11 !
b1 #
#287770000
b10 #
#287900000
b11 #
#287920000
b110 !
#287930000
b0 #
b1 !
b1110011 "
#287940000
b10 !
#287950000
b1 #
b11 !
#287960000
b10 #
#288670000
b11 #
#288690000
b110 !
#288700000
b1110100 "
b1 !
b0 #
#288710000
b10 !
#288720000
b11 !
b1 #
#288730000
b10 #
#288830000
b11 #
#288880000
b110 !
#288890000
b0 #
b1 !
b1110101 "
#288900000
b10 !
#288910000
b1 #
b11 !
#288920000
b10 #
#289230000
b11 #
#289250000
b110 !
#289260000
b1110110 "
b1 !
b0 #
#289270000
b10 !
#289280000
b11 !
b1 #
#289290000
b10 #
#289490000
b11 #
#289510000
b110 !
#289520000
b1110111 "
b1 !
b0 #
#289530000
b10 !
#289540000
b11 !
b1 #
#289550000
b10 #
#290230000
b11 #
#290240000
b110 !
#290250000
b0 #
b1 !
b1111000 "
#290260000
b10 !
#290270000
b1 #
b11 !
#290280000
b10 #
#290740000
b11 #
#290760000
b110 !
#290770000
b0 #
b1 !
b1111001 "
#290780000
b10 !
#290790000
b1 #
b11 !
#290800000
b10 #
#291240000
b11 #
#291260000
b110 !
#291270000
b0 #
b1 !
b1111010 "
#291280000
b10 !
#291290000
b1 #
b11 !
#291300000
b10 #
#291710000
b11 #
#291730000
b110 !
#291740000
b1111011 "
b1 !
b0 #
#291750000
b10 !
#291760000
b11 !
b1 #
#291770000
b10 #
#292290000
b11 #
#292310000
b110 !
#292320000
b1111100 "
b1 !
b0 #
#292330000
b10 !
#292340000
b11 !
b1 #
#292350000
b10 #
#292740000
b11 #
#292760000
b110 !
#292770000
b0 #
b1 !
b1111101 "
#292780000
b10 !
#292790000
b1 #
b11 !
#292800000
b10 #
#293290000
b11 #
#293300000
b110 !
#293310000
b0 #
b1 !
b1111110 "
#293320000
b10 !
#293330000
b1 #
b11 !
#293340000
b10 #
#293790000
b11 #
#293810000
b110 !
#293820000
b1111111 "
b1 !
b0 #
#293830000
b10 !
#293840000
b11 !
b1 #
#293850000
b10 #
#294280000
b11 #
#294290000
b110 !
#294300000
b10000000 "
b1 !
b0 #
#294310000
b10 !
#294320000
b11 !
b1 #
#294330000
b10 #
#294610000
b11 #
#294620000
b110 !
#294630000
b0 #
b1 !
b10000001 "
#294640000
b10 !
#294650000
b1 #
b11 !
#294660000
b10 #
#294720000
b11 #
#294870000
b110 !
#294880000
b10000010 "
b1 !
b0 #
#294890000
b10 !
#294900000
b11 !
b1 #
#294910000
b10 #
#295130000
b11 #
#295150000
b110 !
#295160000
b10000011 "
b1 !
b0 #
#295170000
b10 !
#295180000
b11 !
b1 #
#295190000
b10 #
#295250000
b11 #
#295350000
b110 !
#295360000
b10000100 "
b1 !
b0 #
#295370000
b10 !
#295380000
b11 !
b1 #
#295390000
b10 #
#295720000
b11 #
#295740000
b110 !
#295750000
b0 #
b1 !
b10000101 "
#295760000
b10 !
#295770000
b1 #
b11 !
#295780000
b10 #
#296360000
b11 #
#296380000
b110 !
#296390000
b0 #
b1 !
b10000110 "
#296400000
b10 !
#296410000
b1 #
b11 !
#296420000
b10 #
#296850000
b11 #
#296870000
b110 !
#296880000
b10000111 "
b1 !
b0 #
#296890000
b10 !
#296900000
b11 !
b1 #
#296910000
b10 #
#297420000
b11 #
#297440000
b110 !
#297450000
b0 #
b1 !
b10001000 "
#297460000
b10 !
#297470000
b1 #
b11 !
#297480000
b10 #
#297690000
b11 #
#297710000
b110 !
#297720000
b10001001 "
b1 !
b0 #
#297730000
b10 !
#297740000
b11 !
b1 #
#297750000
b10 #
#297810000
b11 #
#297900000
b110 !
#297910000
b0 #
b1 !
b10001010 "
#297920000
b10 !
#297930000
b1 #
b11 !
#297940000
b10 #
#298610000
b11 #
#298630000
b110 !
#298640000
b10001011 "
b1 !
b0 #
#298650000
b10 !
#298660000
b11 !
b1 #
#298670000
b10 #
#299410000
b11 #
#299420000
b110 !
#299430000
b0 #
b1 !
b10001100 "
#299440000
b10 !
#299450000
b1 #
b11 !
#299460000
b10 #
#300150000
b11 #
#300160000
b110 !
#300170000
b0 #
b1 !
b10001101 "
#300180000
b10 !
#300190000
b1 #
b11 !
#300200000
b10 #
#300390000
b11 #
#300410000
b110 !
#300420000
b10001110 "
b1 !
b0 #
#300430000
b10 !
#300440000
b11 !
b1 #
#300450000
b10 #
#301000000
b11 #
#301020000
b110 !
#301030000
b0 #
b1 !
b10001111 "
#301040000
b10 !
#301050000
b1 #
b11 !
#301060000
b10 #
#301110000
b11 #
#301250000
b110 !
#301260000
b10010000 "
b1 !
b0 #
#301270000
b10 !
#301280000
b11 !
b1 #
#301290000
b10 #
#301960000
b11 #
#301980000
b110 !
#301990000
b0 #
b1 !
b10010001 "
#302000000
b10 !
#302010000
b1 #
b11 !
#302020000
b10 #
#302440000
b11 #
#302460000
b110 !
#302470000
b0 #
b1 !
b10010010 "
#302480000
b10 !
#302490000
b1 #
b11 !
#302500000
b10 #
#302610000
b11 #
#302640000
b110 !
#302650000
b0 #
b1 !
b10010011 "
#302660000
b10 !
#302670000
b1 #
b11 !
#302680000
b10 #
#303060000
b11 #
#303080000
b110 !
#303090000
b0 #
b1 !
b10010100 "
#303100000
b10 !
#303110000
b1 #
b11 !
#303120000
b10 #
#303650000
b11 #
#303670000
b110 !
#303680000
b10010101 "
b1 !
b0 #
#303690000
b10 !
#303700000
b11 !
b1 #
#303710000
b10 #
#304150000
b11 #
#304170000
b110 !
#304180000
b10010110 "
b1 !
b0 #
#304190000
b10 !
#304200000
b11 !
b1 #
#304210000
b10 #
#304780000
b11 #
#304800000
b110 !
#304810000
b0 #
b1 !
b10010111 "
#304820000
b10 !
#304830000
b1 #
b11 !
#304840000
b10 #
#305420000
b11 #
#305440000
b110 !
#305450000
b0 #
b1 !
b10011000 "
#305460000
b10 !
#305470000
b1 #
b11 !
#305480000
b10 #
#305600000
b11 #
#305650000
b110 !
#305660000
b10011001 "
b1 !
b0 #
#305670000
b10 !
#305680000
b11 !
b1 #
#305690000
b10 #
#305900000
b11 #
#305920000
b110 !
#305930000
b0 #
b1 !
b10011010 "
#305940000
b10 !
#305950000
b1 #
b11 !
#305960000
b10 #
#306090000
b11 #
#306150000
b110 !
#306160000
b10011011 "
b1 !
b0 #
#306170000
b10 !
#306180000
b11 !
b1 #
#306190000
b10 #
#306820000
b11 #
#306840000
b110 !
#306850000
b0 #
b1 !
b10011100 "
#306860000
b10 !
#306870000
b1 #
b11 !
#306880000
b10 #
#307620000
b11 #
#307640000
b110 !
#307650000
b0 #
b1 !
b10011101 "
#307660000
b10 !
#307670000
b1 #
b11 !
#307680000
b10 #
#308290000
b11 #
#308310000
b110 !
#308320000
b10011110 "
b1 !
b0 #
#308330000
b10 !
#308340000
b11 !
b1 #
#308350000
b10 #
#309040000
b11 #
#309060000
b110 !
#309070000
b0 #
b1 !
b10011111 "
#309080000
b10 !
#309090000
b1 #
b11 !
#309100000
b10 #
#309350000
b11 #
#309370000
b110 !
#309380000
b10100000 "
b1 !
b0 #
#309390000
b10 !
#309400000
b11 !
b1 #
#309410000
b10 #
#309700000
b11 #
#309720000
b110 !
#309730000
b0 #
b1 !
b10100001 "
#309740000
b10 !
#309750000
b1 #
b11 !
#309760000
b10 #
#310470000
b11 #
#310490000
b110 !
#310500000
b10100010 "
b1 !
b0 #
#310510000
b10 !
#310520000
b11 !
b1 #
#310530000
b10 #
#310560000
b11 #
#310680000
b110 !
#310690000
b0 #
b1 !
b10100011 "
#310700000
b10 !
#310710000
b1 #
b11 !
#310720000
b10 #
#310830000
b11 #
#310850000
b110 !
#310860000
b10100100 "
b1 !
b0 #
#310870000
b10 !
#310880000
b11 !
b1 #
#310890000
b10 #
#310940000
b11 #
#311050000
b110 !
#311060000
b10100101 "
b1 !
b0 #
#311070000
b10 !
#311080000
b11 !
b1 #
#311090000
b10 #
#311680000
b11 #
#311700000
b110 !
#311710000
b0 #
b1 !
b10100110 "
#311720000
b10 !
#311730000
b1 #
b11 !
#311740000
b10 #
#311800000
b11 #
#311890000
b110 !
#311900000
b10100111 "
b1 !
b0 #
#311910000
b10 !
#311920000
b11 !
b1 #
#311930000
b10 #
#312210000
b11 #
#312230000
b110 !
#312240000
b10101000 "
b1 !
b0 #
#312250000
b10 !
#312260000
b11 !
b1 #
#312270000
b10 #
#313020000
b11 #
#313040000
b110 !
#313050000
b0 #
b1 !
b10101001 "
#313060000
b10 !
#313070000
b1 #
b11 !
#313080000
b10 #
#313790000
b11 #
#313810000
b110 !
#313820000
b10101010 "
b1 !
b0 #
#313830000
b10 !
#313840000
b11 !
b1 #
#313850000
b10 #
#314400000
b11 #
#314420000
b110 !
#314430000
b0 #
b1 !
b10101011 "
#314440000
b10 !
#314450000
b1 #
b11 !
#314460000
b10 #
#314670000
b11 #
#314690000
b110 !
#314700000
b10101100 "
b1 !
b0 #
#314710000
b10 !
#314720000
b11 !
b1 #
#314730000
b10 #
#314890000
b11 #
#314920000
b110 !
#314930000
b0 #
b1 !
b10101101 "
#314940000
b10 !
#314950000
b1 #
b11 !
#314960000
b10 #
#315260000
b11 #
#315280000
b110 !
#315290000
b0 #
b1 !
b10101110 "
#315300000
b10 !
#315310000
b1 #
b11 !
#315320000
b10 #
#315890000
b11 #
#315910000
b110 !
#315920000
b10101111 "
b1 !
b0 #
#315930000
b10 !
#315940000
b11 !
b1 #
#315950000
b10 #
#316250000
b11 #
#316270000
b110 !
#316280000
b10110000 "
b1 !
b0 #
#316290000
b10 !
#316300000
b11 !
b1 #
#316310000
b10 #
#316630000
b11 #
#316650000
b110 !
#316660000
b10110001 "
b1 !
b0 #
#316670000
b10 !
#316680000
b11 !
b1 #
#316690000
b10 #
#317120000
b11 #
#317140000
b110 !
#317150000
b0 #
b1 !
b10110010 "
#317160000
b10 !
#317170000
b1 #
b11 !
#317180000
b10 #
#317300000
b11 #
#317380000
b110 !
#317390000
b0 #
b1 !
b10110011 "
#317400000
b10 !
#317410000
b11 #
b11 !
#317510000
b110 !
#317520000
b10110100 "
b1 !
b0 #
#317530000
b10 !
#317540000
b11 !
b1 #
#317550000
b10 #
#318120000
b11 #
#318140000
b110 !
#318150000
b0 #
b1 !
b10110101 "
#318160000
b10 !
#318170000
b1 #
b11 !
#318180000
b10 #
#318210000
b11 #
#318370000
b110 !
#318380000
b10110110 "
b1 !
b0 #
#318390000
b10 !
#318400000
b11 !
b1 #
#318410000
b10 #
#319060000
b11 #
#319080000
b110 !
#319090000
b0 #
b1 !
b10110111 "
#319100000
b10 !
#319110000
b1 #
b11 !
#319120000
b10 #
#319660000
b11 #
#319680000
b110 !
#319690000
b0 #
b1 !
b10111000 "
#319700000
b10 !
#319710000
b1 #
b11 !
#319720000
b10 #
#320380000
b11 #
#320400000
b110 !
#320410000
b0 #
b1 !
b10111001 "
#320420000
b10 !
#320430000
b1 #
b11 !
#320440000
b10 #
#320840000
b11 #
#320860000
b110 !
#320870000
b0 #
b1 !
b10111010 "
#320880000
b10 !
#320890000
b1 #
b11 !
#320900000
b10 #
#321290000
b11 #
#321310000
b110 !
#321320000
b10111011 "
b1 !
b0 #
#321330000
b10 !
#321340000
b11 !
b1 #
#321350000
b10 #
#321820000
b11 #
#321840000
b110 !
#321850000
b0 #
b1 !
b10111100 "
#321860000
b10 !
#321870000
b1 #
b11 !
#321880000
b10 #
#321930000
b11 #
#322030000
b110 !
#322040000
b10111101 "
b1 !
b0 #
#322050000
b10 !
#322060000
b11 !
b1 #
#322070000
b10 #
#322190000
b11 #
#322210000
b110 !
#322220000
b10111110 "
b1 !
b0 #
#322230000
b10 !
#322240000
b11 !
b1 #
#322250000
b10 #
#322330000
b11 #
#322410000
b110 !
#322420000
b10111111 "
b1 !
b0 #
