test/pe_sim/sim_build/pe_dump.vcd
$date
	Wed Jun 24 16:41:02 2026
$end
$version
	Icarus Verilog
$end
$timescale
	1ps
$end
$scope module tb_pe_top $end
$scope module u_pe $end
$var reg 3 ! state [2:0] $end
$upscope $end
$upscope $end
$scope module tb_pe_top $end
$scope module u_pe $end
$var reg 8 " row_idx [7:0] $end
$upscope $end
$upscope $end
$scope module tb_pe_top $end
$scope module u_pe $end
$var reg 16 # instr_ptr [15:0] $end
$upscope $end
$upscope $end
$scope module tb_pe_top $end
$scope module u_pe $end
$var reg 1 $ done $end
$upscope $end
$upscope $end
$enddefinitions $end
$comment Show the parameter values. $end
$dumpall
$end
#0
$dumpvars
0$
b0 #
b0 "
b0 !
$end
#636340000
b1 !
#636350000
b10 !
#636360000
b11 !
#636370000
b1 #
#636380000
b10 #
#636390000
b11 #
#636400000
b100 #
#636410000
b101 #
#636420000
b110 #
#636430000
b111 #
#636440000
b1000 #
#636450000
b1001 #
#636460000
b1010 #
#636470000
b1011 #
#636480000
b1100 #
#636490000
b1101 #
#636500000
b1110 #
#636510000
b1111 #
#636520000
b10000 #
#636530000
b10001 #
#636540000
b10010 #
#636550000
b10011 #
#636560000
b10100 #
#636570000
b10101 #
#636580000
b10110 #
#636590000
b10111 #
#636600000
b11000 #
#636610000
b11001 #
#636620000
b11010 #
#636630000
b11011 #
#636640000
b11100 #
#636650000
b11101 #
#636660000
b11110 #
#636670000
b11111 #
#636680000
b100000 #
#636690000
b100001 #
#636700000
b100010 #
#636710000
b100011 #
#636720000
b100100 #
#636730000
b100101 #
#636740000
b100110 #
#636750000
b100111 #
#636760000
b101000 #
#636770000
b101001 #
#636780000
b101010 #
#636790000
b101011 #
#636800000
b101100 #
#636810000
b101101 #
#636820000
b101110 #
#636830000
b101111 #
#636840000
b110000 #
#636850000
b110001 #
#636860000
b110010 #
#636870000
b110011 #
#636880000
b110100 #
#636890000
b110101 #
#636900000
b110110 #
#636910000
b110111 #
#636920000
b111000 #
#636930000
b111001 #
#636940000
b111010 #
#636950000
b111011 #
#636960000
b111100 #
#636970000
b111101 #
#636980000
b111110 #
#636990000
b111111 #
#637000000
b1000000 #
#637010000
b1000001 #
#637020000
b1000010 #
#637030000
b1000011 #
#637040000
b1000100 #
#637050000
b1000101 #
#637060000
b1000110 #
#637070000
b1000111 #
#637080000
b1001000 #
#637090000
b1001001 #
#637100000
b1001010 #
#637110000
b1001011 #
#637120000
b1001100 #
#637130000
b1001101 #
#637140000
b1001110 #
#637150000
b1001111 #
#637160000
b1010000 #
#637170000
b1010001 #
#637180000
b1010010 #
#637190000
b1010011 #
#637200000
b1010100 #
#637210000
b1010101 #
#637220000
b1010110 #
#637230000
b1010111 #
#637240000
b1011000 #
#637250000
b1011001 #
#637260000
b1011010 #
#637270000
b1011011 #
#637280000
b1011100 #
#637290000
b1011101 #
#637300000
b1011110 #
#637310000
b1011111 #
#637320000
b1100000 #
#637330000
b1100001 #
#637340000
b1100010 #
#637350000
b1100011 #
#637360000
b1100100 #
#637370000
b1100101 #
#637380000
b1100110 #
#637390000
b1100111 #
#637400000
b1101000 #
#637410000
b1101001 #
#637420000
b1101010 #
#637430000
b1101011 #
#637440000
b1101100 #
#637450000
b1101101 #
#637460000
b1101110 #
#637470000
b1101111 #
#637480000
b1110000 #
#637490000
b1110001 #
#637500000
b1110010 #
#637510000
b1110011 #
#637520000
b1110100 #
#637530000
b1110101 #
#637540000
b1110110 #
#637550000
b1110111 #
#637560000
b1111000 #
#637570000
b1111001 #
#637580000
b1111010 #
#637590000
b1111011 #
#637600000
b1111100 #
#637610000
b1111101 #
#637620000
b1111110 #
#637630000
b1111111 #
#637640000
b10000000 #
#637650000
b10000001 #
#637660000
b10000010 #
#637670000
b10000011 #
#637680000
b10000100 #
#637690000
b10000101 #
#637700000
b10000110 #
#637710000
b10000111 #
#637720000
b10001000 #
#637730000
b10001001 #
#637740000
b10001010 #
#637750000
b10001011 #
#637760000
b10001100 #
#637770000
b10001101 #
#637780000
b10001110 #
#637790000
b10001111 #
#637800000
b10010000 #
#637810000
b10010001 #
#637820000
b10010010 #
#637830000
b10010011 #
#637840000
b10010100 #
#637850000
b10010101 #
#637860000
b10010110 #
#637870000
b10010111 #
#637880000
b10011000 #
#637890000
b10011001 #
#637900000
b10011010 #
#637910000
b10011011 #
#637920000
b10011100 #
#637930000
b10011101 #
#637940000
b10011110 #
#637950000
b10011111 #
#637960000
b10100000 #
#637970000
b10100001 #
#637980000
b10100010 #
#637990000
b10100011 #
#638000000
b10100100 #
#638010000
b100 !
#638020000
b101 !
#638050000
b110 !
#638060000
b1 !
b0 #
b1 "
#638070000
b10 !
#638080000
b11 !
#638090000
b1 #
#638100000
b10 #
#638110000
b11 #
#638120000
b100 #
#638130000
b101 #
#638140000
b110 #
#638150000
b111 #
#638160000
b1000 #
#638170000
b1001 #
#638180000
b1010 #
#638190000
b1011 #
#638200000
b1100 #
#638210000
b1101 #
#638220000
b1110 #
#638230000
b1111 #
#638240000
b10000 #
#638250000
b10001 #
#638260000
b10010 #
#638270000
b10011 #
#638280000
b10100 #
#638290000
b10101 #
#638300000
b10110 #
#638310000
b10111 #
#638320000
b11000 #
#638330000
b11001 #
#638340000
b11010 #
#638350000
b11011 #
#638360000
b11100 #
#638370000
b11101 #
#638380000
b11110 #
#638390000
b11111 #
#638400000
b100000 #
#638410000
b100001 #
#638420000
b100010 #
#638430000
b100011 #
#638440000
b100100 #
#638450000
b100101 #
#638460000
b100110 #
#638470000
b100111 #
#638480000
b101000 #
#638490000
b101001 #
#638500000
b101010 #
#638510000
b101011 #
#638520000
b101100 #
#638530000
b101101 #
#638540000
b101110 #
#638550000
b101111 #
#638560000
b110000 #
#638570000
b110001 #
#638580000
b110010 #
#638590000
b110011 #
#638600000
b110100 #
#638610000
b110101 #
#638620000
b110110 #
#638630000
b110111 #
#638640000
b111000 #
#638650000
b111001 #
#638660000
b111010 #
#638670000
b111011 #
#638680000
b111100 #
#638690000
b111101 #
#638700000
b111110 #
#638710000
b111111 #
#638720000
b1000000 #
#638730000
b1000001 #
#638740000
b1000010 #
#638750000
b1000011 #
#638760000
b1000100 #
#638770000
b1000101 #
#638780000
b1000110 #
#638790000
b1000111 #
#638800000
b1001000 #
#638810000
b1001001 #
#638820000
b1001010 #
#638830000
b1001011 #
#638840000
b1001100 #
#638850000
b1001101 #
#638860000
b1001110 #
#638870000
b1001111 #
#638880000
b1010000 #
#638890000
b1010001 #
#638900000
b1010010 #
#638910000
b1010011 #
#638920000
b1010100 #
#638930000
b1010101 #
#638940000
b1010110 #
#638950000
b1010111 #
#638960000
b1011000 #
#638970000
b1011001 #
#638980000
b1011010 #
#638990000
b1011011 #
#639000000
b1011100 #
#639010000
b1011101 #
#639020000
b1011110 #
#639030000
b1011111 #
#639040000
b1100000 #
#639050000
b1100001 #
#639060000
b1100010 #
#639070000
b1100011 #
#639080000
b1100100 #
#639090000
b1100101 #
#639100000
b1100110 #
#639110000
b1100111 #
#639120000
b1101000 #
#639130000
b1101001 #
#639140000
b1101010 #
#639150000
b1101011 #
#639160000
b1101100 #
#639170000
b1101101 #
#639180000
b1101110 #
#639190000
b1101111 #
#639200000
b1110000 #
#639210000
b1110001 #
#639220000
b1110010 #
#639230000
b1110011 #
#639240000
b1110100 #
#639250000
b1110101 #
#639260000
b1110110 #
#639270000
b1110111 #
#639280000
b1111000 #
#639290000
b1111001 #
#639300000
b1111010 #
#639310000
b1111011 #
#639320000
b1111100 #
#639330000
b1111101 #
#639340000
b1111110 #
#639350000
b1111111 #
#639360000
b10000000 #
#639370000
b10000001 #
#639380000
b10000010 #
#639390000
b10000011 #
#639400000
b10000100 #
#639410000
b10000101 #
#639420000
b10000110 #
#639430000
b10000111 #
#639440000
b10001000 #
#639450000
b10001001 #
#639460000
b10001010 #
#639470000
b10001011 #
#639480000
b10001100 #
#639490000
b10001101 #
#639500000
b10001110 #
#639510000
b10001111 #
#639520000
b10010000 #
#639530000
b10010001 #
#639540000
b10010010 #
#639550000
b10010011 #
#639560000
b10010100 #
#639570000
b10010101 #
#639580000
b10010110 #
#639590000
b10010111 #
#639600000
b10011000 #
#639610000
b10011001 #
#639620000
b10011010 #
#639630000
b10011011 #
#639640000
b10011100 #
#639650000
b10011101 #
#639660000
b10011110 #
#639670000
b10011111 #
#639680000
b10100000 #
#639690000
b10100001 #
#639700000
b10100010 #
#639710000
b10100011 #
#639720000
b10100100 #
#639730000
b10100101 #
#639740000
b10100110 #
#639750000
b10100111 #
#639760000
b10101000 #
#639770000
b10101001 #
#639780000
b10101010 #
#639790000
b10101011 #
#639800000
b10101100 #
#639810000
b10101101 #
#639820000
b10101110 #
#639830000
b10101111 #
#639840000
b10110000 #
#639850000
b10110001 #
#639860000
b10110010 #
#639870000
b10110011 #
#639880000
b10110100 #
#639890000
b10110101 #
#639900000
b10110110 #
#639910000
b10110111 #
#639920000
b10111000 #
#639930000
b10111001 #
#639940000
b10111010 #
#639950000
b10111011 #
#639960000
b10111100 #
#639970000
b10111101 #
#639980000
b10111110 #
#639990000
b10111111 #
#640000000
b11000000 #
#640010000
b11000001 #
#640020000
b11000010 #
#640030000
b11000011 #
#640040000
b11000100 #
#640050000
b11000101 #
#640060000
b11000110 #
#640070000
b11000111 #
#640080000
b11001000 #
#640090000
b11001001 #
#640100000
b11001010 #
#640110000
b11001011 #
#640120000
b11001100 #
#640130000
b100 !
#640140000
b101 !
#640170000
b110 !
#640180000
b1 !
b0 #
b10 "
#640190000
b10 !
#640200000
b11 !
#640210000
b1 #
#640220000
b10 #
#640230000
b11 #
#640240000
b100 #
#640250000
b101 #
#640260000
b110 #
#640270000
b111 #
#640280000
b1000 #
#640290000
b1001 #
#640300000
b1010 #
#640310000
b1011 #
#640320000
b1100 #
#640330000
b1101 #
#640340000
b1110 #
#640350000
b1111 #
#640360000
b10000 #
#640370000
b10001 #
#640380000
b10010 #
#640390000
b10011 #
#640400000
b10100 #
#640410000
b10101 #
#640420000
b10110 #
#640430000
b10111 #
#640440000
b11000 #
#640450000
b11001 #
#640460000
b11010 #
#640470000
b11011 #
#640480000
b11100 #
#640490000
b11101 #
#640500000
b11110 #
#640510000
b11111 #
#640520000
b100000 #
#640530000
b100001 #
#640540000
b100010 #
#640550000
b100011 #
#640560000
b100100 #
#640570000
b100101 #
#640580000
b100110 #
#640590000
b100111 #
#640600000
b101000 #
#640610000
b101001 #
#640620000
b101010 #
#640630000
b101011 #
#640640000
b101100 #
#640650000
b101101 #
#640660000
b101110 #
#640670000
b101111 #
#640680000
b110000 #
#640690000
b110001 #
#640700000
b110010 #
#640710000
b110011 #
#640720000
b110100 #
#640730000
b110101 #
#640740000
b110110 #
#640750000
b110111 #
#640760000
b111000 #
#640770000
b111001 #
#640780000
b111010 #
#640790000
b111011 #
#640800000
b111100 #
#640810000
b111101 #
#640820000
b111110 #
#640830000
b111111 #
#640840000
b1000000 #
#640850000
b1000001 #
#640860000
b1000010 #
#640870000
b1000011 #
#640880000
b1000100 #
#640890000
b1000101 #
#640900000
b1000110 #
#640910000
b1000111 #
#640920000
b1001000 #
#640930000
b1001001 #
#640940000
b1001010 #
#640950000
b1001011 #
#640960000
b1001100 #
#640970000
b1001101 #
#640980000
b1001110 #
#640990000
b1001111 #
#641000000
b1010000 #
#641010000
b1010001 #
#641020000
b1010010 #
#641030000
b1010011 #
#641040000
b1010100 #
#641050000
b1010101 #
#641060000
b1010110 #
#641070000
b1010111 #
#641080000
b1011000 #
#641090000
b1011001 #
#641100000
b1011010 #
#641110000
b1011011 #
#641120000
b1011100 #
#641130000
b1011101 #
#641140000
b1011110 #
#641150000
b1011111 #
#641160000
b1100000 #
#641170000
b1100001 #
#641180000
b1100010 #
#641190000
b1100011 #
#641200000
b1100100 #
#641210000
b1100101 #
#641220000
b1100110 #
#641230000
b1100111 #
#641240000
b1101000 #
#641250000
b1101001 #
#641260000
b1101010 #
#641270000
b1101011 #
#641280000
b1101100 #
#641290000
b1101101 #
#641300000
b1101110 #
#641310000
b1101111 #
#641320000
b1110000 #
#641330000
b1110001 #
#641340000
b1110010 #
#641350000
b1110011 #
#641360000
b1110100 #
#641370000
b1110101 #
#641380000
b1110110 #
#641390000
b1110111 #
#641400000
b1111000 #
#641410000
b1111001 #
#641420000
b1111010 #
#641430000
b1111011 #
#641440000
b1111100 #
#641450000
b1111101 #
#641460000
b1111110 #
#641470000
b1111111 #
#641480000
b10000000 #
#641490000
b10000001 #
#641500000
b10000010 #
#641510000
b10000011 #
#641520000
b10000100 #
#641530000
b10000101 #
#641540000
b10000110 #
#641550000
b10000111 #
#641560000
b10001000 #
#641570000
b10001001 #
#641580000
b10001010 #
#641590000
b10001011 #
#641600000
b10001100 #
#641610000
b10001101 #
#641620000
b10001110 #
#641630000
b10001111 #
#641640000
b10010000 #
#641650000
b10010001 #
#641660000
b10010010 #
#641670000
b10010011 #
#641680000
b10010100 #
#641690000
b10010101 #
#641700000
b10010110 #
#641710000
b10010111 #
#641720000
b10011000 #
#641730000
b10011001 #
#641740000
b10011010 #
#641750000
b10011011 #
#641760000
b10011100 #
#641770000
b10011101 #
#641780000
b10011110 #
#641790000
b10011111 #
#641800000
b10100000 #
#641810000
b10100001 #
#641820000
b10100010 #
#641830000
b10100011 #
#641840000
b10100100 #
#641850000
b10100101 #
#641860000
b10100110 #
#641870000
b10100111 #
#641880000
b10101000 #
#641890000
b10101001 #
#641900000
b10101010 #
#641910000
b10101011 #
#641920000
b10101100 #
#641930000
b10101101 #
#641940000
b10101110 #
#641950000
b10101111 #
#641960000
b10110000 #
#641970000
b10110001 #
#641980000
b10110010 #
#641990000
b10110011 #
#642000000
b10110100 #
#642010000
b10110101 #
#642020000
b10110110 #
#642030000
b10110111 #
#642040000
b10111000 #
#642050000
b10111001 #
#642060000
b10111010 #
#642070000
b10111011 #
#642080000
b10111100 #
#642090000
b10111101 #
#642100000
b10111110 #
#642110000
b10111111 #
#642120000
b11000000 #
#642130000
b11000001 #
#642140000
b11000010 #
#642150000
b11000011 #
#642160000
b11000100 #
#642170000
b11000101 #
#642180000
b11000110 #
#642190000
b100 !
#642200000
b101 !
#642360000
b110 !
#642370000
b0 #
b11 "
b1 !
#642380000
b10 !
#642390000
b11 !
#642400000
b1 #
#642410000
b10 #
#642420000
b11 #
#642430000
b100 #
#642440000
b101 #
#642450000
b110 #
#642460000
b111 #
#642470000
b1000 #
#642480000
b1001 #
#642490000
b1010 #
#642500000
b1011 #
#642510000
b1100 #
#642520000
b1101 #
#642530000
b1110 #
#642540000
b1111 #
#642550000
b10000 #
#642560000
b10001 #
#642570000
b10010 #
#642580000
b10011 #
#642590000
b10100 #
#642600000
b10101 #
#642610000
b10110 #
#642620000
b10111 #
#642630000
b11000 #
#642640000
b11001 #
#642650000
b11010 #
#642660000
b11011 #
#642670000
b11100 #
#642680000
b11101 #
#642690000
b11110 #
#642700000
b11111 #
#642710000
b100000 #
#642720000
b100001 #
#642730000
b100010 #
#642740000
b100011 #
#642750000
b100100 #
#642760000
b100101 #
#642770000
b100110 #
#642780000
b100111 #
#642790000
b101000 #
#642800000
b101001 #
#642810000
b101010 #
#642820000
b101011 #
#642830000
b101100 #
#642840000
b101101 #
#642850000
b101110 #
#642860000
b101111 #
#642870000
b110000 #
#642880000
b110001 #
#642890000
b110010 #
#642900000
b110011 #
#642910000
b110100 #
#642920000
b110101 #
#642930000
b110110 #
#642940000
b110111 #
#642950000
b111000 #
#642960000
b111001 #
#642970000
b111010 #
#642980000
b111011 #
#642990000
b111100 #
#643000000
b111101 #
#643010000
b111110 #
#643020000
b111111 #
#643030000
b1000000 #
#643040000
b1000001 #
#643050000
b1000010 #
#643060000
b1000011 #
#643070000
b1000100 #
#643080000
b1000101 #
#643090000
b1000110 #
#643100000
b1000111 #
#643110000
b1001000 #
#643120000
b1001001 #
#643130000
b1001010 #
#643140000
b1001011 #
#643150000
b1001100 #
#643160000
b1001101 #
#643170000
b1001110 #
#643180000
b1001111 #
#643190000
b1010000 #
#643200000
b1010001 #
#643210000
b1010010 #
#643220000
b1010011 #
#643230000
b1010100 #
#643240000
b1010101 #
#643250000
b1010110 #
#643260000
b1010111 #
#643270000
b1011000 #
#643280000
b1011001 #
#643290000
b1011010 #
#643300000
b1011011 #
#643310000
b1011100 #
#643320000
b1011101 #
#643330000
b1011110 #
#643340000
b1011111 #
#643350000
b1100000 #
#643360000
b1100001 #
#643370000
b1100010 #
#643380000
b1100011 #
#643390000
b1100100 #
#643400000
b1100101 #
#643410000
b1100110 #
#643420000
b1100111 #
#643430000
b1101000 #
#643440000
b1101001 #
#643450000
b1101010 #
#643460000
b1101011 #
#643470000
b1101100 #
#643480000
b1101101 #
#643490000
b1101110 #
#643500000
b1101111 #
#643510000
b1110000 #
#643520000
b1110001 #
#643530000
b1110010 #
#643540000
b1110011 #
#643550000
b1110100 #
#643560000
b1110101 #
#643570000
b1110110 #
#643580000
b1110111 #
#643590000
b1111000 #
#643600000
b1111001 #
#643610000
b1111010 #
#643620000
b1111011 #
#643630000
b1111100 #
#643640000
b1111101 #
#643650000
b1111110 #
#643660000
b1111111 #
#643670000
b10000000 #
#643680000
b10000001 #
#643690000
b10000010 #
#643700000
b10000011 #
#643710000
b10000100 #
#643720000
b10000101 #
#643730000
b10000110 #
#643740000
b10000111 #
#643750000
b10001000 #
#643760000
b10001001 #
#643770000
b10001010 #
#643780000
b10001011 #
#643790000
b10001100 #
#643800000
b10001101 #
#643810000
b10001110 #
#643820000
b10001111 #
#643830000
b10010000 #
#643840000
b10010001 #
#643850000
b10010010 #
#643860000
b10010011 #
#643870000
b10010100 #
#643880000
b10010101 #
#643890000
b10010110 #
#643900000
b10010111 #
#643910000
b10011000 #
#643920000
b10011001 #
#643930000
b10011010 #
#643940000
b10011011 #
#643950000
b10011100 #
#643960000
b10011101 #
#643970000
b10011110 #
#643980000
b10011111 #
#643990000
b10100000 #
#644000000
b100 !
#644010000
b101 !
#644040000
b110 !
#644050000
b0 #
b100 "
b1 !
#644060000
b10 !
#644070000
b11 !
#644080000
b1 #
#644090000
b10 #
#644100000
b11 #
#644110000
b100 #
#644120000
b101 #
#644130000
b110 #
#644140000
b111 #
#644150000
b1000 #
#644160000
b1001 #
#644170000
b1010 #
#644180000
b1011 #
#644190000
b1100 #
#644200000
b1101 #
#644210000
b1110 #
#644220000
b1111 #
#644230000
b10000 #
#644240000
b10001 #
#644250000
b10010 #
#644260000
b10011 #
#644270000
b10100 #
#644280000
b10101 #
#644290000
b10110 #
#644300000
b10111 #
#644310000
b11000 #
#644320000
b11001 #
#644330000
b11010 #
#644340000
b11011 #
#644350000
b11100 #
#644360000
b11101 #
#644370000
b11110 #
#644380000
b11111 #
#644390000
b100000 #
#644400000
b100001 #
#644410000
b100010 #
#644420000
b100011 #
#644430000
b100100 #
#644440000
b100101 #
#644450000
b100110 #
#644460000
b100111 #
#644470000
b101000 #
#644480000
b101001 #
#644490000
b101010 #
#644500000
b101011 #
#644510000
b101100 #
#644520000
b101101 #
#644530000
b101110 #
#644540000
b101111 #
#644550000
b110000 #
#644560000
b110001 #
#644570000
b110010 #
#644580000
b110011 #
#644590000
b110100 #
#644600000
b110101 #
#644610000
b110110 #
#644620000
b110111 #
#644630000
b111000 #
#644640000
b111001 #
#644650000
b111010 #
#644660000
b111011 #
#644670000
b111100 #
#644680000
b111101 #
#644690000
b111110 #
#644700000
b111111 #
#644710000
b1000000 #
#644720000
b1000001 #
#644730000
b1000010 #
#644740000
b1000011 #
#644750000
b1000100 #
#644760000
b1000101 #
#644770000
b1000110 #
#644780000
b1000111 #
#644790000
b1001000 #
#644800000
b1001001 #
#644810000
b1001010 #
#644820000
b1001011 #
#644830000
b1001100 #
#644840000
b1001101 #
#644850000
b1001110 #
#644860000
b1001111 #
#644870000
b1010000 #
#644880000
b1010001 #
#644890000
b1010010 #
#644900000
b1010011 #
#644910000
b1010100 #
#644920000
b1010101 #
#644930000
b1010110 #
#644940000
b1010111 #
#644950000
b1011000 #
#644960000
b1011001 #
#644970000
b1011010 #
#644980000
b1011011 #
#644990000
b1011100 #
#645000000
b1011101 #
#645010000
b1011110 #
#645020000
b1011111 #
#645030000
b1100000 #
#645040000
b1100001 #
#645050000
b1100010 #
#645060000
b1100011 #
#645070000
b1100100 #
#645080000
b1100101 #
#645090000
b1100110 #
#645100000
b1100111 #
#645110000
b1101000 #
#645120000
b1101001 #
#645130000
b1101010 #
#645140000
b1101011 #
#645150000
b1101100 #
#645160000
b1101101 #
#645170000
b1101110 #
#645180000
b1101111 #
#645190000
b1110000 #
#645200000
b1110001 #
#645210000
b1110010 #
#645220000
b1110011 #
#645230000
b1110100 #
#645240000
b1110101 #
#645250000
b1110110 #
#645260000
b1110111 #
#645270000
b100 !
#645280000
b101 !
#645310000
b110 !
#645320000
b1 !
b0 #
b101 "
#645330000
b10 !
#645340000
b11 !
#645350000
b1 #
#645360000
b10 #
#645370000
b11 #
#645380000
b100 #
#645390000
b101 #
#645400000
b110 #
#645410000
b111 #
#645420000
b1000 #
#645430000
b1001 #
#645440000
b1010 #
#645450000
b1011 #
#645460000
b1100 #
#645470000
b1101 #
#645480000
b1110 #
#645490000
b1111 #
#645500000
b10000 #
#645510000
b10001 #
#645520000
b10010 #
#645530000
b10011 #
#645540000
b10100 #
#645550000
b10101 #
#645560000
b10110 #
#645570000
b10111 #
#645580000
b11000 #
#645590000
b11001 #
#645600000
b11010 #
#645610000
b11011 #
#645620000
b11100 #
#645630000
b11101 #
#645640000
b11110 #
#645650000
b11111 #
#645660000
b100000 #
#645670000
b100001 #
#645680000
b100010 #
#645690000
b100011 #
#645700000
b100100 #
#645710000
b100101 #
#645720000
b100110 #
#645730000
b100111 #
#645740000
b101000 #
#645750000
b100 !
#645760000
b101 !
#645790000
b110 !
#645800000
b1 !
b0 #
b110 "
#645810000
b10 !
#645820000
b11 !
#645830000
b1 #
#645840000
b10 #
#645850000
b11 #
#645860000
b100 #
#645870000
b101 #
#645880000
b110 #
#645890000
b111 #
#645900000
b1000 #
#645910000
b1001 #
#645920000
b1010 #
#645930000
b1011 #
#645940000
b1100 #
#645950000
b1101 #
#645960000
b1110 #
#645970000
b1111 #
#645980000
b10000 #
#645990000
b10001 #
#646000000
b10010 #
#646010000
b10011 #
#646020000
b10100 #
#646030000
b10101 #
#646040000
b10110 #
#646050000
b10111 #
#646060000
b11000 #
#646070000
b11001 #
#646080000
b11010 #
#646090000
b11011 #
#646100000
b11100 #
#646110000
b11101 #
#646120000
b11110 #
#646130000
b11111 #
#646140000
b100000 #
#646150000
b100001 #
#646160000
b100010 #
#646170000
b100011 #
#646180000
b100100 #
#646190000
b100101 #
#646200000
b100110 #
#646210000
b100111 #
#646220000
b101000 #
#646230000
b101001 #
#646240000
b101010 #
#646250000
b101011 #
#646260000
b101100 #
#646270000
b101101 #
#646280000
b101110 #
#646290000
b101111 #
#646300000
b110000 #
#646310000
b110001 #
#646320000
b110010 #
#646330000
b110011 #
#646340000
b110100 #
#646350000
b110101 #
#646360000
b110110 #
#646370000
b110111 #
#646380000
b111000 #
#646390000
b111001 #
#646400000
b111010 #
#646410000
b111011 #
#646420000
b111100 #
#646430000
b111101 #
#646440000
b111110 #
#646450000
b111111 #
#646460000
b1000000 #
#646470000
b1000001 #
#646480000
b1000010 #
#646490000
b1000011 #
#646500000
b1000100 #
#646510000
b1000101 #
#646520000
b1000110 #
#646530000
b1000111 #
#646540000
b1001000 #
#646550000
b1001001 #
#646560000
b1001010 #
#646570000
b1001011 #
#646580000
b1001100 #
#646590000
b1001101 #
#646600000
b1001110 #
#646610000
b1001111 #
#646620000
b1010000 #
#646630000
b1010001 #
#646640000
b1010010 #
#646650000
b1010011 #
#646660000
b1010100 #
#646670000
b1010101 #
#646680000
b1010110 #
#646690000
b1010111 #
#646700000
b1011000 #
#646710000
b1011001 #
#646720000
b1011010 #
#646730000
b1011011 #
#646740000
b1011100 #
#646750000
b1011101 #
#646760000
b1011110 #
#646770000
b1011111 #
#646780000
b1100000 #
#646790000
b1100001 #
#646800000
b1100010 #
#646810000
b1100011 #
#646820000
b1100100 #
#646830000
b1100101 #
#646840000
b1100110 #
#646850000
b1100111 #
#646860000
b1101000 #
#646870000
b1101001 #
#646880000
b1101010 #
#646890000
b1101011 #
#646900000
b1101100 #
#646910000
b1101101 #
#646920000
b1101110 #
#646930000
b1101111 #
#646940000
b1110000 #
#646950000
b1110001 #
#646960000
b1110010 #
#646970000
b1110011 #
#646980000
b1110100 #
#646990000
b1110101 #
#647000000
b1110110 #
#647010000
b1110111 #
#647020000
b1111000 #
#647030000
b1111001 #
#647040000
b1111010 #
#647050000
b1111011 #
#647060000
b1111100 #
#647070000
b1111101 #
#647080000
b1111110 #
#647090000
b1111111 #
#647100000
b10000000 #
#647110000
b10000001 #
#647120000
b10000010 #
#647130000
b10000011 #
#647140000
b10000100 #
#647150000
b10000101 #
#647160000
b10000110 #
#647170000
b10000111 #
#647180000
b10001000 #
#647190000
b10001001 #
#647200000
b10001010 #
#647210000
b10001011 #
#647220000
b10001100 #
#647230000
b10001101 #
#647240000
b10001110 #
#647250000
b10001111 #
#647260000
b10010000 #
#647270000
b10010001 #
#647280000
b10010010 #
#647290000
b10010011 #
#647300000
b10010100 #
#647310000
b10010101 #
#647320000
b10010110 #
#647330000
b10010111 #
#647340000
b10011000 #
#647350000
b10011001 #
#647360000
b10011010 #
#647370000
b10011011 #
#647380000
b10011100 #
#647390000
b10011101 #
#647400000
b10011110 #
#647410000
b10011111 #
#647420000
b10100000 #
#647430000
b10100001 #
#647440000
b10100010 #
#647450000
b10100011 #
#647460000
b10100100 #
#647470000
b10100101 #
#647480000
b10100110 #
#647490000
b10100111 #
#647500000
b10101000 #
#647510000
b10101001 #
#647520000
b10101010 #
#647530000
b10101011 #
#647540000
b10101100 #
#647550000
b10101101 #
#647560000
b10101110 #
#647570000
b10101111 #
#647580000
b10110000 #
#647590000
b10110001 #
#647600000
b10110010 #
#647610000
b10110011 #
#647620000
b10110100 #
#647630000
b10110101 #
#647640000
b10110110 #
#647650000
b10110111 #
#647660000
b10111000 #
#647670000
b10111001 #
#647680000
b10111010 #
#647690000
b10111011 #
#647700000
b10111100 #
#647710000
b10111101 #
#647720000
b10111110 #
#647730000
b10111111 #
#647740000
b11000000 #
#647750000
b11000001 #
#647760000
b11000010 #
#647770000
b11000011 #
#647780000
b11000100 #
#647790000
b11000101 #
#647800000
b11000110 #
#647810000
b11000111 #
#647820000
b11001000 #
#647830000
b11001001 #
#647840000
b11001010 #
#647850000
b11001011 #
#647860000
b11001100 #
#647870000
b11001101 #
#647880000
b11001110 #
#647890000
b11001111 #
#647900000
b11010000 #
#647910000
b11010001 #
#647920000
b11010010 #
#647930000
b11010011 #
#647940000
b11010100 #
#647950000
b11010101 #
#647960000
b11010110 #
#647970000
b11010111 #
#647980000
b11011000 #
#647990000
b11011001 #
#648000000
b11011010 #
#648010000
b11011011 #
#648020000
b11011100 #
#648030000
b11011101 #
#648040000
b11011110 #
#648050000
b11011111 #
#648060000
b11100000 #
#648070000
b11100001 #
#648080000
b11100010 #
#648090000
b11100011 #
#648100000
b11100100 #
#648110000
b11100101 #
#648120000
b11100110 #
#648130000
b11100111 #
#648140000
b11101000 #
#648150000
b11101001 #
#648160000
b11101010 #
#648170000
b11101011 #
#648180000
b11101100 #
#648190000
b11101101 #
#648200000
b11101110 #
#648210000
b11101111 #
#648220000
b11110000 #
#648230000
b11110001 #
#648240000
b11110010 #
#648250000
b11110011 #
#648260000
b11110100 #
#648270000
b11110101 #
#648280000
b11110110 #
#648290000
b11110111 #
#648300000
b11111000 #
#648310000
b11111001 #
#648320000
b11111010 #
#648330000
b11111011 #
#648340000
b11111100 #
#648350000
b11111101 #
#648360000
b11111110 #
#648370000
b11111111 #
#648380000
b100000000 #
#648390000
b100000001 #
#648400000
b100000010 #
#648410000
b100000011 #
#648420000
b100000100 #
#648430000
b100000101 #
#648440000
b100000110 #
#648450000
b100000111 #
#648460000
b100001000 #
#648470000
b100001001 #
#648480000
b100001010 #
#648490000
b100001011 #
#648500000
b100001100 #
#648510000
b100001101 #
#648520000
b100001110 #
#648530000
b100001111 #
#648540000
b100010000 #
#648550000
b100010001 #
#648560000
b100010010 #
#648570000
b100010011 #
#648580000
b100010100 #
#648590000
b100010101 #
#648600000
b100010110 #
#648610000
b100010111 #
#648620000
b100011000 #
#648630000
b100011001 #
#648640000
b100011010 #
#648650000
b100011011 #
#648660000
b100011100 #
#648670000
b100011101 #
#648680000
b100011110 #
#648690000
b100011111 #
#648700000
b100100000 #
#648710000
b100100001 #
#648720000
b100100010 #
#648730000
b100100011 #
#648740000
b100100100 #
#648750000
b100100101 #
#648760000
b100100110 #
#648770000
b100100111 #
#648780000
b100101000 #
#648790000
b100101001 #
#648800000
b100101010 #
#648810000
b100101011 #
#648820000
b100101100 #
#648830000
b100101101 #
#648840000
b100101110 #
#648850000
b100101111 #
#648860000
b100 !
#648870000
b101 !
#649020000
b110 !
#649030000
b0 #
b111 "
b1 !
#649040000
b10 !
#649050000
b11 !
#649060000
b1 #
#649070000
b10 #
#649080000
b11 #
#649090000
b100 #
#649100000
b101 #
#649110000
b110 #
#649120000
b111 #
#649130000
b1000 #
#649140000
b1001 #
#649150000
b1010 #
#649160000
b1011 #
#649170000
b1100 #
#649180000
b1101 #
#649190000
b1110 #
#649200000
b1111 #
#649210000
b10000 #
#649220000
b10001 #
#649230000
b10010 #
#649240000
b10011 #
#649250000
b10100 #
#649260000
b10101 #
#649270000
b10110 #
#649280000
b10111 #
#649290000
b11000 #
#649300000
b11001 #
#649310000
b11010 #
#649320000
b11011 #
#649330000
b11100 #
#649340000
b11101 #
