test/pe_sim/sim_build/pe_dump.vcd
$date
	Thu Jun 25 17:25:26 2026
$end
$version
	Icarus Verilog
$end
$timescale
	1ps
$end
$scope module tb_pe_top $end
$scope module u_pe $end
$var reg 3 ! state [2:0] $end
$upscope $end
$upscope $end
$scope module tb_pe_top $end
$scope module u_pe $end
$var reg 8 " row_idx [7:0] $end
$upscope $end
$upscope $end
$scope module tb_pe_top $end
$scope module u_pe $end
$var reg 3 # gen_state [2:0] $end
$upscope $end
$upscope $end
$scope module tb_pe_top $end
$scope module u_pe $end
$var reg 1 $ done $end
$upscope $end
$upscope $end
$enddefinitions $end
$comment Show the parameter values. $end
$dumpall
$end
#0
$dumpvars
0$
b0 #
b0 "
b0 !
$end
#295390000
b1 !
#295400000
b10 !
#295410000
b11 !
b1 #
#295420000
b10 #
#297180000
b100 #
#297190000
b11 #
#297200000
b100 !
#297210000
b101 !
b0 #
#297230000
b110 !
#297240000
b1 !
b1 "
#297250000
b10 !
#297260000
b1 #
b11 !
#297270000
b10 #
#299470000
b100 #
#299480000
b11 #
#299490000
b100 !
#299500000
b0 #
b101 !
#299540000
b110 !
#299550000
b10 "
b1 !
#299560000
b10 !
#299570000
b11 !
b1 #
#299580000
b10 #
#301680000
b100 #
#301690000
b11 #
#301700000
b100 !
#301710000
b101 !
b0 #
#301750000
b110 !
#301760000
b1 !
b11 "
#301770000
b10 !
#301780000
b1 #
b11 !
#301790000
b10 #
#303470000
b11 #
#303480000
b100 !
#303490000
b101 !
b0 #
#303530000
b110 !
#303540000
b1 !
b100 "
#303550000
b10 !
#303560000
b1 #
b11 !
#303570000
b10 #
#304850000
b100 #
#304860000
b11 #
#304870000
b100 !
#304880000
b0 #
b101 !
#304920000
b110 !
#304930000
b101 "
b1 !
#304940000
b10 !
#304950000
b11 !
b1 #
#304960000
b10 #
#305390000
b100 #
#305400000
b11 #
#305410000
b100 !
#305420000
b0 #
b101 !
#305460000
b110 !
#305470000
b110 "
b1 !
#305480000
b10 !
#305490000
b11 !
b1 #
#305500000
b10 #
#308730000
b100 #
#308740000
b11 #
#308750000
b100 !
#308760000
b0 #
b101 !
#308800000
b110 !
#308810000
b111 "
b1 !
#308820000
b10 !
#308830000
b11 !
b1 #
#308840000
b10 #
#310980000
b100 #
#310990000
b11 #
#311000000
b100 !
#311010000
b101 !
b0 #
#311050000
b110 !
#311060000
b1 !
b1000 "
#311070000
b10 !
#311080000
b1 #
b11 !
#311090000
b10 #
#311640000
b100 #
#311650000
b11 #
#311660000
b100 !
#311670000
b101 !
b0 #
#311710000
b110 !
#311720000
b1 !
b1001 "
#311730000
b10 !
#311740000
b1 #
b11 !
#311750000
b10 #
#313880000
b11 #
#313890000
b100 !
#313900000
b0 #
b101 !
#313940000
b110 !
#313950000
b1010 "
b1 !
#313960000
b10 !
#313970000
b11 !
b1 #
#313980000
b10 #
#314060000
b100 #
#314070000
b11 #
#314080000
b100 !
#314090000
b101 !
b0 #
#314450000
b110 !
#314460000
b1 !
b1011 "
#314470000
b10 !
#314480000
b1 #
b11 !
#314490000
b10 #
#316040000
b100 #
#316050000
b11 #
#316060000
b100 !
#316070000
b101 !
b0 #
#316110000
b110 !
#316120000
b1 !
b1100 "
#316130000
b10 !
#316140000
b1 #
b11 !
#316150000
b10 #
#319710000
b100 #
#319720000
b11 #
#319730000
b100 !
#319740000
b0 #
b101 !
#319780000
b110 !
#319790000
b1101 "
b1 !
#319800000
b10 !
#319810000
b11 !
b1 #
#319820000
b10 #
#321080000
b100 #
#321090000
b11 #
#321100000
b100 !
#321110000
b101 !
b0 #
#321150000
b110 !
#321160000
b1 !
b1110 "
#321170000
b10 !
#321180000
b1 #
b11 !
#321190000
b10 #
#321670000
b100 #
#321680000
b11 #
#321690000
b100 !
#321700000
b0 #
b101 !
#321750000
b110 !
#321760000
b1 !
b1111 "
#321770000
b10 !
#321780000
b1 #
b11 !
#321790000
b10 #
#322460000
b100 #
#322470000
b11 #
#322480000
b100 !
#322490000
b101 !
b0 #
#322530000
b110 !
#322540000
b1 !
b10000 "
#322550000
b10 !
#322560000
b1 #
b11 !
#322570000
b10 #
#325330000
b100 #
#325340000
b11 #
#325350000
b100 !
#325360000
b0 #
b101 !
#325400000
b110 !
#325410000
b10001 "
b1 !
#325420000
b10 !
#325430000
b11 !
b1 #
#325440000
b10 #
#328810000
b100 #
#328820000
b11 #
#328830000
b100 !
#328840000
b0 #
b101 !
#328880000
b110 !
#328890000
b10010 "
b1 !
#328900000
b10 !
#328910000
b11 !
b1 #
#328920000
b10 #
#330660000
b100 #
#330670000
b11 #
#330680000
b100 !
#330690000
b101 !
b0 #
#330730000
b110 !
#330740000
b1 !
b10011 "
#330750000
b10 !
#330760000
b1 #
b11 !
#330770000
b10 #
#332210000
b100 #
#332220000
b11 #
#332230000
b100 !
#332240000
b0 #
b101 !
#332280000
b110 !
#332290000
b10100 "
b1 !
#332300000
b10 !
#332310000
b11 !
b1 #
#332320000
b10 #
#332640000
b100 #
#332650000
b11 #
#332660000
b100 !
#332670000
b101 !
b0 #
#332890000
b110 !
#332900000
b1 !
b10101 "
#332910000
b10 !
#332920000
b1 #
b11 !
#332930000
b10 #
#333800000
b100 #
#333810000
b11 #
#333820000
b100 !
#333830000
b101 !
b0 #
#333870000
b110 !
#333880000
b1 !
b10110 "
#333890000
b10 !
#333900000
b1 #
b11 !
#333910000
b10 #
#337480000
b100 #
#337490000
b11 #
#337500000
b100 !
#337510000
b101 !
b0 #
#337550000
b110 !
#337560000
b1 !
b10111 "
#337570000
b10 !
#337580000
b1 #
b11 !
#337590000
b10 #
#340810000
b11 #
#340820000
b100 !
#340830000
b101 !
b0 #
#340870000
b110 !
#340880000
b1 !
b11000 "
#340890000
b10 !
#340900000
b1 #
b11 !
#340910000
b10 #
#343540000
b100 #
#343550000
b11 #
#343560000
b100 !
#343570000
b101 !
b0 #
#343620000
b110 !
#343630000
b11001 "
b1 !
#343640000
b10 !
#343650000
b11 !
b1 #
#343660000
b10 #
#344470000
b100 #
#344480000
b11 #
#344490000
b100 !
#344500000
b0 #
b101 !
#344540000
b110 !
#344550000
b11010 "
b1 !
#344560000
b10 !
#344570000
b11 !
b1 #
#344580000
b10 #
#344780000
b11 #
#344790000
b100 !
#344800000
b0 #
b101 !
#344970000
b110 !
#344980000
b1 !
b11011 "
#344990000
b10 !
#345000000
b1 #
b11 !
#345010000
b10 #
#347040000
b100 #
#347050000
b11 #
#347060000
b100 !
#347070000
b101 !
b0 #
#347110000
b110 !
#347120000
b1 !
b11100 "
#347130000
b10 !
#347140000
b1 #
b11 !
#347150000
b10 #
#349940000
b100 #
#349950000
b11 #
#349960000
b100 !
#349970000
b101 !
b0 #
#350010000
b110 !
#350020000
b1 !
b11101 "
#350030000
b10 !
#350040000
b1 #
b11 !
#350050000
b10 #
#350760000
b100 #
#350770000
b11 #
#350780000
b100 !
#350790000
b101 !
b0 #
#350830000
b110 !
#350840000
b1 !
b11110 "
#350850000
b10 !
#350860000
b1 #
b11 !
#350870000
b10 #
#351200000
b100 #
#351210000
b11 #
#351220000
b100 !
#351230000
b101 !
b0 #
#351300000
b110 !
#351310000
b11111 "
b1 !
#351320000
b10 !
#351330000
b11 !
b1 #
#351340000
b10 #
#355160000
b100 #
#355170000
b11 #
#355180000
b100 !
#355190000
b101 !
b0 #
#355230000
b110 !
#355240000
b1 !
b100000 "
#355250000
b10 !
#355260000
b1 #
b11 !
#355270000
b10 #
#357490000
b100 #
#357500000
b11 #
#357510000
b100 !
#357520000
b0 #
b101 !
#357560000
b110 !
#357570000
b100001 "
b1 !
#357580000
b10 !
#357590000
b11 !
b1 #
#357600000
b10 #
#359320000
b100 #
#359330000
b11 #
#359340000
b100 !
#359350000
b101 !
b0 #
#359390000
b110 !
#359400000
b1 !
b100010 "
#359410000
b10 !
#359420000
b1 #
b11 !
#359430000
b10 #
#362560000
b100 #
#362570000
b11 #
#362580000
b100 !
#362590000
b101 !
b0 #
#362630000
b110 !
#362640000
b1 !
b100011 "
#362650000
b10 !
#362660000
b1 #
b11 !
#362670000
b10 #
#365750000
b11 #
#365760000
b100 !
#365770000
b101 !
b0 #
#365810000
b110 !
#365820000
b1 !
b100100 "
#365830000
b10 !
#365840000
b1 #
b11 !
#365850000
b10 #
#368280000
b11 #
#368290000
b100 !
#368300000
b0 #
b101 !
#368340000
b110 !
#368350000
b100101 "
b1 !
#368360000
b10 !
#368370000
b11 !
b1 #
#368380000
b10 #
#370360000
b100 #
#370370000
b11 #
#370380000
b100 !
#370390000
b101 !
b0 #
#370430000
b110 !
#370440000
b1 !
b100110 "
#370450000
b10 !
#370460000
b1 #
b11 !
#370470000
b10 #
#370600000
b11 #
#370610000
b100 !
#370620000
b0 #
b101 !
#370920000
b110 !
#370930000
b100111 "
b1 !
#370940000
b10 !
#370950000
b11 !
b1 #
#370960000
b10 #
#373890000
b100 #
#373900000
b11 #
#373910000
b100 !
#373920000
b0 #
b101 !
#373960000
b110 !
#373970000
b101000 "
b1 !
#373980000
b10 !
#373990000
b11 !
b1 #
#374000000
b10 #
#376030000
b100 #
#376040000
b11 #
#376050000
b100 !
#376060000
b0 #
b101 !
#376100000
b110 !
#376110000
b101001 "
b1 !
#376120000
b10 !
#376130000
b11 !
b1 #
#376140000
b10 #
#377100000
b100 #
#377110000
b11 #
#377120000
b100 !
#377130000
b101 !
b0 #
#377170000
b110 !
#377180000
b1 !
b101010 "
#377190000
b10 !
#377200000
b1 #
b11 !
#377210000
b10 #
#379660000
b100 #
#379670000
b11 #
#379680000
b100 !
#379690000
b101 !
b0 #
#379730000
b110 !
#379740000
b1 !
b101011 "
#379750000
b10 !
#379760000
b1 #
b11 !
#379770000
b10 #
#380560000
b11 #
#380570000
b100 !
#380580000
b0 #
b101 !
#380620000
b110 !
#380630000
b101100 "
b1 !
#380640000
b10 !
#380650000
b11 !
b1 #
#380660000
b10 #
#383510000
b100 #
#383520000
b11 #
#383530000
b100 !
#383540000
b0 #
b101 !
#383580000
b110 !
#383590000
b101101 "
b1 !
#383600000
b10 !
#383610000
b11 !
b1 #
#383620000
b10 #
#384060000
b100 #
#384070000
b11 #
#384080000
b100 !
#384090000
b101 !
b0 #
#384130000
b110 !
#384140000
b1 !
b101110 "
#384150000
b10 !
#384160000
b1 #
b11 !
#384170000
b10 #
#387020000
b11 #
#387030000
b100 !
#387040000
b0 #
b101 !
#387080000
b110 !
#387090000
b101111 "
b1 !
#387100000
b10 !
#387110000
b11 !
b1 #
#387120000
b10 #
#387270000
b100 #
#387280000
b11 #
#387290000
b100 !
#387300000
b0 #
b101 !
#387600000
b110 !
#387610000
b110000 "
b1 !
#387620000
b10 !
#387630000
b11 !
b1 #
#387640000
b10 #
#389850000
b100 #
#389860000
b11 #
#389870000
b100 !
#389880000
b0 #
b101 !
#389920000
b110 !
#389930000
b110001 "
b1 !
#389940000
b10 !
#389950000
b11 !
b1 #
#389960000
b10 #
#390990000
b11 #
#391000000
b100 !
#391010000
b101 !
b0 #
#391050000
b110 !
#391060000
b1 !
b110010 "
#391070000
b10 !
#391080000
b1 #
b11 !
#391090000
b10 #
#391680000
b100 #
#391690000
b11 #
#391700000
b100 !
#391710000
b101 !
b0 #
#391750000
b110 !
#391760000
b1 !
b110011 "
#391770000
b10 !
#391780000
b1 #
b11 !
#391790000
b10 #
#393270000
b100 #
#393280000
b11 #
#393290000
b100 !
#393300000
b0 #
b101 !
#393340000
b110 !
#393350000
b110100 "
b1 !
#393360000
b10 !
#393370000
b11 !
b1 #
#393380000
b10 #
#396680000
b100 #
#396690000
b11 #
#396700000
b100 !
#396710000
b101 !
b0 #
#396750000
b110 !
#396760000
b1 !
b110101 "
#396770000
b10 !
#396780000
b1 #
b11 !
#396790000
b10 #
#399780000
b100 #
#399790000
b11 #
#399800000
b100 !
#399810000
b101 !
b0 #
#399850000
b110 !
#399860000
b1 !
b110110 "
#399870000
b10 !
#399880000
b1 #
b11 !
#399890000
b10 #
#401940000
b11 #
#401950000
b100 !
#401960000
b0 #
b101 !
#402000000
b110 !
#402010000
b110111 "
b1 !
#402020000
b10 !
#402030000
b11 !
b1 #
#402040000
b10 #
#403050000
b11 #
#403060000
b100 !
#403070000
b101 !
b0 #
#403110000
b110 !
#403120000
b1 !
b111000 "
#403130000
b10 !
#403140000
b1 #
b11 !
#403150000
b10 #
#403450000
b100 #
#403460000
b11 #
#403470000
b100 !
#403480000
b0 #
b101 !
#403540000
b110 !
#403550000
b111001 "
b1 !
#403560000
b10 !
#403570000
b11 !
b1 #
#403580000
b10 #
#404640000
b11 #
#404650000
b100 !
#404660000
b0 #
b101 !
#404700000
b110 !
#404710000
b111010 "
b1 !
#404720000
b10 !
#404730000
b11 !
b1 #
#404740000
b10 #
#408110000
b11 #
#408120000
b100 !
#408130000
b101 !
b0 #
#408170000
b110 !
#408180000
b1 !
b111011 "
#408190000
b10 !
#408200000
b1 #
b11 !
#408210000
b10 #
#410320000
b100 #
#410330000
b11 #
#410340000
b100 !
#410350000
b101 !
b0 #
#410390000
b110 !
#410400000
b1 !
b111100 "
#410410000
b10 !
#410420000
b1 #
b11 !
#410430000
b10 #
#413090000
b100 #
#413100000
b11 #
#413110000
b100 !
#413120000
b0 #
b101 !
#413160000
b110 !
#413170000
b111101 "
b1 !
#413180000
b10 !
#413190000
b11 !
b1 #
#413200000
b10 #
#415550000
b100 #
#415560000
b11 #
#415570000
b100 !
#415580000
b0 #
b101 !
#415690000
b110 !
#415700000
b1 !
b111110 "
#415710000
b10 !
#415720000
b1 #
b11 !
#415730000
b10 #
#416660000
b11 #
#416670000
b100 !
#416680000
b0 #
b101 !
#416720000
b110 !
#416730000
b111111 "
b1 !
#416740000
b10 !
#416750000
b11 !
b1 #
#416760000
b10 #
#420340000
b100 #
#420350000
b11 #
#420360000
b100 !
#420370000
b101 !
b0 #
#420410000
b110 !
#420420000
b1 !
b1000000 "
#420430000
b10 !
#420440000
b1 #
b11 !
#420450000
b10 #
#420870000
b100 #
#420880000
b11 #
#420890000
b100 !
#420900000
b0 #
b101 !
#421030000
b110 !
#421040000
b1 !
b1000001 "
#421050000
b10 !
#421060000
b1 #
b11 !
#421070000
b10 #
#421970000
b100 #
#421980000
b11 #
#421990000
b100 !
#422000000
b0 #
b101 !
#422040000
b110 !
#422050000
b1000010 "
b1 !
#422060000
b10 !
#422070000
b11 !
b1 #
#422080000
b10 #
#423770000
b100 #
#423780000
b11 #
#423790000
b100 !
#423800000
b0 #
b101 !
#423840000
b110 !
#423850000
b1000011 "
b1 !
#423860000
b10 !
#423870000
b11 !
b1 #
#423880000
b10 #
#426840000
b100 #
#426850000
b11 #
#426860000
b100 !
#426870000
b101 !
b0 #
#426910000
b110 !
#426920000
b1 !
b1000100 "
#426930000
b10 !
#426940000
b1 #
b11 !
#426950000
b10 #
#427420000
b100 #
#427430000
b11 #
#427440000
b100 !
#427450000
b101 !
b0 #
#427490000
b110 !
#427500000
b1 !
b1000101 "
#427510000
b10 !
#427520000
b1 #
b11 !
#427530000
b10 #
#428130000
b11 #
#428140000
b100 !
#428150000
b101 !
b0 #
#428190000
b110 !
#428200000
b1 !
b1000110 "
#428210000
b10 !
#428220000
b1 #
b11 !
#428230000
b10 #
#431490000
b100 #
#431500000
b11 #
#431510000
b100 !
#431520000
b0 #
b101 !
#431560000
b110 !
#431570000
b1000111 "
b1 !
#431580000
b10 !
#431590000
b11 !
b1 #
#431600000
b10 #
#433900000
b100 #
#433910000
b11 #
#433920000
b100 !
#433930000
b101 !
b0 #
#433970000
b110 !
#433980000
b1 !
b1001000 "
#433990000
b10 !
#434000000
b1 #
b11 !
#434010000
b10 #
#435390000
b100 #
#435400000
b11 #
#435410000
b100 !
#435420000
b0 #
b101 !
#435460000
b110 !
#435470000
b1001001 "
b1 !
#435480000
b10 !
#435490000
b11 !
b1 #
#435500000
b10 #
#437530000
b11 #
#437540000
b100 !
#437550000
b101 !
b0 #
#437590000
b110 !
#437600000
b1 !
b1001010 "
#437610000
b10 !
#437620000
b1 #
b11 !
#437630000
b10 #
#437990000
b100 #
#438000000
b11 #
#438010000
b100 !
#438020000
b0 #
b101 !
#438060000
b110 !
#438070000
b1001011 "
b1 !
#438080000
b10 !
#438090000
b11 !
b1 #
#438100000
b10 #
#439470000
b100 #
#439480000
b11 #
#439490000
b100 !
#439500000
b0 #
b101 !
#439540000
b110 !
#439550000
b1001100 "
b1 !
#439560000
b10 !
#439570000
b11 !
b1 #
#439580000
b10 #
#441740000
b100 #
#441750000
b11 #
#441760000
b100 !
#441770000
b101 !
b0 #
#441810000
b110 !
#441820000
b1 !
b1001101 "
#441830000
b10 !
#441840000
b1 #
b11 !
#441850000
b10 #
#443470000
b11 #
#443480000
b100 !
#443490000
b101 !
b0 #
#443530000
b110 !
#443540000
b1 !
b1001110 "
#443550000
b10 !
#443560000
b1 #
b11 !
#443570000
b10 #
#443930000
b11 #
#443940000
b100 !
#443950000
b101 !
b0 #
#444000000
b110 !
#444010000
b1001111 "
b1 !
#444020000
b10 !
#444030000
b11 !
b1 #
#444040000
b10 #
#444660000
b11 #
#444670000
b100 !
#444680000
b0 #
b101 !
#444720000
b110 !
#444730000
b1010000 "
b1 !
#444740000
b10 !
#444750000
b11 !
b1 #
#444760000
b10 #
#445780000
b100 #
#445790000
b11 #
#445800000
b100 !
#445810000
b101 !
b0 #
#445850000
b110 !
#445860000
b1 !
b1010001 "
#445870000
b10 !
#445880000
b1 #
b11 !
#445890000
b10 #
#448040000
b100 #
#448050000
b11 #
#448060000
b100 !
#448070000
b101 !
b0 #
#448110000
b110 !
#448120000
b1 !
b1010010 "
#448130000
b10 !
#448140000
b1 #
b11 !
#448150000
b10 #
#451410000
b100 #
#451420000
b11 #
#451430000
b100 !
#451440000
b0 #
b101 !
#451480000
b110 !
#451490000
b1010011 "
b1 !
#451500000
b10 !
#451510000
b11 !
b1 #
#451520000
b10 #
#453630000
b100 #
#453640000
b11 #
#453650000
b100 !
#453660000
b0 #
b101 !
#453700000
b110 !
#453710000
b1010100 "
b1 !
#453720000
b10 !
#453730000
b11 !
b1 #
#453740000
b10 #
#457300000
b11 #
#457310000
b100 !
#457320000
b0 #
b101 !
#457360000
b110 !
#457370000
b1010101 "
b1 !
#457380000
b10 !
#457390000
b11 !
b1 #
#457400000
b10 #
#460480000
b11 #
#460490000
b100 !
#460500000
b0 #
b101 !
#460540000
b110 !
#460550000
b1010110 "
b1 !
#460560000
b10 !
#460570000
b11 !
b1 #
#460580000
b10 #
#463900000
b100 #
#463910000
b11 #
#463920000
b100 !
#463930000
b101 !
b0 #
#463970000
b110 !
#463980000
b1 !
b1010111 "
#463990000
b10 !
#464000000
b1 #
b11 !
#464010000
b10 #
#467250000
b100 #
#467260000
b11 #
#467270000
b100 !
#467280000
b0 #
b101 !
#467320000
b110 !
#467330000
b1011000 "
b1 !
#467340000
b10 !
#467350000
b11 !
b1 #
#467360000
b10 #
#470150000
b100 #
#470160000
b11 #
#470170000
b100 !
#470180000
b0 #
b101 !
#470220000
b110 !
#470230000
b1011001 "
b1 !
#470240000
b10 !
#470250000
b11 !
b1 #
#470260000
b10 #
#472270000
b100 #
#472280000
b11 #
#472290000
b100 !
#472300000
b0 #
b101 !
#472340000
b110 !
#472350000
b1011010 "
b1 !
#472360000
b10 !
#472370000
b11 !
b1 #
#472380000
b10 #
#473440000
b11 #
#473450000
b100 !
#473460000
b0 #
b101 !
#473500000
b110 !
#473510000
b1011011 "
b1 !
#473520000
b10 !
#473530000
b11 !
b1 #
#473540000
b10 #
#477440000
b100 #
#477450000
b11 #
#477460000
b100 !
#477470000
b101 !
b0 #
#477510000
b110 !
#477520000
b1 !
b1011100 "
#477530000
b10 !
#477540000
b1 #
b11 !
#477550000
b10 #
#479010000
b100 #
#479020000
b11 #
#479030000
b100 !
#479040000
b0 #
b101 !
#479080000
b110 !
#479090000
b1011101 "
b1 !
#479100000
b10 !
#479110000
b11 !
b1 #
#479120000
b10 #
#481180000
b100 #
#481190000
b11 #
#481200000
b100 !
#481210000
b101 !
b0 #
#481250000
b110 !
#481260000
b1 !
b1011110 "
#481270000
b10 !
#481280000
b1 #
b11 !
#481290000
b10 #
#481750000
b11 #
#481760000
b100 !
#481770000
b101 !
b0 #
#481810000
b110 !
#481820000
b1 !
b1011111 "
#481830000
b10 !
#481840000
b1 #
b11 !
#481850000
b10 #
#482370000
b100 #
#482380000
b11 #
#482390000
b100 !
#482400000
b0 #
b101 !
#482440000
b110 !
#482450000
b1100000 "
b1 !
#482460000
b10 !
#482470000
b11 !
b1 #
#482480000
b10 #
#483780000
b11 #
#483790000
b100 !
#483800000
b0 #
b101 !
#483840000
b110 !
#483850000
b1100001 "
b1 !
#483860000
b10 !
#483870000
b11 !
b1 #
#483880000
b10 #
#487410000
b11 #
#487420000
b100 !
#487430000
b101 !
b0 #
#487470000
b110 !
#487480000
b1 !
b1100010 "
#487490000
b10 !
#487500000
b1 #
b11 !
#487510000
b10 #
#491030000
b100 #
#491040000
b11 #
#491050000
b100 !
#491060000
b0 #
b101 !
#491100000
b110 !
#491110000
b1100011 "
b1 !
#491120000
b10 !
#491130000
b11 !
b1 #
#491140000
b10 #
#491620000
b100 #
#491630000
b11 #
#491640000
b100 !
#491650000
b101 !
b0 #
#491690000
b110 !
#491700000
b1 !
b1100100 "
#491710000
b10 !
#491720000
b1 #
b11 !
#491730000
b10 #
#492990000
b100 #
#493000000
b11 #
#493010000
b100 !
#493020000
b0 #
b101 !
#493060000
b110 !
#493070000
b1100101 "
b1 !
#493080000
b10 !
#493090000
b11 !
b1 #
#493100000
b10 #
#494750000
b100 #
#494760000
b11 #
#494770000
b100 !
#494780000
b0 #
b101 !
#494820000
b110 !
#494830000
b1100110 "
b1 !
#494840000
b10 !
#494850000
b11 !
b1 #
#494860000
b10 #
#496510000
b100 #
#496520000
b11 #
#496530000
b100 !
#496540000
b0 #
b101 !
#496580000
b110 !
#496590000
b1100111 "
b1 !
#496600000
b10 !
#496610000
b11 !
b1 #
#496620000
b10 #
#500440000
b100 #
#500450000
b11 #
#500460000
b100 !
#500470000
b101 !
b0 #
#500520000
b110 !
#500530000
b1101000 "
b1 !
#500540000
b10 !
#500550000
b11 !
b1 #
#500560000
b10 #
#501340000
b100 #
#501350000
b11 #
#501360000
b100 !
#501370000
b101 !
b0 #
#501410000
b110 !
#501420000
b1 !
b1101001 "
#501430000
b10 !
#501440000
b1 #
b11 !
#501450000
b10 #
#501720000
b100 #
#501730000
b11 #
#501740000
b100 !
#501750000
b101 !
b0 #
#501850000
b110 !
#501860000
b1 !
b1101010 "
#501870000
b10 !
#501880000
b1 #
b11 !
#501890000
b10 #
#505570000
b100 #
#505580000
b11 #
#505590000
b100 !
#505600000
b0 #
b101 !
#505640000
b110 !
#505650000
b1101011 "
b1 !
#505660000
b10 !
#505670000
b11 !
b1 #
#505680000
b10 #
#507080000
b100 #
#507090000
b11 #
#507100000
b100 !
#507110000
b101 !
b0 #
#507150000
b110 !
#507160000
b1 !
b1101100 "
#507170000
b10 !
#507180000
b1 #
b11 !
#507190000
b10 #
#508900000
b100 #
#508910000
b11 #
#508920000
b100 !
#508930000
b101 !
b0 #
#508970000
b110 !
#508980000
b1 !
b1101101 "
#508990000
b10 !
#509000000
b1 #
b11 !
#509010000
b10 #
#511070000
b100 #
#511080000
b11 #
#511090000
b100 !
#511100000
b0 #
b101 !
#511140000
b110 !
#511150000
b1101110 "
b1 !
#511160000
b10 !
#511170000
b11 !
b1 #
#511180000
b10 #
#512930000
b100 #
#512940000
b11 #
#512950000
b100 !
#512960000
b0 #
b101 !
#513000000
b110 !
#513010000
b1101111 "
b1 !
#513020000
b10 !
#513030000
b11 !
b1 #
#513040000
b10 #
#513710000
b100 #
#513720000
b11 #
#513730000
b100 !
#513740000
b0 #
b101 !
#513780000
b110 !
#513790000
b1110000 "
b1 !
#513800000
b10 !
#513810000
b11 !
b1 #
#513820000
b10 #
#514690000
b100 #
#514700000
b11 #
#514710000
b100 !
#514720000
b0 #
b101 !
#514760000
b110 !
#514770000
b1110001 "
b1 !
#514780000
b10 !
#514790000
b11 !
b1 #
#514800000
b10 #
#515190000
b100 #
#515200000
b11 #
#515210000
b100 !
#515220000
b0 #
b101 !
#515260000
b110 !
#515270000
b1110010 "
b1 !
#515280000
b10 !
#515290000
b11 !
b1 #
#515300000
b10 #
#515960000
b100 #
#515970000
b11 #
#515980000
b100 !
#515990000
b101 !
b0 #
#516030000
b110 !
#516040000
b1 !
b1110011 "
#516050000
b10 !
#516060000
b1 #
b11 !
#516070000
b10 #
#519570000
b11 #
#519580000
b100 !
#519590000
b101 !
b0 #
#519630000
b110 !
#519640000
b1 !
b1110100 "
#519650000
b10 !
#519660000
b1 #
b11 !
#519670000
b10 #
#520150000
b100 #
#520160000
b11 #
#520170000
b100 !
#520180000
b0 #
b101 !
#520220000
b110 !
#520230000
b1110101 "
b1 !
#520240000
b10 !
#520250000
b11 !
b1 #
#520260000
b10 #
#521870000
b100 #
#521880000
b11 #
#521890000
b100 !
#521900000
b0 #
b101 !
#521940000
b110 !
#521950000
b1110110 "
b1 !
#521960000
b10 !
#521970000
b11 !
b1 #
#521980000
b10 #
#522950000
b100 #
#522960000
b11 #
#522970000
b100 !
#522980000
b0 #
b101 !
#523020000
b110 !
#523030000
b1110111 "
b1 !
#523040000
b10 !
#523050000
b11 !
b1 #
#523060000
b10 #
#526410000
b100 #
#526420000
b11 #
#526430000
b100 !
#526440000
b0 #
b101 !
#526480000
b110 !
#526490000
b1111000 "
b1 !
#526500000
b10 !
#526510000
b11 !
b1 #
#526520000
b10 #
#528750000
b11 #
#528760000
b100 !
#528770000
b101 !
b0 #
#528810000
b110 !
#528820000
b1 !
b1111001 "
#528830000
b10 !
#528840000
b1 #
b11 !
#528850000
b10 #
#531140000
b11 #
#531150000
b100 !
#531160000
b0 #
b101 !
#531200000
b110 !
#531210000
b1111010 "
b1 !
#531220000
b10 !
#531230000
b11 !
b1 #
#531240000
b10 #
#533290000
b11 #
#533300000
b100 !
#533310000
b101 !
b0 #
#533350000
b110 !
#533360000
b1 !
b1111011 "
#533370000
b10 !
#533380000
b1 #
b11 !
#533390000
b10 #
#536050000
b100 #
#536060000
b11 #
#536070000
b100 !
#536080000
b0 #
b101 !
#536120000
b110 !
#536130000
b1111100 "
b1 !
#536140000
b10 !
#536150000
b11 !
b1 #
#536160000
b10 #
#538120000
b100 #
#538130000
b11 #
#538140000
b100 !
#538150000
b101 !
b0 #
#538190000
b110 !
#538200000
b1 !
b1111101 "
#538210000
b10 !
#538220000
b1 #
b11 !
#538230000
b10 #
#540630000
b100 #
#540640000
b11 #
#540650000
b100 !
#540660000
b0 #
b101 !
#540700000
b110 !
#540710000
b1111110 "
b1 !
#540720000
b10 !
#540730000
b11 !
b1 #
#540740000
b10 #
#542960000
b11 #
#542970000
b100 !
#542980000
b0 #
b101 !
#543020000
b110 !
#543030000
b1111111 "
b1 !
#543040000
b10 !
#543050000
b11 !
b1 #
#543060000
b10 #
#545220000
b11 #
#545230000
b100 !
#545240000
b0 #
b101 !
#545280000
b110 !
#545290000
b10000000 "
b1 !
#545300000
b10 !
#545310000
b11 !
b1 #
#545320000
b10 #
#546700000
b100 #
#546710000
b11 #
#546720000
b100 !
#546730000
b101 !
b0 #
#546770000
b110 !
#546780000
b1 !
b10000001 "
#546790000
b10 !
#546800000
b1 #
b11 !
#546810000
b10 #
#547130000
b100 #
#547140000
b11 #
#547150000
b100 !
#547160000
b0 #
b101 !
#547430000
b110 !
#547440000
b1 !
b10000010 "
#547450000
b10 !
#547460000
b1 #
b11 !
#547470000
b10 #
#548590000
b100 #
#548600000
b11 #
#548610000
b100 !
#548620000
b0 #
b101 !
#548660000
b110 !
#548670000
b10000011 "
b1 !
#548680000
b10 !
#548690000
b11 !
b1 #
#548700000
b10 #
#549060000
b100 #
#549070000
b11 #
#549080000
b100 !
#549090000
b101 !
b0 #
#549170000
b110 !
#549180000
b1 !
b10000100 "
#549190000
b10 !
#549200000
b1 #
b11 !
#549210000
b10 #
#550970000
b11 #
#550980000
b100 !
#550990000
b101 !
b0 #
#551030000
b110 !
#551040000
b1 !
b10000101 "
#551050000
b10 !
#551060000
b1 #
b11 !
#551070000
b10 #
#553980000
b11 #
#553990000
b100 !
#554000000
b0 #
b101 !
#554040000
b110 !
#554050000
b10000110 "
b1 !
#554060000
b10 !
#554070000
b11 !
b1 #
#554080000
b10 #
#556120000
b11 #
#556130000
b100 !
#556140000
b0 #
b101 !
#556180000
b110 !
#556190000
b10000111 "
b1 !
#556200000
b10 !
#556210000
b11 !
b1 #
#556220000
b10 #
#558730000
b100 #
#558740000
b11 #
#558750000
b100 !
#558760000
b0 #
b101 !
#558800000
b110 !
#558810000
b10001000 "
b1 !
#558820000
b10 !
#558830000
b11 !
b1 #
#558840000
b10 #
#559850000
b100 #
#559860000
b11 #
#559870000
b100 !
#559880000
b0 #
b101 !
#559920000
b110 !
#559930000
b10001001 "
b1 !
#559940000
b10 !
#559950000
b11 !
b1 #
#559960000
b10 #
#560240000
b100 #
#560250000
b11 #
#560260000
b100 !
#560270000
b101 !
b0 #
#560310000
b110 !
#560320000
b1 !
b10001010 "
#560330000
b10 !
#560340000
b1 #
b11 !
#560350000
b10 #
#563710000
b11 #
#563720000
b100 !
#563730000
b101 !
b0 #
#563770000
b110 !
#563780000
b1 !
b10001011 "
#563790000
b10 !
#563800000
b1 #
b11 !
#563810000
b10 #
#567360000
b100 #
#567370000
b11 #
#567380000
b100 !
#567390000
b101 !
b0 #
#567430000
b110 !
#567440000
b1 !
b10001100 "
#567450000
b10 !
#567460000
b1 #
b11 !
#567470000
b10 #
#570920000
b100 #
#570930000
b11 #
#570940000
b100 !
