test/pe_sim/sim_build/pe_dump.vcd
$date
	Wed Jun 24 21:21:07 2026
$end
$version
	Icarus Verilog
$end
$timescale
	1ps
$end
$scope module tb_pe_top $end
$scope module u_pe $end
$var reg 3 ! state [2:0] $end
$upscope $end
$upscope $end
$scope module tb_pe_top $end
$scope module u_pe $end
$var reg 8 " row_idx [7:0] $end
$upscope $end
$upscope $end
$scope module tb_pe_top $end
$scope module u_pe $end
$var reg 2 # gen_state [1:0] $end
$upscope $end
$upscope $end
$scope module tb_pe_top $end
$scope module u_pe $end
$var reg 1 $ done $end
$upscope $end
$upscope $end
$enddefinitions $end
$comment Show the parameter values. $end
$dumpall
$end
#0
$dumpvars
0$
b0 #
b0 "
b0 !
$end
#295390000
b1 !
#295400000
b10 !
#295410000
b11 !
b1 #
#295420000
b10 #
#297180000
b11 #
#297190000
b100 !
#297200000
b0 #
b101 !
#297230000
b110 !
#297240000
b1 !
b1 "
#297250000
b10 !
#297260000
b1 #
b11 !
#297270000
b10 #
#299470000
b11 #
#299480000
b100 !
#299490000
b101 !
b0 #
#299520000
b110 !
#299530000
b10 "
b1 !
#299540000
b10 !
#299550000
b11 !
b1 #
#299560000
b10 #
#301660000
b11 #
#301670000
b100 !
#301680000
b0 #
b101 !
#301710000
b110 !
#301720000
b1 !
b11 "
#301730000
b10 !
#301740000
b1 #
b11 !
#301750000
b10 #
#303430000
b11 #
#303440000
b100 !
#303450000
b101 !
b0 #
#303480000
b110 !
#303490000
b100 "
b1 !
#303500000
b10 !
#303510000
b11 !
b1 #
#303520000
b10 #
#304800000
b11 #
#304810000
b100 !
#304820000
b0 #
b101 !
#304850000
b110 !
#304860000
b1 !
b101 "
#304870000
b10 !
#304880000
b1 #
b11 !
#304890000
b10 #
#305320000
b11 #
#305330000
b100 !
#305340000
b0 #
b101 !
#305370000
b110 !
#305380000
b1 !
b110 "
#305390000
b10 !
#305400000
b1 #
b11 !
#305410000
b10 #
#308640000
b11 #
#308650000
b100 !
#308660000
b0 #
b101 !
#308690000
b110 !
#308700000
b1 !
b111 "
#308710000
b10 !
#308720000
b1 #
b11 !
#308730000
b10 #
#310870000
b11 #
#310880000
b100 !
#310890000
b101 !
b0 #
#310920000
b110 !
#310930000
b1000 "
b1 !
#310940000
b10 !
#310950000
b11 !
b1 #
#310960000
b10 #
#311510000
b11 #
#311520000
b100 !
#311530000
b101 !
b0 #
#311560000
b110 !
#311570000
b1001 "
b1 !
#311580000
b10 !
#311590000
b11 !
b1 #
#311600000
b10 #
#313730000
b11 #
#313740000
b100 !
#313750000
b101 !
b0 #
#313780000
b110 !
#313790000
b1010 "
b1 !
#313800000
b10 !
#313810000
b11 !
b1 #
#313820000
b10 #
#313900000
b11 #
#313910000
b100 !
#313920000
b0 #
b101 !
#314320000
b110 !
#314330000
b1011 "
b1 !
#314340000
b10 !
#314350000
b11 !
b1 #
#314360000
b10 #
#315910000
b11 #
#315920000
b100 !
#315930000
b101 !
b0 #
#315960000
b110 !
#315970000
b1100 "
b1 !
#315980000
b10 !
#315990000
b11 !
b1 #
#316000000
b10 #
#319560000
b11 #
#319570000
b100 !
#319580000
b0 #
b101 !
#319610000
b110 !
#319620000
b1 !
b1101 "
#319630000
b10 !
#319640000
b1 #
b11 !
#319650000
b10 #
#320910000
b11 #
#320920000
b100 !
#320930000
b101 !
b0 #
#320960000
b110 !
#320970000
b1110 "
b1 !
#320980000
b10 !
#320990000
b11 !
b1 #
#321000000
b10 #
#321480000
b11 #
#321490000
b100 !
#321500000
b0 #
b101 !
#321530000
b110 !
#321540000
b1 !
b1111 "
#321550000
b10 !
#321560000
b1 #
b11 !
#321570000
b10 #
#322240000
b11 #
#322250000
b100 !
#322260000
b0 #
b101 !
#322290000
b110 !
#322300000
b1 !
b10000 "
#322310000
b10 !
#322320000
b1 #
b11 !
#322330000
b10 #
#325090000
b11 #
#325100000
b100 !
#325110000
b101 !
b0 #
#325140000
b110 !
#325150000
b10001 "
b1 !
#325160000
b10 !
#325170000
b11 !
b1 #
#325180000
b10 #
#328550000
b11 #
#328560000
b100 !
#328570000
b101 !
b0 #
#328620000
b110 !
#328630000
b10010 "
b1 !
#328640000
b10 !
#328650000
b11 !
b1 #
#328660000
b10 #
#330400000
b11 #
#330410000
b100 !
#330420000
b0 #
b101 !
#330450000
b110 !
#330460000
b1 !
b10011 "
#330470000
b10 !
#330480000
b1 #
b11 !
#330490000
b10 #
#331930000
b11 #
#331940000
b100 !
#331950000
b101 !
b0 #
#331980000
b110 !
#331990000
b10100 "
b1 !
#332000000
b10 !
#332010000
b11 !
b1 #
#332020000
b10 #
#332340000
b11 #
#332350000
b100 !
#332360000
b0 #
b101 !
#332650000
b110 !
#332660000
b1 !
b10101 "
#332670000
b10 !
#332680000
b1 #
b11 !
#332690000
b10 #
#333560000
b11 #
#333570000
b100 !
#333580000
b0 #
b101 !
#333610000
b110 !
#333620000
b1 !
b10110 "
#333630000
b10 !
#333640000
b1 #
b11 !
#333650000
b10 #
#337220000
b11 #
#337230000
b100 !
#337240000
b0 #
b101 !
#337270000
b110 !
#337280000
b1 !
b10111 "
#337290000
b10 !
#337300000
b1 #
b11 !
#337310000
b10 #
#340530000
b11 #
#340540000
b100 !
#340550000
b101 !
b0 #
#340580000
b110 !
#340590000
b11000 "
b1 !
#340600000
b10 !
#340610000
b11 !
b1 #
#340620000
b10 #
#343250000
b11 #
#343260000
b100 !
#343270000
b101 !
b0 #
#343300000
b110 !
#343310000
b11001 "
b1 !
#343320000
b10 !
#343330000
b11 !
b1 #
#343340000
b10 #
#344150000
b11 #
#344160000
b100 !
#344170000
b101 !
b0 #
#344200000
b110 !
#344210000
b11010 "
b1 !
#344220000
b10 !
#344230000
b11 !
b1 #
#344240000
b10 #
#344440000
b11 #
#344450000
b100 !
#344460000
b0 #
b101 !
#344660000
b110 !
#344670000
b11011 "
b1 !
#344680000
b10 !
#344690000
b11 !
b1 #
#344700000
b10 #
#346730000
b11 #
#346740000
b100 !
#346750000
b101 !
b0 #
#346780000
b110 !
#346790000
b11100 "
b1 !
#346800000
b10 !
#346810000
b11 !
b1 #
#346820000
b10 #
#349610000
b11 #
#349620000
b100 !
#349630000
b101 !
b0 #
#349660000
b110 !
#349670000
b11101 "
b1 !
#349680000
b10 !
#349690000
b11 !
b1 #
#349700000
b10 #
#350410000
b11 #
#350420000
b100 !
#350430000
b101 !
b0 #
#350460000
b110 !
#350470000
b11110 "
b1 !
#350480000
b10 !
#350490000
b11 !
b1 #
#350500000
b10 #
#350830000
b11 #
#350840000
b100 !
#350850000
b101 !
b0 #
#350920000
b110 !
#350930000
b11111 "
b1 !
#350940000
b10 !
#350950000
b11 !
b1 #
#350960000
b10 #
#354780000
b11 #
#354790000
b100 !
#354800000
b0 #
b101 !
#354830000
b110 !
#354840000
b1 !
b100000 "
#354850000
b10 !
#354860000
b1 #
b11 !
#354870000
b10 #
#357090000
b11 #
#357100000
b100 !
#357110000
b101 !
b0 #
#357140000
b110 !
#357150000
b100001 "
b1 !
#357160000
b10 !
#357170000
b11 !
b1 #
#357180000
b10 #
#358900000
b11 #
#358910000
b100 !
#358920000
b0 #
b101 !
#358950000
b110 !
#358960000
b1 !
b100010 "
#358970000
b10 !
#358980000
b1 #
b11 !
#358990000
b10 #
#362120000
b11 #
#362130000
b100 !
#362140000
b0 #
b101 !
#362170000
b110 !
#362180000
b1 !
b100011 "
#362190000
b10 !
#362200000
b1 #
b11 !
#362210000
b10 #
#365290000
b11 #
#365300000
b100 !
#365310000
b101 !
b0 #
#365340000
b110 !
#365350000
b100100 "
b1 !
#365360000
b10 !
#365370000
b11 !
b1 #
#365380000
b10 #
#367810000
b11 #
#367820000
b100 !
#367830000
b101 !
b0 #
#367860000
b110 !
#367870000
b100101 "
b1 !
#367880000
b10 !
#367890000
b11 !
b1 #
#367900000
b10 #
#369880000
b11 #
#369890000
b100 !
#369900000
b0 #
b101 !
#369930000
b110 !
#369940000
b1 !
b100110 "
#369950000
b10 !
#369960000
b1 #
b11 !
#369970000
b10 #
#370100000
b11 #
#370110000
b100 !
#370120000
b0 #
b101 !
#370440000
b110 !
#370450000
b100111 "
b1 !
#370460000
b10 !
#370470000
b11 !
b1 #
#370480000
b10 #
#373410000
b11 #
#373420000
b100 !
#373430000
b101 !
b0 #
#373460000
b110 !
#373470000
b101000 "
b1 !
#373480000
b10 !
#373490000
b11 !
b1 #
#373500000
b10 #
#375530000
b11 #
#375540000
b100 !
#375550000
b101 !
b0 #
#375600000
b110 !
#375610000
b101001 "
b1 !
#375620000
b10 !
#375630000
b11 !
b1 #
#375640000
b10 #
#376600000
b11 #
#376610000
b100 !
#376620000
b0 #
b101 !
#376650000
b110 !
#376660000
b1 !
b101010 "
#376670000
b10 !
#376680000
b1 #
b11 !
#376690000
b10 #
#379140000
b11 #
#379150000
b100 !
#379160000
b0 #
b101 !
#379190000
b110 !
#379200000
b1 !
b101011 "
#379210000
b10 !
#379220000
b1 #
b11 !
#379230000
b10 #
#380020000
b11 #
#380030000
b100 !
#380040000
b0 #
b101 !
#380070000
b110 !
#380080000
b1 !
b101100 "
#380090000
b10 !
#380100000
b1 #
b11 !
#380110000
b10 #
#382960000
b11 #
#382970000
b100 !
#382980000
b0 #
b101 !
#383010000
b110 !
#383020000
b1 !
b101101 "
#383030000
b10 !
#383040000
b1 #
b11 !
#383050000
b10 #
#383490000
b11 #
#383500000
b100 !
#383510000
b101 !
b0 #
#383580000
b110 !
#383590000
b101110 "
b1 !
#383600000
b10 !
#383610000
b11 !
b1 #
#383620000
b10 #
#386470000
b11 #
#386480000
b100 !
#386490000
b101 !
b0 #
#386520000
b110 !
#386530000
b101111 "
b1 !
#386540000
b10 !
#386550000
b11 !
b1 #
#386560000
b10 #
#386710000
b11 #
#386720000
b100 !
#386730000
b101 !
b0 #
#387060000
b110 !
#387070000
b110000 "
b1 !
#387080000
b10 !
#387090000
b11 !
b1 #
#387100000
b10 #
#389310000
b11 #
#389320000
b100 !
#389330000
b101 !
b0 #
#389360000
b110 !
#389370000
b110001 "
b1 !
#389380000
b10 !
#389390000
b11 !
b1 #
#389400000
b10 #
#390430000
b11 #
#390440000
b100 !
#390450000
b101 !
b0 #
#390480000
b110 !
#390490000
b110010 "
b1 !
#390500000
b10 !
#390510000
b11 !
b1 #
#390520000
b10 #
#391110000
b11 #
#391120000
b100 !
#391130000
b101 !
b0 #
#391160000
b110 !
#391170000
b110011 "
b1 !
#391180000
b10 !
#391190000
b11 !
b1 #
#391200000
b10 #
#392680000
b11 #
#392690000
b100 !
#392700000
b0 #
b101 !
#392730000
b110 !
#392740000
b1 !
b110100 "
#392750000
b10 !
#392760000
b1 #
b11 !
#392770000
b10 #
#396070000
b11 #
#396080000
b100 !
#396090000
b101 !
b0 #
#396120000
b110 !
#396130000
b110101 "
b1 !
#396140000
b10 !
#396150000
b11 !
b1 #
#396160000
b10 #
#399150000
b11 #
#399160000
b100 !
#399170000
b101 !
b0 #
#399230000
b110 !
#399240000
b1 !
b110110 "
#399250000
b10 !
#399260000
b1 #
b11 !
#399270000
b10 #
#401320000
b11 #
#401330000
b100 !
#401340000
b0 #
b101 !
#401370000
b110 !
#401380000
b1 !
b110111 "
#401390000
b10 !
#401400000
b1 #
b11 !
#401410000
b10 #
#402420000
b11 #
#402430000
b100 !
#402440000
b0 #
b101 !
#402470000
b110 !
#402480000
b1 !
b111000 "
#402490000
b10 !
#402500000
b1 #
b11 !
#402510000
b10 #
#402810000
b11 #
#402820000
b100 !
#402830000
b101 !
b0 #
#402880000
b110 !
#402890000
b111001 "
b1 !
#402900000
b10 !
#402910000
b11 !
b1 #
#402920000
b10 #
#403980000
b11 #
#403990000
b100 !
#404000000
b0 #
b101 !
#404030000
b110 !
#404040000
b1 !
b111010 "
#404050000
b10 !
#404060000
b1 #
b11 !
#404070000
b10 #
#407440000
b11 #
#407450000
b100 !
#407460000
b0 #
b101 !
#407490000
b110 !
#407500000
b1 !
b111011 "
#407510000
b10 !
#407520000
b1 #
b11 !
#407530000
b10 #
#409640000
b11 #
#409650000
b100 !
#409660000
b0 #
b101 !
#409690000
b110 !
#409700000
b1 !
b111100 "
#409710000
b10 !
#409720000
b1 #
b11 !
#409730000
b10 #
#412390000
b11 #
#412400000
b100 !
#412410000
b101 !
b0 #
#412440000
b110 !
#412450000
b111101 "
b1 !
#412460000
b10 !
#412470000
b11 !
b1 #
#412480000
b10 #
#414830000
b11 #
#414840000
b100 !
#414850000
b101 !
b0 #
#415020000
b110 !
#415030000
b111110 "
b1 !
#415040000
b10 !
#415050000
b11 !
b1 #
#415060000
b10 #
#415990000
b11 #
#416000000
b100 !
#416010000
b101 !
b0 #
#416040000
b110 !
#416050000
b111111 "
b1 !
#416060000
b10 !
#416070000
b11 !
b1 #
#416080000
b10 #
#419660000
b11 #
#419670000
b100 !
#419680000
b0 #
b101 !
#419710000
b110 !
#419720000
b1 !
b1000000 "
#419730000
b10 !
#419740000
b1 #
b11 !
#419750000
b10 #
#420170000
b11 #
#420180000
b100 !
#420190000
b101 !
b0 #
#420290000
b110 !
#420300000
b1 !
b1000001 "
#420310000
b10 !
#420320000
b1 #
b11 !
#420330000
b10 #
#421230000
b11 #
#421240000
b100 !
#421250000
b101 !
b0 #
#421280000
b110 !
#421290000
b1000010 "
b1 !
#421300000
b10 !
#421310000
b11 !
b1 #
#421320000
b10 #
#423010000
b11 #
#423020000
b100 !
#423030000
b101 !
b0 #
#423060000
b110 !
#423070000
b1000011 "
b1 !
#423080000
b10 !
#423090000
b11 !
b1 #
#423100000
b10 #
#426060000
b11 #
#426070000
b100 !
#426080000
b0 #
b101 !
#426110000
b110 !
#426120000
b1 !
b1000100 "
#426130000
b10 !
#426140000
b1 #
b11 !
#426150000
b10 #
#426620000
b11 #
#426630000
b100 !
#426640000
b0 #
b101 !
#426670000
b110 !
#426680000
b1 !
b1000101 "
#426690000
b10 !
#426700000
b1 #
b11 !
#426710000
b10 #
#427310000
b11 #
#427320000
b100 !
#427330000
b101 !
b0 #
#427360000
b110 !
#427370000
b1000110 "
b1 !
#427380000
b10 !
#427390000
b11 !
b1 #
#427400000
b10 #
#430660000
b11 #
#430670000
b100 !
#430680000
b0 #
b101 !
#430800000
b110 !
#430810000
b1000111 "
b1 !
#430820000
b10 !
#430830000
b11 !
b1 #
#430840000
b10 #
#433140000
b11 #
#433150000
b100 !
#433160000
b0 #
b101 !
#433190000
b110 !
#433200000
b1 !
b1001000 "
#433210000
b10 !
#433220000
b1 #
b11 !
#433230000
b10 #
#434610000
b11 #
#434620000
b100 !
#434630000
b101 !
b0 #
#434660000
b110 !
#434670000
b1001001 "
b1 !
#434680000
b10 !
#434690000
b11 !
b1 #
#434700000
b10 #
#436730000
b11 #
#436740000
b100 !
#436750000
b101 !
b0 #
#436780000
b110 !
#436790000
b1001010 "
b1 !
#436800000
b10 !
#436810000
b11 !
b1 #
#436820000
b10 #
#437180000
b11 #
#437190000
b100 !
#437200000
b0 #
b101 !
#437280000
b110 !
#437290000
b1001011 "
b1 !
#437300000
b10 !
#437310000
b11 !
b1 #
#437320000
b10 #
#438690000
b11 #
#438700000
b100 !
#438710000
b101 !
b0 #
#438740000
b110 !
#438750000
b1001100 "
b1 !
#438760000
b10 !
#438770000
b11 !
b1 #
#438780000
b10 #
#440940000
b11 #
#440950000
b100 !
#440960000
b0 #
b101 !
#440990000
b110 !
#441000000
b1 !
b1001101 "
#441010000
b10 !
#441020000
b1 #
b11 !
#441030000
b10 #
#442650000
b11 #
#442660000
b100 !
#442670000
b101 !
b0 #
#442700000
b110 !
#442710000
b1001110 "
b1 !
#442720000
b10 !
#442730000
b11 !
b1 #
#442740000
b10 #
#443100000
b11 #
#443110000
b100 !
#443120000
b0 #
b101 !
#443230000
b110 !
#443240000
b1 !
b1001111 "
#443250000
b10 !
#443260000
b1 #
b11 !
#443270000
b10 #
#443890000
b11 #
#443900000
b100 !
#443910000
b101 !
b0 #
#443940000
b110 !
#443950000
b1010000 "
b1 !
#443960000
b10 !
#443970000
b11 !
b1 #
#443980000
b10 #
#445000000
b11 #
#445010000
b100 !
#445020000
b0 #
b101 !
#445050000
b110 !
#445060000
b1 !
b1010001 "
#445070000
b10 !
#445080000
b1 #
b11 !
#445090000
b10 #
#447240000
b11 #
#447250000
b100 !
#447260000
b0 #
b101 !
#447290000
b110 !
#447300000
b1 !
b1010010 "
#447310000
b10 !
#447320000
b1 #
b11 !
#447330000
b10 #
#450590000
b11 #
#450600000
b100 !
#450610000
b101 !
b0 #
#450640000
b110 !
#450650000
b1010011 "
b1 !
#450660000
b10 !
#450670000
b11 !
b1 #
#450680000
b10 #
#452790000
b11 #
#452800000
b100 !
#452810000
b101 !
b0 #
#452840000
b110 !
#452850000
b1010100 "
b1 !
#452860000
b10 !
#452870000
b11 !
b1 #
#452880000
b10 #
#456440000
b11 #
#456450000
b100 !
#456460000
b0 #
b101 !
#456490000
b110 !
#456500000
b1 !
b1010101 "
#456510000
b10 !
#456520000
b1 #
b11 !
#456530000
b10 #
#459610000
b11 #
#459620000
b100 !
#459630000
b101 !
b0 #
#459660000
b110 !
#459670000
b1010110 "
b1 !
#459680000
b10 !
#459690000
b11 !
b1 #
#459700000
b10 #
#463020000
b11 #
#463030000
b100 !
#463040000
b0 #
b101 !
#463070000
b110 !
#463080000
b1 !
b1010111 "
#463090000
b10 !
#463100000
b1 #
b11 !
#463110000
b10 #
#466350000
b11 #
#466360000
b100 !
#466370000
b101 !
b0 #
#466400000
b110 !
#466410000
b1011000 "
b1 !
#466420000
b10 !
#466430000
b11 !
b1 #
#466440000
b10 #
#469230000
b11 #
#469240000
b100 !
#469250000
b101 !
b0 #
#469280000
b110 !
#469290000
b1011001 "
b1 !
#469300000
b10 !
#469310000
b11 !
b1 #
#469320000
b10 #
#471330000
b11 #
#471340000
b100 !
#471350000
b101 !
b0 #
#471380000
b110 !
#471390000
b1011010 "
b1 !
#471400000
b10 !
#471410000
b11 !
b1 #
#471420000
b10 #
#472480000
b11 #
#472490000
b100 !
#472500000
b0 #
b101 !
#472530000
b110 !
#472540000
b1 !
b1011011 "
#472550000
b10 !
#472560000
b1 #
b11 !
#472570000
b10 #
#476470000
b11 #
#476480000
b100 !
#476490000
b101 !
b0 #
#476520000
b110 !
#476530000
b1011100 "
b1 !
#476540000
b10 !
#476550000
b11 !
b1 #
#476560000
b10 #
#478020000
b11 #
#478030000
b100 !
#478040000
b0 #
b101 !
#478070000
b110 !
#478080000
b1 !
b1011101 "
#478090000
b10 !
#478100000
b1 #
b11 !
#478110000
b10 #
#480170000
b11 #
#480180000
b100 !
#480190000
b101 !
b0 #
#480220000
b110 !
#480230000
b1011110 "
b1 !
#480240000
b10 !
#480250000
b11 !
b1 #
#480260000
b10 #
#480720000
b11 #
#480730000
b100 !
#480740000
b0 #
b101 !
#480770000
b110 !
#480780000
b1 !
b1011111 "
#480790000
b10 !
#480800000
b1 #
b11 !
#480810000
b10 #
#481330000
b11 #
#481340000
b100 !
#481350000
b101 !
b0 #
#481380000
b110 !
#481390000
b1100000 "
b1 !
#481400000
b10 !
#481410000
b11 !
b1 #
#481420000
b10 #
#482720000
b11 #
#482730000
b100 !
#482740000
b0 #
b101 !
#482770000
b110 !
#482780000
b1 !
b1100001 "
#482790000
b10 !
#482800000
b1 #
b11 !
#482810000
b10 #
#486340000
b11 #
#486350000
b100 !
#486360000
b0 #
b101 !
#486390000
b110 !
#486400000
b1 !
b1100010 "
#486410000
b10 !
#486420000
b1 #
b11 !
#486430000
b10 #
#489950000
b11 #
#489960000
b100 !
#489970000
b101 !
b0 #
#490000000
b110 !
#490010000
b1100011 "
b1 !
#490020000
b10 !
#490030000
b11 !
b1 #
#490040000
b10 #
#490520000
b11 #
#490530000
b100 !
#490540000
b0 #
b101 !
#490570000
b110 !
#490580000
b1 !
b1100100 "
#490590000
b10 !
#490600000
b1 #
b11 !
#490610000
b10 #
#491870000
b11 #
#491880000
b100 !
#491890000
b101 !
b0 #
#491920000
b110 !
#491930000
b1100101 "
b1 !
#491940000
b10 !
#491950000
b11 !
b1 #
#491960000
b10 #
#493610000
b11 #
#493620000
b100 !
#493630000
b101 !
b0 #
#493660000
b110 !
#493670000
b1100110 "
b1 !
#493680000
b10 !
#493690000
b11 !
b1 #
#493700000
b10 #
#495350000
b11 #
#495360000
b100 !
#495370000
b101 !
b0 #
#495400000
b110 !
#495410000
b1100111 "
b1 !
#495420000
b10 !
#495430000
b11 !
b1 #
#495440000
b10 #
#499260000
b11 #
#499270000
b100 !
#499280000
b0 #
b101 !
#499320000
b110 !
#499330000
b1101000 "
b1 !
#499340000
b10 !
#499350000
b11 !
b1 #
#499360000
b10 #
#500140000
b11 #
#500150000
b100 !
#500160000
b0 #
b101 !
#500190000
b110 !
#500200000
b1 !
b1101001 "
#500210000
b10 !
#500220000
b1 #
b11 !
#500230000
b10 #
#500500000
b11 #
#500510000
b100 !
#500520000
b0 #
b101 !
#500630000
b110 !
#500640000
b1 !
b1101010 "
#500650000
b10 !
#500660000
b1 #
b11 !
#500670000
b10 #
#504350000
b11 #
#504360000
b100 !
#504370000
b101 !
b0 #
#504400000
b110 !
#504410000
b1101011 "
b1 !
#504420000
b10 !
#504430000
b11 !
b1 #
#504440000
b10 #
#505840000
b11 #
#505850000
b100 !
#505860000
b0 #
b101 !
#505890000
b110 !
#505900000
b1 !
b1101100 "
#505910000
b10 !
#505920000
b1 #
b11 !
#505930000
b10 #
#507640000
b11 #
#507650000
b100 !
#507660000
b0 #
b101 !
#507690000
b110 !
#507700000
b1 !
b1101101 "
#507710000
b10 !
#507720000
b1 #
b11 !
#507730000
b10 #
#509790000
b11 #
#509800000
b100 !
#509810000
b101 !
b0 #
#509840000
b110 !
#509850000
b1101110 "
b1 !
#509860000
b10 !
#509870000
b11 !
b1 #
#509880000
b10 #
#511630000
b11 #
#511640000
b100 !
#511650000
b101 !
b0 #
#511680000
b110 !
#511690000
b1101111 "
b1 !
#511700000
b10 !
#511710000
b11 !
b1 #
#511720000
b10 #
#512390000
b11 #
#512400000
b100 !
#512410000
b101 !
b0 #
#512440000
b110 !
#512450000
b1110000 "
b1 !
#512460000
b10 !
#512470000
b11 !
b1 #
#512480000
b10 #
#513350000
b11 #
#513360000
b100 !
#513370000
b101 !
b0 #
#513400000
b110 !
#513410000
b1110001 "
b1 !
#513420000
b10 !
#513430000
b11 !
b1 #
#513440000
b10 #
#513830000
b11 #
#513840000
b100 !
#513850000
b101 !
b0 #
#513880000
b110 !
#513890000
b1110010 "
b1 !
#513900000
b10 !
#513910000
b11 !
b1 #
#513920000
b10 #
#514580000
b11 #
#514590000
b100 !
#514600000
b0 #
b101 !
#514630000
b110 !
#514640000
b1 !
b1110011 "
#514650000
b10 !
#514660000
b1 #
b11 !
#514670000
b10 #
#518170000
b11 #
#518180000
b100 !
#518190000
b101 !
b0 #
#518220000
b110 !
#518230000
b1110100 "
b1 !
#518240000
b10 !
#518250000
b11 !
b1 #
#518260000
b10 #
#518740000
b11 #
#518750000
b100 !
#518760000
b0 #
b101 !
#518790000
b110 !
#518800000
b1 !
b1110101 "
#518810000
b10 !
#518820000
b1 #
b11 !
#518830000
b10 #
#520440000
b11 #
#520450000
b100 !
#520460000
b0 #
b101 !
#520490000
b110 !
#520500000
b1 !
b1110110 "
#520510000
b10 !
#520520000
b1 #
b11 !
#520530000
b10 #
#521500000
b11 #
#521510000
b100 !
#521520000
b0 #
b101 !
#521550000
b110 !
#521560000
b1 !
b1110111 "
#521570000
b10 !
#521580000
b1 #
b11 !
#521590000
b10 #
#524940000
b11 #
#524950000
b100 !
#524960000
b0 #
b101 !
#524990000
b110 !
#525000000
b1 !
b1111000 "
#525010000
b10 !
#525020000
b1 #
b11 !
#525030000
b10 #
#527260000
b11 #
#527270000
b100 !
#527280000
b0 #
b101 !
#527310000
b110 !
#527320000
b1 !
b1111001 "
#527330000
b10 !
#527340000
b1 #
b11 !
#527350000
b10 #
#529640000
b11 #
#529650000
b100 !
#529660000
b0 #
b101 !
#529690000
b110 !
#529700000
b1 !
b1111010 "
#529710000
b10 !
#529720000
b1 #
b11 !
#529730000
b10 #
#531780000
b11 #
#531790000
b100 !
#531800000
b0 #
b101 !
#531830000
b110 !
#531840000
b1 !
b1111011 "
#531850000
b10 !
#531860000
b1 #
b11 !
#531870000
b10 #
#534530000
b11 #
#534540000
b100 !
#534550000
b101 !
b0 #
#534580000
b110 !
#534590000
b1111100 "
b1 !
#534600000
b10 !
#534610000
b11 !
b1 #
#534620000
b10 #
#536580000
b11 #
#536590000
b100 !
#536600000
b0 #
b101 !
#536630000
b110 !
#536640000
b1 !
b1111101 "
#536650000
b10 !
#536660000
b1 #
b11 !
#536670000
b10 #
#539070000
b11 #
#539080000
b100 !
#539090000
b101 !
b0 #
#539120000
b110 !
#539130000
b1111110 "
b1 !
#539140000
b10 !
#539150000
b11 !
b1 #
#539160000
b10 #
#541380000
b11 #
#541390000
b100 !
#541400000
b0 #
b101 !
#541430000
b110 !
#541440000
b1 !
b1111111 "
#541450000
b10 !
#541460000
b1 #
b11 !
#541470000
b10 #
#543630000
b11 #
#543640000
b100 !
#543650000
b101 !
b0 #
#543680000
b110 !
#543690000
b10000000 "
b1 !
#543700000
b10 !
#543710000
b11 !
b1 #
#543720000
b10 #
#545100000
b11 #
#545110000
b100 !
#545120000
b0 #
b101 !
#545150000
b110 !
#545160000
b1 !
b10000001 "
#545170000
b10 !
#545180000
b1 #
b11 !
#545190000
b10 #
#545510000
b11 #
#545520000
b100 !
#545530000
b101 !
b0 #
#545760000
b110 !
#545770000
b10000010 "
b1 !
#545780000
b10 !
#545790000
b11 !
b1 #
#545800000
b10 #
#546920000
b11 #
#546930000
b100 !
#546940000
b0 #
b101 !
#546970000
b110 !
#546980000
b1 !
b10000011 "
#546990000
b10 !
#547000000
b1 #
b11 !
#547010000
b10 #
#547370000
b11 #
#547380000
b100 !
#547390000
b101 !
b0 #
#547490000
b110 !
#547500000
b1 !
b10000100 "
#547510000
b10 !
#547520000
b1 #
b11 !
#547530000
b10 #
#549290000
b11 #
#549300000
b100 !
#549310000
b101 !
b0 #
#549340000
b110 !
#549350000
b10000101 "
b1 !
#549360000
b10 !
#549370000
b11 !
b1 #
#549380000
b10 #
#552290000
b11 #
#552300000
b100 !
#552310000
b101 !
b0 #
#552340000
b110 !
#552350000
b10000110 "
b1 !
#552360000
b10 !
#552370000
b11 !
b1 #
#552380000
b10 #
#554420000
b11 #
#554430000
b100 !
#554440000
b0 #
b101 !
#554470000
b110 !
#554480000
b1 !
b10000111 "
#554490000
b10 !
#554500000
b1 #
b11 !
#554510000
b10 #
#557020000
b11 #
#557030000
b100 !
#557040000
b0 #
b101 !
#557070000
b110 !
#557080000
b1 !
b10001000 "
#557090000
b10 !
#557100000
b1 #
b11 !
#557110000
b10 #
#558120000
b11 #
#558130000
b100 !
#558140000
b0 #
b101 !
#558170000
b110 !
#558180000
b1 !
b10001001 "
#558190000
b10 !
#558200000
b1 #
b11 !
#558210000
b10 #
#558490000
b11 #
#558500000
b100 !
#558510000
b101 !
b0 #
#558600000
b110 !
#558610000
b10001010 "
b1 !
#558620000
b10 !
#558630000
b11 !
b1 #
#558640000
b10 #
#562000000
b11 #
#562010000
b100 !
#562020000
b0 #
b101 !
#562050000
b110 !
#562060000
b1 !
b10001011 "
#562070000
b10 !
#562080000
b1 #
b11 !
#562090000
b10 #
#565640000
b11 #
#565650000
b100 !
#565660000
b0 #
b101 !
#565690000
b110 !
#565700000
b1 !
b10001100 "
#565710000
b10 !
#565720000
b1 #
b11 !
#565730000
b10 #
#569180000
b11 #
#569190000
b100 !
#569200000
b0 #
b101 !
#569230000
b110 !
#569240000
b1 !
b10001101 "
#569250000
b10 !
#569260000
b1 #
b11 !
#569270000
b10 #
#570260000
b11 #
#570270000
b100 !
#570280000
b0 #
b101 !
#570310000
b110 !
#570320000
b1 !
b10001110 "
#570330000
b10 !
#570340000
b1 #
b11 !
#570350000
b10 #
#572950000
b11 #
#572960000
b100 !
#572970000
b101 !
b0 #
#573000000
b110 !
#573010000
b10001111 "
b1 !
#573020000
b10 !
#573030000
b11 !
b1 #
#573040000
b10 #
#573290000
b11 #
#573300000
b100 !
#573310000
b101 !
b0 #
#573420000
b110 !
#573430000
b10010000 "
b1 !
#573440000
b10 !
#573450000
b11 !
b1 #
#573460000
b10 #
#576850000
b11 #
#576860000
b100 !
#576870000
b101 !
b0 #
#576920000
b110 !
#576930000
b10010001 "
b1 !
#576940000
b10 !
#576950000
b11 !
b1 #
#576960000
b10 #
#579050000
b11 #
#579060000
b100 !
#579070000
b101 !
b0 #
#579100000
b110 !
#579110000
b10010010 "
b1 !
#579120000
b10 !
#579130000
b11 !
b1 #
#579140000
b10 #
#579740000
b11 #
#579750000
b100 !
#579760000
b0 #
b101 !
#579790000
b110 !
#579800000
b1 !
b10010011 "
#579810000
b10 !
#579820000
b1 #
b11 !
#579830000
b10 #
#581680000
b11 #
#581690000
b100 !
#581700000
b0 #
b101 !
#581730000
b110 !
#581740000
b1 !
b10010100 "
#581750000
b10 !
#581760000
b1 #
b11 !
#581770000
b10 #
#584400000
b11 #
#584410000
b100 !
#584420000
b0 #
b101 !
#584450000
b110 !
#584460000
b1 !
b10010101 "
#584470000
b10 !
#584480000
b1 #
b11 !
#584490000
b10 #
#586570000
b11 #
#586580000
b100 !
#586590000
b101 !
b0 #
#586620000
b110 !
#586630000
b10010110 "
b1 !
#586640000
b10 !
#586650000
b11 !
b1 #
#586660000
b10 #
#589640000
b11 #
#589650000
b100 !
#589660000
b0 #
b101 !
#589690000
b110 !
#589700000
b1 !
b10010111 "
#589710000
b10 !
#589720000
b1 #
b11 !
#589730000
b10 #
#592590000
b11 #
