test/pe_sim/sim_build/pe_dump.vcd
$date
	Sat Jun 27 01:29:51 2026
$end
$version
	Icarus Verilog
$end
$timescale
	1ps
$end
$scope module tb_pe_top $end
$scope module u_pe $end
$var reg 3 ! state [2:0] $end
$upscope $end
$upscope $end
$scope module tb_pe_top $end
$scope module u_pe $end
$var reg 8 " row_idx [7:0] $end
$upscope $end
$upscope $end
$scope module tb_pe_top $end
$scope module u_pe $end
$var reg 3 # gen_state [2:0] $end
$upscope $end
$upscope $end
$scope module tb_pe_top $end
$scope module u_pe $end
$var reg 1 $ done $end
$upscope $end
$upscope $end
$enddefinitions $end
$comment Show the parameter values. $end
$dumpall
$end
#0
$dumpvars
0$
b0 #
b0 "
b0 !
$end
#327120000
b1 !
#327130000
b10 !
#327140000
b1 #
b11 !
#327150000
b10 #
#327480000
b11 #
#327490000
b100 !
#327500000
b0 #
#327590000
b101 !
#327600000
b110 !
#327610000
b1 "
b1 !
#327620000
b10 !
#327630000
b11 !
b1 #
#327640000
b10 #
#328080000
b11 #
#328090000
b100 !
#328100000
b0 #
#328190000
b101 !
#328200000
b110 !
#328210000
b10 "
b1 !
#328220000
b10 !
#328230000
b11 !
b1 #
#328240000
b10 #
#328680000
b11 #
#328690000
b100 !
#328700000
b0 #
#328770000
b101 !
#328780000
b110 !
#328790000
b11 "
b1 !
#328800000
b10 !
#328810000
b11 !
b1 #
#328820000
b10 #
#329160000
b11 #
#329170000
b100 !
#329180000
b0 #
#329240000
b101 !
#329250000
b110 !
#329260000
b1 !
b100 "
#329270000
b10 !
#329280000
b1 #
b11 !
#329290000
b10 #
#329550000
b11 #
#329560000
b100 !
#329570000
b0 #
#329620000
b101 !
#329630000
b110 !
#329640000
b1 !
b101 "
#329650000
b10 !
#329660000
b1 #
b11 !
#329670000
b10 #
#329750000
b11 #
#329760000
b100 !
#329770000
b0 #
#329800000
b101 !
#329880000
b110 !
#329890000
b110 "
b1 !
#329900000
b10 !
#329910000
b11 !
b1 #
#329920000
b10 #
#330560000
b11 #
#330570000
b100 !
#330580000
b0 #
#330710000
b101 !
#330720000
b110 !
#330730000
b111 "
b1 !
#330740000
b10 !
#330750000
b11 !
b1 #
#330760000
b10 #
#331190000
b11 #
#331200000
b100 !
#331210000
b0 #
#331290000
b101 !
#331300000
b110 !
#331310000
b1000 "
b1 !
#331320000
b10 !
#331330000
b11 !
b1 #
#331340000
b10 #
#331460000
b11 #
#331470000
b100 !
#331480000
b0 #
#331490000
b101 !
#331560000
b110 !
#331570000
b1001 "
b1 !
#331580000
b10 !
#331590000
b11 !
b1 #
#331600000
b10 #
#332020000
b11 #
#332030000
b100 !
#332040000
b0 #
#332140000
b101 !
#332150000
b110 !
#332160000
b1 !
b1010 "
#332170000
b10 !
#332180000
b1 #
b11 !
#332190000
b10 #
#332210000
b11 #
#332220000
b100 !
#332230000
b0 #
#332240000
b101 !
#332430000
b110 !
#332440000
b1 !
b1011 "
#332450000
b10 !
#332460000
b1 #
b11 !
#332470000
b10 #
#332780000
b11 #
#332790000
b100 !
#332800000
b0 #
#332860000
b101 !
#332870000
b110 !
#332880000
b1 !
b1100 "
#332890000
b10 !
#332900000
b1 #
b11 !
#332910000
b10 #
#333620000
b11 #
#333630000
b100 !
#333640000
b0 #
#333770000
b101 !
#333780000
b110 !
#333790000
b1101 "
b1 !
#333800000
b10 !
#333810000
b11 !
b1 #
#333820000
b10 #
#334070000
b11 #
#334080000
b100 !
#334090000
b0 #
#334150000
b101 !
#334160000
b110 !
#334170000
b1110 "
b1 !
#334180000
b10 !
#334190000
b11 !
b1 #
#334200000
b10 #
#334300000
b11 #
#334310000
b100 !
#334320000
b0 #
#334350000
b101 !
#334410000
b110 !
#334420000
b1 !
b1111 "
#334430000
b10 !
#334440000
b1 #
b11 !
#334450000
b10 #
#334590000
b11 #
#334600000
b100 !
#334610000
b0 #
#334650000
b101 !
#334660000
b110 !
#334670000
b10000 "
b1 !
#334680000
b10 !
#334690000
b11 !
b1 #
#334700000
b10 #
#335250000
b11 #
#335260000
b100 !
#335270000
b0 #
#335380000
b101 !
#335390000
b110 !
#335400000
b1 !
b10001 "
#335410000
b10 !
#335420000
b1 #
b11 !
#335430000
b10 #
#336110000
b11 #
#336120000
b100 !
#336130000
b0 #
#336250000
b101 !
#336260000
b110 !
#336270000
b10010 "
b1 !
#336280000
b10 !
#336290000
b11 !
b1 #
#336300000
b10 #
#336650000
b11 #
#336660000
b100 !
#336670000
b0 #
#336750000
b101 !
#336760000
b110 !
#336770000
b10011 "
b1 !
#336780000
b10 !
#336790000
b11 !
b1 #
#336800000
b10 #
#337100000
b11 #
#337110000
b100 !
#337120000
b0 #
#337170000
b101 !
#337180000
b110 !
#337190000
b10100 "
b1 !
#337200000
b10 !
#337210000
b11 !
b1 #
#337220000
b10 #
#337280000
b11 #
#337290000
b100 !
#337300000
b0 #
#337330000
b101 !
#337440000
b110 !
#337450000
b10101 "
b1 !
#337460000
b10 !
#337470000
b11 !
b1 #
#337480000
b10 #
#337640000
b11 #
#337650000
b100 !
#337660000
b0 #
#337720000
b101 !
#337730000
b110 !
#337740000
b1 !
b10110 "
#337750000
b10 !
#337760000
b1 #
b11 !
#337770000
b10 #
#338510000
b11 #
#338520000
b100 !
#338530000
b0 #
#338640000
b101 !
#338650000
b110 !
#338660000
b1 !
b10111 "
#338670000
b10 !
#338680000
b1 #
b11 !
#338690000
b10 #
#339340000
b11 #
#339350000
b100 !
#339360000
b0 #
#339480000
b101 !
#339490000
b110 !
#339500000
b1 !
b11000 "
#339510000
b10 !
#339520000
b1 #
b11 !
#339530000
b10 #
#340060000
b11 #
#340070000
b100 !
#340080000
b0 #
#340180000
b101 !
#340190000
b110 !
#340200000
b1 !
b11001 "
#340210000
b10 !
#340220000
b1 #
b11 !
#340230000
b10 #
#340400000
b11 #
#340410000
b100 !
#340420000
b0 #
#340450000
b101 !
#340520000
b110 !
#340530000
b11010 "
b1 !
#340540000
b10 !
#340550000
b11 !
b1 #
#340560000
b10 #
#340600000
b11 #
#340610000
b100 !
#340620000
b0 #
#340630000
b101 !
#340710000
b110 !
#340720000
b1 !
b11011 "
#340730000
b10 !
#340740000
b1 #
b11 !
#340750000
b10 #
#341160000
b11 #
#341170000
b100 !
#341180000
b0 #
#341270000
b101 !
#341280000
b110 !
#341290000
b11100 "
b1 !
#341300000
b10 !
#341310000
b11 !
b1 #
#341320000
b10 #
#341890000
b11 #
#341900000
b100 !
#341910000
b0 #
#342010000
b101 !
#342020000
b110 !
#342030000
b11101 "
b1 !
#342040000
b10 !
#342050000
b11 !
b1 #
#342060000
b10 #
#342200000
b11 #
#342210000
b100 !
#342220000
b0 #
#342260000
b101 !
#342350000
b110 !
#342360000
b1 !
b11110 "
#342370000
b10 !
#342380000
b1 #
b11 !
#342390000
b10 #
#342460000
b11 #
#342470000
b100 !
#342480000
b0 #
#342490000
b101 !
#342520000
b110 !
#342530000
b11111 "
b1 !
#342540000
b10 !
#342550000
b11 !
b1 #
#342560000
b10 #
#343320000
b11 #
#343330000
b100 !
#343340000
b0 #
#343480000
b101 !
#343490000
b110 !
#343500000
b1 !
b100000 "
#343510000
b10 !
#343520000
b1 #
b11 !
#343530000
b10 #
#343970000
b11 #
#343980000
b100 !
#343990000
b0 #
#344090000
b101 !
#344100000
b110 !
#344110000
b100001 "
b1 !
#344120000
b10 !
#344130000
b11 !
b1 #
#344140000
b10 #
#344510000
b11 #
#344520000
b100 !
#344530000
b0 #
#344570000
b101 !
#344580000
b110 !
#344590000
b100010 "
b1 !
#344600000
b10 !
#344610000
b11 !
b1 #
#344620000
b10 #
#345250000
b11 #
#345260000
b100 !
#345270000
b0 #
#345380000
b101 !
#345390000
b110 !
#345400000
b1 !
b100011 "
#345410000
b10 !
#345420000
b1 #
b11 !
#345430000
b10 #
#346050000
b11 #
#346060000
b100 !
#346070000
b0 #
#346170000
b101 !
#346180000
b110 !
#346190000
b100100 "
b1 !
#346200000
b10 !
#346210000
b11 !
b1 #
#346220000
b10 #
#346730000
b11 #
#346740000
b100 !
#346750000
b0 #
#346830000
b101 !
#346840000
b110 !
#346850000
b100101 "
b1 !
#346860000
b10 !
#346870000
b11 !
b1 #
#346880000
b10 #
#347270000
b11 #
#347280000
b100 !
#347290000
b0 #
#347380000
b101 !
#347390000
b110 !
#347400000
b1 !
b100110 "
#347410000
b10 !
#347420000
b1 #
b11 !
#347430000
b10 #
#347460000
b11 #
#347470000
b100 !
#347480000
b0 #
b101 !
#347670000
b110 !
#347680000
b1 !
b100111 "
#347690000
b10 !
#347700000
b1 #
b11 !
#347710000
b10 #
#348300000
b11 #
#348310000
b100 !
#348320000
b0 #
#348420000
b101 !
#348430000
b110 !
#348440000
b1 !
b101000 "
#348450000
b10 !
#348460000
b1 #
b11 !
#348470000
b10 #
#348880000
b11 #
#348890000
b100 !
#348900000
b0 #
#348980000
b101 !
#348990000
b110 !
#349000000
b1 !
b101001 "
#349010000
b10 !
#349020000
b1 #
b11 !
#349030000
b10 #
#349220000
b11 #
#349230000
b100 !
#349240000
b0 #
#349280000
b101 !
#349290000
b110 !
#349300000
b1 !
b101010 "
#349310000
b10 !
#349320000
b1 #
b11 !
#349330000
b10 #
#349840000
b11 #
#349850000
b100 !
#349860000
b0 #
#349930000
b101 !
#349940000
b110 !
#349950000
b101011 "
b1 !
#349960000
b10 !
#349970000
b11 !
b1 #
#349980000
b10 #
#350130000
b11 #
#350140000
b100 !
#350150000
b0 #
#350210000
b101 !
#350220000
b110 !
#350230000
b101100 "
b1 !
#350240000
b10 !
#350250000
b11 !
b1 #
#350260000
b10 #
#350820000
b11 #
#350830000
b100 !
#350840000
b0 #
#350950000
b101 !
#350960000
b110 !
#350970000
b101101 "
b1 !
#350980000
b10 !
#350990000
b11 !
b1 #
#351000000
b10 #
#351080000
b11 #
#351090000
b100 !
#351100000
b0 #
#351140000
b101 !
#351230000
b110 !
#351240000
b1 !
b101110 "
#351250000
b10 !
#351260000
b1 #
b11 !
#351270000
b10 #
#351870000
b11 #
#351880000
b100 !
#351890000
b0 #
#351970000
b101 !
#351980000
b110 !
#351990000
b101111 "
b1 !
#352000000
b10 !
#352010000
b11 !
b1 #
#352020000
b10 #
#352050000
b11 #
#352060000
b100 !
#352070000
b0 #
#352080000
b101 !
#352290000
b110 !
#352300000
b1 !
b110000 "
#352310000
b10 !
#352320000
b1 #
b11 !
#352330000
b10 #
#352770000
b11 #
#352780000
b100 !
#352790000
b0 #
#352870000
b101 !
#352880000
b110 !
#352890000
b110001 "
b1 !
#352900000
b10 !
#352910000
b11 !
b1 #
#352920000
b10 #
#353130000
b11 #
#353140000
b100 !
#353150000
b0 #
#353190000
b101 !
#353200000
b110 !
#353210000
b110010 "
b1 !
#353220000
b10 !
#353230000
b11 !
b1 #
#353240000
b10 #
#353370000
b11 #
#353380000
b100 !
#353390000
b0 #
#353420000
b101 !
#353430000
b110 !
#353440000
b1 !
b110011 "
#353450000
b10 !
#353460000
b1 #
b11 !
#353470000
b10 #
#353760000
b11 #
#353770000
b100 !
#353780000
b0 #
#353840000
b101 !
#353850000
b110 !
#353860000
b1 !
b110100 "
#353870000
b10 !
#353880000
b1 #
b11 !
#353890000
b10 #
#354580000
b11 #
#354590000
b100 !
#354600000
b0 #
#354700000
b101 !
#354710000
b110 !
#354720000
b1 !
b110101 "
#354730000
b10 !
#354740000
b1 #
b11 !
#354750000
b10 #
#355350000
b11 #
#355360000
b100 !
#355370000
b0 #
#355470000
b101 !
#355480000
b110 !
#355490000
b110110 "
b1 !
#355500000
b10 !
#355510000
b11 !
b1 #
#355520000
b10 #
#355960000
b11 #
#355970000
b100 !
#355980000
b0 #
#356040000
b101 !
#356050000
b110 !
#356060000
b1 !
b110111 "
#356070000
b10 !
#356080000
b1 #
b11 !
#356090000
b10 #
#356280000
b11 #
#356290000
b100 !
#356300000
b0 #
#356360000
b101 !
#356370000
b110 !
#356380000
b1 !
b111000 "
#356390000
b10 !
#356400000
b1 #
b11 !
#356410000
b10 #
#356480000
b11 #
#356490000
b100 !
#356500000
b0 #
#356510000
b101 !
#356610000
b110 !
#356620000
b1 !
b111001 "
#356630000
b10 !
#356640000
b1 #
b11 !
#356650000
b10 #
#356860000
b11 #
#356870000
b100 !
#356880000
b0 #
#356930000
b101 !
#356940000
b110 !
#356950000
b111010 "
b1 !
#356960000
b10 !
#356970000
b11 !
b1 #
#356980000
b10 #
#357660000
b11 #
#357670000
b100 !
#357680000
b0 #
#357800000
b101 !
#357810000
b110 !
#357820000
b1 !
b111011 "
#357830000
b10 !
#357840000
b1 #
b11 !
#357850000
b10 #
#358250000
b11 #
#358260000
b100 !
#358270000
b0 #
#358380000
b101 !
#358390000
b110 !
#358400000
b1 !
b111100 "
#358410000
b10 !
#358420000
b1 #
b11 !
#358430000
b10 #
#358950000
b11 #
#358960000
b100 !
#358970000
b0 #
#359080000
b101 !
#359090000
b110 !
#359100000
b1 !
b111101 "
#359110000
b10 !
#359120000
b1 #
b11 !
#359130000
b10 #
#359630000
b11 #
#359640000
b100 !
#359650000
b0 #
#359710000
b101 !
#359720000
b110 !
#359730000
b111110 "
b1 !
#359740000
b10 !
#359750000
b11 !
b1 #
#359760000
b10 #
#359950000
b11 #
#359960000
b100 !
#359970000
b0 #
#360020000
b101 !
#360030000
b110 !
#360040000
b1 !
b111111 "
#360050000
b10 !
#360060000
b1 #
b11 !
#360070000
b10 #
#360760000
b11 #
#360770000
b100 !
#360780000
b0 #
#360950000
b101 !
#360960000
b110 !
#360970000
b1000000 "
b1 !
#360980000
b10 !
#360990000
b11 !
b1 #
#361000000
b10 #
#361080000
b11 #
#361090000
b100 !
#361100000
b0 #
#361130000
b101 !
#361250000
b110 !
#361260000
b1 !
b1000001 "
#361270000
b10 !
#361280000
b1 #
b11 !
#361290000
b10 #
#361470000
b11 #
#361480000
b100 !
#361490000
b0 #
#361530000
b101 !
#361540000
b110 !
#361550000
b1000010 "
b1 !
#361560000
b10 !
#361570000
b11 !
b1 #
#361580000
b10 #
#361930000
b11 #
#361940000
b100 !
#361950000
b0 #
#362010000
b101 !
#362020000
b110 !
#362030000
b1000011 "
b1 !
#362040000
b10 !
#362050000
b11 !
b1 #
#362060000
b10 #
#362680000
b11 #
#362690000
b100 !
#362700000
b0 #
#362790000
b101 !
#362800000
b110 !
#362810000
b1000100 "
b1 !
#362820000
b10 !
#362830000
b11 !
b1 #
#362840000
b10 #
#362940000
b11 #
#362950000
b100 !
#362960000
b0 #
#362990000
b101 !
#363060000
b110 !
#363070000
b1000101 "
b1 !
#363080000
b10 !
#363090000
b11 !
b1 #
#363100000
b10 #
#363220000
b11 #
#363230000
b100 !
#363240000
b0 #
#363280000
b101 !
#363290000
b110 !
#363300000
b1 !
b1000110 "
#363310000
b10 !
#363320000
b1 #
b11 !
#363330000
b10 #
#364010000
b11 #
#364020000
b100 !
#364030000
b0 #
#364130000
b101 !
#364140000
b110 !
#364150000
b1000111 "
b1 !
#364160000
b10 !
#364170000
b11 !
b1 #
#364180000
b10 #
#364650000
b11 #
#364660000
b100 !
#364670000
b0 #
#364750000
b101 !
#364760000
b110 !
#364770000
b1001000 "
b1 !
#364780000
b10 !
#364790000
b11 !
b1 #
#364800000
b10 #
#365080000
b11 #
#365090000
b100 !
#365100000
b0 #
#365160000
b101 !
#365170000
b110 !
#365180000
b1 !
b1001001 "
#365190000
b10 !
#365200000
b1 #
b11 !
#365210000
b10 #
#365640000
b11 #
#365650000
b100 !
#365660000
b0 #
#365720000
b101 !
#365730000
b110 !
#365740000
b1 !
b1001010 "
#365750000
b10 !
#365760000
b1 #
b11 !
#365770000
b10 #
#365840000
b11 #
#365850000
b100 !
#365860000
b0 #
#365890000
b101 !
#366000000
b110 !
#366010000
b1001011 "
b1 !
#366020000
b10 !
#366030000
b11 !
b1 #
#366040000
b10 #
#366320000
b11 #
#366330000
b100 !
#366340000
b0 #
#366390000
b101 !
#366400000
b110 !
#366410000
b1001100 "
b1 !
#366420000
b10 !
#366430000
b11 !
b1 #
#366440000
b10 #
#366880000
b11 #
#366890000
b100 !
#366900000
b0 #
#366980000
b101 !
#366990000
b110 !
#367000000
b1 !
b1001101 "
#367010000
b10 !
#367020000
b1 #
b11 !
#367030000
b10 #
#367350000
b11 #
#367360000
b100 !
#367370000
b0 #
#367440000
b101 !
#367450000
b110 !
#367460000
b1 !
b1001110 "
#367470000
b10 !
#367480000
b1 #
b11 !
#367490000
b10 #
#367570000
b11 #
#367580000
b100 !
#367590000
b0 #
#367620000
b101 !
#367690000
b110 !
#367700000
b1 !
b1001111 "
#367710000
b10 !
#367720000
b1 #
b11 !
#367730000
b10 #
#367860000
b11 #
#367870000
b100 !
#367880000
b0 #
#367920000
b101 !
#367930000
b110 !
#367940000
b1 !
b1010000 "
#367950000
b10 !
#367960000
b1 #
b11 !
#367970000
b10 #
#368180000
b11 #
#368190000
b100 !
#368200000
b0 #
#368250000
b101 !
#368260000
b110 !
#368270000
b1010001 "
b1 !
#368280000
b10 !
#368290000
b11 !
b1 #
#368300000
b10 #
#368740000
b11 #
#368750000
b100 !
#368760000
b0 #
#368840000
b101 !
#368850000
b110 !
#368860000
b1 !
b1010010 "
#368870000
b10 !
#368880000
b1 #
b11 !
#368890000
b10 #
#369540000
b11 #
#369550000
b100 !
#369560000
b0 #
#369680000
b101 !
#369690000
b110 !
#369700000
b1 !
b1010011 "
#369710000
b10 !
#369720000
b1 #
b11 !
#369730000
b10 #
#370140000
b11 #
#370150000
b100 !
#370160000
b0 #
#370250000
b101 !
#370260000
b110 !
#370270000
b1010100 "
b1 !
#370280000
b10 !
#370290000
b11 !
b1 #
#370300000
b10 #
#371000000
b11 #
#371010000
b100 !
#371020000
b0 #
#371160000
b101 !
#371170000
b110 !
#371180000
b1 !
b1010101 "
#371190000
b10 !
#371200000
b1 #
b11 !
#371210000
b10 #
#371810000
b11 #
#371820000
b100 !
#371830000
b0 #
#371960000
b101 !
#371970000
b110 !
#371980000
b1 !
b1010110 "
#371990000
b10 !
#372000000
b1 #
b11 !
#372010000
b10 #
#372680000
b11 #
#372690000
b100 !
#372700000
b0 #
#372820000
b101 !
#372830000
b110 !
#372840000
b1 !
b1010111 "
#372850000
b10 !
#372860000
b1 #
b11 !
#372870000
b10 #
#373520000
b11 #
#373530000
b100 !
#373540000
b0 #
#373670000
b101 !
#373680000
b110 !
#373690000
b1011000 "
b1 !
#373700000
b10 !
#373710000
b11 !
b1 #
#373720000
b10 #
#374260000
b11 #
#374270000
b100 !
#374280000
b0 #
#374410000
b101 !
#374420000
b110 !
#374430000
b1011001 "
b1 !
#374440000
b10 !
#374450000
b11 !
b1 #
#374460000
b10 #
#374870000
b11 #
#374880000
b100 !
#374890000
b0 #
#374970000
b101 !
#374980000
b110 !
#374990000
b1011010 "
b1 !
#375000000
b10 !
#375010000
b11 !
b1 #
#375020000
b10 #
#375240000
b11 #
#375250000
b100 !
#375260000
b0 #
#375310000
b101 !
#375320000
b110 !
#375330000
b1011011 "
b1 !
#375340000
b10 !
#375350000
b11 !
b1 #
#375360000
b10 #
#376110000
b11 #
#376120000
b100 !
#376130000
b0 #
#376300000
b101 !
#376310000
b110 !
#376320000
b1 !
b1011100 "
#376330000
b10 !
#376340000
b1 #
b11 !
#376350000
b10 #
#376640000
b11 #
#376650000
b100 !
#376660000
b0 #
#376720000
b101 !
#376730000
b110 !
#376740000
b1 !
b1011101 "
#376750000
b10 !
#376760000
b1 #
b11 !
#376770000
b10 #
#377190000
b11 #
#377200000
b100 !
#377210000
b0 #
#377290000
b101 !
#377300000
b110 !
#377310000
b1011110 "
b1 !
#377320000
b10 !
#377330000
b11 !
b1 #
#377340000
b10 #
#377430000
b11 #
#377440000
b100 !
#377450000
b0 #
#377480000
b101 !
#377560000
b110 !
#377570000
b1011111 "
b1 !
#377580000
b10 !
#377590000
b11 !
b1 #
#377600000
b10 #
#377710000
b11 #
#377720000
b100 !
#377730000
b0 #
#377770000
b101 !
#377780000
b110 !
#377790000
b1100000 "
b1 !
#377800000
b10 !
#377810000
b11 !
b1 #
#377820000
b10 #
#378080000
b11 #
#378090000
b100 !
#378100000
b0 #
#378160000
b101 !
#378170000
b110 !
#378180000
b1 !
b1100001 "
#378190000
b10 !
#378200000
b1 #
b11 !
#378210000
b10 #
#378920000
b11 #
#378930000
b100 !
#378940000
b0 #
#379060000
b101 !
#379070000
b110 !
#379080000
b1 !
b1100010 "
#379090000
b10 !
#379100000
b1 #
b11 !
#379110000
b10 #
#379830000
b11 #
#379840000
b100 !
#379850000
b0 #
#379970000
b101 !
#379980000
b110 !
#379990000
b1100011 "
b1 !
#380000000
b10 !
#380010000
b11 !
b1 #
#380020000
b10 #
#380120000
b11 #
#380130000
b100 !
#380140000
b0 #
#380180000
b101 !
#380270000
b110 !
#380280000
b1 !
b1100100 "
#380290000
b10 !
#380300000
b1 #
b11 !
#380310000
b10 #
#380570000
b11 #
#380580000
b100 !
#380590000
b0 #
#380630000
b101 !
#380640000
b110 !
#380650000
b1100101 "
b1 !
#380660000
b10 !
#380670000
b11 !
b1 #
#380680000
b10 #
#381010000
b11 #
#381020000
b100 !
#381030000
b0 #
#381100000
b101 !
#381110000
b110 !
#381120000
b1 !
b1100110 "
#381130000
b10 !
#381140000
b1 #
b11 !
#381150000
b10 #
#381500000
b11 #
#381510000
b100 !
#381520000
b0 #
#381580000
b101 !
#381590000
b110 !
#381600000
b1 !
b1100111 "
#381610000
b10 !
#381620000
b1 #
b11 !
#381630000
b10 #
#382370000
b11 #
#382380000
b100 !
#382390000
b0 #
#382550000
b101 !
#382560000
b110 !
#382570000
b1101000 "
b1 !
#382580000
b10 !
#382590000
b11 !
b1 #
#382600000
b10 #
#382750000
b11 #
#382760000
b100 !
#382770000
b0 #
#382820000
b101 !
#382870000
b110 !
#382880000
b1 !
b1101001 "
#382890000
b10 !
#382900000
b1 #
b11 !
#382910000
b10 #
#382960000
b11 #
#382970000
b100 !
#382980000
b0 #
#383020000
b101 !
#383090000
b110 !
#383100000
b1 !
b1101010 "
#383110000
b10 !
#383120000
b1 #
b11 !
#383130000
b10 #
#383890000
b11 #
#383900000
b100 !
#383910000
b0 #
#384010000
b101 !
#384020000
b110 !
#384030000
b1101011 "
b1 !
#384040000
b10 !
#384050000
b11 !
b1 #
#384060000
b10 #
#384350000
b11 #
#384360000
b100 !
#384370000
b0 #
#384430000
b101 !
#384440000
b110 !
#384450000
b1101100 "
b1 !
#384460000
b10 !
#384470000
b11 !
b1 #
#384480000
b10 #
#384830000
b11 #
#384840000
b100 !
#384850000
b0 #
#384920000
b101 !
#384930000
b110 !
#384940000
b1 !
b1101101 "
#384950000
b10 !
#384960000
b1 #
b11 !
#384970000
b10 #
#385390000
b11 #
#385400000
b100 !
#385410000
b0 #
#385500000
b101 !
#385510000
b110 !
#385520000
b1 !
b1101110 "
#385530000
b10 !
#385540000
b1 #
b11 !
#385550000
b10 #
#385920000
b11 #
#385930000
b100 !
#385940000
b0 #
#385990000
b101 !
#386000000
b110 !
#386010000
b1101111 "
b1 !
#386020000
b10 !
#386030000
b11 !
b1 #
#386040000
b10 #
#386180000
b11 #
#386190000
b100 !
#386200000
b0 #
#386230000
b101 !
#386270000
b110 !
#386280000
b1 !
b1110000 "
#386290000
b10 !
#386300000
b1 #
b11 !
#386310000
b10 #
#386480000
b11 #
#386490000
b100 !
#386500000
b0 #
#386560000
b101 !
#386570000
b110 !
#386580000
b1 !
b1110001 "
#386590000
b10 !
#386600000
b1 #
b11 !
#386610000
b10 #
#386690000
b11 #
#386700000
b100 !
#386710000
b0 #
#386740000
b101 !
#386830000
b110 !
#386840000
b1 !
b1110010 "
#386850000
b10 !
#386860000
b1 #
b11 !
#386870000
b10 #
#387000000
b11 #
#387010000
b100 !
#387020000
b0 #
#387060000
b101 !
#387070000
b110 !
#387080000
b1 !
b1110011 "
#387090000
b10 !
#387100000
b1 #
b11 !
#387110000
b10 #
#387820000
b11 #
#387830000
b100 !
#387840000
b0 #
#387950000
b101 !
#387960000
b110 !
#387970000
b1110100 "
b1 !
#387980000
b10 !
#387990000
b11 !
b1 #
#388000000
b10 #
#388100000
b11 #
#388110000
b100 !
#388120000
b0 #
#388160000
b101 !
#388260000
b110 !
#388270000
b1110101 "
b1 !
#388280000
b10 !
#388290000
b11 !
b1 #
#388300000
b10 #
#388610000
b11 #
#388620000
b100 !
#388630000
b0 #
#388710000
b101 !
#388720000
b110 !
#388730000
b1110110 "
b1 !
#388740000
b10 !
#388750000
b11 !
b1 #
#388760000
b10 #
#388960000
b11 #
#388970000
b100 !
#388980000
b0 #
#389030000
b101 !
#389040000
b110 !
#389050000
b1110111 "
b1 !
#389060000
b10 !
#389070000
b11 !
b1 #
#389080000
b10 #
#389760000
b11 #
#389770000
b100 !
#389780000
b0 #
#389900000
b101 !
#389910000
b110 !
#389920000
b1 !
b1111000 "
#389930000
b10 !
#389940000
b1 #
b11 !
#389950000
b10 #
#390410000
b11 #
#390420000
b100 !
#390430000
b0 #
#390510000
b101 !
#390520000
b110 !
#390530000
b1111001 "
b1 !
#390540000
b10 !
#390550000
b11 !
b1 #
#390560000
b10 #
#391000000
b11 #
#391010000
b100 !
#391020000
b0 #
#391130000
b101 !
#391140000
b110 !
#391150000
b1111010 "
b1 !
#391160000
b10 !
#391170000
b11 !
b1 #
#391180000
b10 #
#391590000
b11 #
#391600000
b100 !
#391610000
b0 #
#391680000
b101 !
#391690000
b110 !
#391700000
b1 !
b1111011 "
#391710000
b10 !
#391720000
b1 #
b11 !
#391730000
b10 #
#392250000
b11 #
#392260000
b100 !
#392270000
b0 #
#392380000
b101 !
#392390000
b110 !
#392400000
b1 !
b1111100 "
#392410000
b10 !
#392420000
b1 #
b11 !
#392430000
b10 #
#392820000
b11 #
#392830000
b100 !
#392840000
b0 #
#392920000
b101 !
#392930000
b110 !
#392940000
b1 !
b1111101 "
#392950000
b10 !
#392960000
b1 #
b11 !
#392970000
b10 #
#393460000
b11 #
#393470000
b100 !
#393480000
b0 #
#393560000
b101 !
#393570000
b110 !
#393580000
b1 !
b1111110 "
#393590000
b10 !
#393600000
b1 #
b11 !
#393610000
b10 #
#394060000
b11 #
#394070000
b100 !
#394080000
b0 #
#394160000
b101 !
#394170000
b110 !
#394180000
b1 !
b1111111 "
#394190000
b10 !
#394200000
b1 #
b11 !
#394210000
b10 #
#394640000
b11 #
#394650000
b100 !
#394660000
b0 #
#394740000
b101 !
#394750000
b110 !
#394760000
b1 !
b10000000 "
#394770000
b10 !
#394780000
b1 #
b11 !
#394790000
b10 #
#395070000
b11 #
#395080000
b100 !
#395090000
b0 #
#395140000
b101 !
#395150000
b110 !
#395160000
b1 !
b10000001 "
#395170000
b10 !
#395180000
b1 #
b11 !
#395190000
b10 #
#395250000
b11 #
#395260000
b100 !
#395270000
b0 #
#395300000
b101 !
#395400000
b110 !
#395410000
b10000010 "
b1 !
#395420000
b10 !
#395430000
b11 !
b1 #
#395440000
b10 #
#395660000
b11 #
#395670000
b100 !
#395680000
b0 #
#395740000
b101 !
#395750000
b110 !
#395760000
b1 !
b10000011 "
#395770000
b10 !
#395780000
b1 #
b11 !
#395790000
b10 #
#395850000
b11 #
#395860000
b100 !
#395870000
b0 #
#395910000
b101 !
#396020000
b110 !
#396030000
b10000100 "
b1 !
#396040000
b10 !
#396050000
b11 !
b1 #
#396060000
b10 #
#396390000
b11 #
#396400000
b100 !
#396410000
b0 #
#396500000
b101 !
#396510000
b110 !
#396520000
b1 !
b10000101 "
#396530000
b10 !
#396540000
b1 #
b11 !
#396550000
b10 #
#397130000
b11 #
#397140000
b100 !
#397150000
b0 #
#397260000
b101 !
#397270000
b110 !
#397280000
b1 !
b10000110 "
#397290000
b10 !
#397300000
b1 #
b11 !
#397310000
b10 #
#397740000
b11 #
#397750000
b100 !
#397760000
b0 #
#397820000
b101 !
#397830000
b110 !
#397840000
b1 !
b10000111 "
#397850000
b10 !
#397860000
b1 #
b11 !
#397870000
b10 #
#398380000
b11 #
#398390000
b100 !
#398400000
b0 #
#398490000
b101 !
#398500000
b110 !
#398510000
b10001000 "
b1 !
#398520000
b10 !
#398530000
b11 !
b1 #
#398540000
b10 #
#398750000
b11 #
#398760000
b100 !
#398770000
b0 #
#398820000
b101 !
#398860000
b110 !
#398870000
b10001001 "
b1 !
#398880000
b10 !
#398890000
b11 !
b1 #
#398900000
b10 #
#398960000
b11 #
#398970000
b100 !
#398980000
b0 #
#398990000
b101 !
#399050000
b110 !
#399060000
b1 !
b10001010 "
#399070000
b10 !
#399080000
b1 #
b11 !
#399090000
b10 #
#399760000
b11 #
#399770000
b100 !
#399780000
b0 #
#399910000
b101 !
#399920000
b110 !
#399930000
b10001011 "
b1 !
#399940000
b10 !
#399950000
b11 !
b1 #
#399960000
b10 #
#400700000
b11 #
#400710000
b100 !
#400720000
b0 #
#400820000
b101 !
#400830000
b110 !
#400840000
b1 !
b10001100 "
#400850000
b10 !
#400860000
b1 #
b11 !
#400870000
b10 #
#401560000
b11 #
#401570000
b100 !
#401580000
b0 #
#401700000
b101 !
#401710000
b110 !
#401720000
b1 !
b10001101 "
#401730000
b10 !
#401740000
b1 #
b11 !
#401750000
b10 #
#401940000
b11 #
#401950000
b100 !
#401960000
b0 #
#402010000
b101 !
#402020000
b110 !
#402030000
b10001110 "
b1 !
#402040000
b10 !
#402050000
b11 !
b1 #
#402060000
b10 #
#402610000
b11 #
#402620000
b100 !
#402630000
b0 #
#402710000
b101 !
#402720000
b110 !
#402730000
b10001111 "
b1 !
#402740000
b10 !
#402750000
b11 !
b1 #
#402760000
b10 #
#402810000
b11 #
#402820000
b100 !
#402830000
b0 #
#402840000
b101 !
#403030000
b110 !
#403040000
b1 !
b10010000 "
