test/pe_sim/sim_build/pe_dump.vcd
$date
	Wed Jun 17 09:52:43 2026
$end
$version
	Icarus Verilog
$end
$timescale
	1ps
$end
$scope module tb_pe_top $end
$scope module u_pe $end
$var reg 4 ! state [3:0] $end
$upscope $end
$upscope $end
$scope module tb_pe_top $end
$scope module u_pe $end
$var reg 7 " row_idx [6:0] $end
$upscope $end
$upscope $end
$scope module tb_pe_top $end
$scope module u_pe $end
$var reg 16 # a_nnz_left [15:0] $end
$upscope $end
$upscope $end
$scope module tb_pe_top $end
$scope module u_pe $end
$var reg 16 $ b_nnz_left [15:0] $end
$upscope $end
$upscope $end
$scope module tb_pe_top $end
$scope module u_pe $end
$var wire 1 % cbuf_wr_valid $end
$upscope $end
$upscope $end
$scope module tb_pe_top $end
$scope module u_pe $end
$var reg 1 & done $end
$upscope $end
$upscope $end
$enddefinitions $end
$comment Show the parameter values. $end
$dumpall
$end
#0
$dumpvars
0&
0%
b0 $
b0 #
b0 "
b0 !
$end
#31150000
b1 !
#31160000
b1111 #
#31170000
b10 !
#31680000
b11 !
#31700000
b100 !
#31710000
b1111 $
#31720000
b101 !
#31730000
b1110 $
#31740000
b1101 $
#31750000
b1100 $
#31760000
b1011 $
#31770000
b1010 $
#31780000
b1001 $
#31790000
b1000 $
#31800000
b111 $
#31810000
b110 $
#31820000
b101 $
#31830000
b100 $
#31840000
b11 $
#31850000
b10 $
#31860000
b1 $
#31870000
b0 $
#31880000
b110 !
b1110 #
#31900000
b11 !
#31920000
b100 !
#31930000
b1111 $
#31940000
b101 !
#31950000
b1110 $
#31960000
b1101 $
#31970000
b1100 $
#31980000
b1011 $
#31990000
b1010 $
#32000000
b1001 $
#32010000
b1000 $
#32020000
b111 $
#32030000
b110 $
#32040000
b101 $
#32050000
b100 $
#32060000
b11 $
#32070000
b10 $
#32080000
b1 $
#32090000
b0 $
#32100000
b110 !
b1101 #
#32120000
b11 !
#32140000
b100 !
#32150000
b1111 $
#32160000
b101 !
#32170000
b1110 $
#32180000
b1101 $
#32190000
b1100 $
#32200000
b1011 $
#32210000
b1010 $
#32220000
b1001 $
#32230000
b1000 $
#32240000
b111 $
#32250000
b110 $
#32260000
b101 $
#32270000
b100 $
#32280000
b11 $
#32290000
b10 $
#32300000
b1 $
#32310000
b0 $
#32320000
b110 !
b1100 #
#32340000
b11 !
#32360000
b100 !
#32370000
b1111 $
#32380000
b101 !
#32390000
b1110 $
#32400000
b1101 $
#32410000
b1100 $
#32420000
b1011 $
#32430000
b1010 $
#32440000
b1001 $
#32450000
b1000 $
#32460000
b111 $
#32470000
b110 $
#32480000
b101 $
#32490000
b100 $
#32500000
b11 $
#32510000
b10 $
#32520000
b1 $
#32530000
b0 $
#32540000
b110 !
b1011 #
#32560000
b11 !
#32580000
b100 !
#32590000
b1111 $
#32600000
b101 !
#32610000
b1110 $
#32620000
b1101 $
#32630000
b1100 $
#32640000
b1011 $
#32650000
b1010 $
#32660000
b1001 $
#32670000
b1000 $
#32680000
b111 $
#32690000
b110 $
#32700000
b101 $
#32710000
b100 $
#32720000
b11 $
#32730000
b10 $
#32740000
b1 $
#32750000
b0 $
#32760000
b110 !
b1010 #
#32780000
b11 !
#32800000
b100 !
#32810000
b1111 $
#32820000
b101 !
#32830000
b1110 $
#32840000
b1101 $
#32850000
b1100 $
#32860000
b1011 $
#32870000
b1010 $
#32880000
b1001 $
#32890000
b1000 $
#32900000
b111 $
#32910000
b110 $
#32920000
b101 $
#32930000
b100 $
#32940000
b11 $
#32950000
b10 $
#32960000
b1 $
#32970000
b0 $
#32980000
b110 !
b1001 #
#33000000
b11 !
#33020000
b100 !
#33030000
b1111 $
#33040000
b101 !
#33050000
b1110 $
#33060000
b1101 $
#33070000
b1100 $
#33080000
b1011 $
#33090000
b1010 $
#33100000
b1001 $
#33110000
b1000 $
#33120000
b111 $
#33130000
b110 $
#33140000
b101 $
#33150000
b100 $
#33160000
b11 $
#33170000
b10 $
#33180000
b1 $
#33190000
b0 $
#33200000
b110 !
b1000 #
#33220000
b11 !
#33240000
b100 !
#33250000
b1111 $
#33260000
b101 !
#33270000
b1110 $
#33280000
b1101 $
#33290000
b1100 $
#33300000
b1011 $
#33310000
b1010 $
#33320000
b1001 $
#33330000
b1000 $
#33340000
b111 $
#33350000
b110 $
#33360000
b101 $
#33370000
b100 $
#33380000
b11 $
#33390000
b10 $
#33400000
b1 $
#33410000
b0 $
#33420000
b110 !
b111 #
#33440000
b11 !
#33460000
b100 !
#33470000
b1111 $
#33480000
b101 !
#33490000
b1110 $
#33500000
b1101 $
#33510000
b1100 $
#33520000
b1011 $
#33530000
b1010 $
#33540000
b1001 $
#33550000
b1000 $
#33560000
b111 $
#33570000
b110 $
#33580000
b101 $
#33590000
b100 $
#33600000
b11 $
#33610000
b10 $
#33620000
b1 $
#33630000
b0 $
#33640000
b110 !
b110 #
#33660000
b11 !
#33680000
b100 !
#33690000
b1111 $
#33700000
b101 !
#33710000
b1110 $
#33720000
b1101 $
#33730000
b1100 $
#33740000
b1011 $
#33750000
b1010 $
#33760000
b1001 $
#33770000
b1000 $
#33780000
b111 $
#33790000
b110 $
#33800000
b101 $
#33810000
b100 $
#33820000
b11 $
#33830000
b10 $
#33840000
b1 $
#33850000
b0 $
#33860000
b110 !
b101 #
#33880000
b11 !
#33900000
b100 !
#33910000
b1111 $
#33920000
b101 !
#33930000
b1110 $
#33940000
b1101 $
#33950000
b1100 $
#33960000
b1011 $
#33970000
b1010 $
#33980000
b1001 $
#33990000
b1000 $
#34000000
b111 $
#34010000
b110 $
#34020000
b101 $
#34030000
b100 $
#34040000
b11 $
#34050000
b10 $
#34060000
b1 $
#34070000
b0 $
#34080000
b110 !
b100 #
#34100000
b11 !
#34120000
b100 !
#34130000
b1111 $
#34140000
b101 !
#34150000
b1110 $
#34160000
b1101 $
#34170000
b1100 $
#34180000
b1011 $
#34190000
b1010 $
#34200000
b1001 $
#34210000
b1000 $
#34220000
b111 $
#34230000
b110 $
#34240000
b101 $
#34250000
b100 $
#34260000
b11 $
#34270000
b10 $
#34280000
b1 $
#34290000
b0 $
#34300000
b110 !
b11 #
#34320000
b11 !
#34340000
b100 !
#34350000
b1111 $
#34360000
b101 !
#34370000
b1110 $
#34380000
b1101 $
#34390000
b1100 $
#34400000
b1011 $
#34410000
b1010 $
#34420000
b1001 $
#34430000
b1000 $
#34440000
b111 $
#34450000
b110 $
#34460000
b101 $
#34470000
b100 $
#34480000
b11 $
#34490000
b10 $
#34500000
b1 $
#34510000
b0 $
#34520000
b110 !
b10 #
#34540000
b11 !
#34560000
b100 !
#34570000
b1111 $
#34580000
b101 !
#34590000
b1110 $
#34600000
b1101 $
#34610000
b1100 $
#34620000
b1011 $
#34630000
b1010 $
#34640000
b1001 $
#34650000
b1000 $
#34660000
b111 $
#34670000
b110 $
#34680000
b101 $
#34690000
b100 $
#34700000
b11 $
#34710000
b10 $
#34720000
b1 $
#34730000
b0 $
#34740000
b110 !
b1 #
#34760000
b11 !
#34780000
b100 !
#34790000
b1111 $
#34800000
b101 !
#34810000
b1110 $
#34820000
b1101 $
#34830000
b1100 $
#34840000
b1011 $
#34850000
b1010 $
#34860000
b1001 $
#34870000
b1000 $
#34880000
b111 $
#34890000
b110 $
#34900000
b101 $
#34910000
b100 $
#34920000
b11 $
#34930000
b10 $
#34940000
b1 $
#34950000
b0 $
#34960000
b110 !
b0 #
#34980000
b111 !
#35000000
b1000 !
#38720000
1%
b1001 !
#39220000
0%
b1010 !
#39230000
b1 "
#39240000
b1 !
#39250000
b1111 #
#39260000
b10 !
#39770000
b11 !
#39790000
b100 !
#39800000
b1111 $
#39810000
b101 !
#39820000
b1110 $
#39830000
b1101 $
#39840000
b1100 $
#39850000
b1011 $
#39860000
b1010 $
#39870000
b1001 $
#39880000
b1000 $
#39890000
b111 $
#39900000
b110 $
#39910000
b101 $
#39920000
b100 $
#39930000
b11 $
#39940000
b10 $
#39950000
b1 $
#39960000
b0 $
#39970000
b1110 #
b110 !
#39990000
b11 !
#40010000
b100 !
#40020000
b1111 $
#40030000
b101 !
#40040000
b1110 $
#40050000
b1101 $
#40060000
b1100 $
#40070000
b1011 $
#40080000
b1010 $
#40090000
b1001 $
#40100000
b1000 $
#40110000
b111 $
#40120000
b110 $
#40130000
b101 $
#40140000
b100 $
#40150000
b11 $
#40160000
b10 $
#40170000
b1 $
#40180000
b0 $
#40190000
b1101 #
b110 !
#40210000
b11 !
#40230000
b100 !
#40240000
b1111 $
#40250000
b101 !
#40260000
b1110 $
#40270000
b1101 $
#40280000
b1100 $
#40290000
b1011 $
#40300000
b1010 $
#40310000
b1001 $
#40320000
b1000 $
#40330000
b111 $
#40340000
b110 $
#40350000
b101 $
#40360000
b100 $
#40370000
b11 $
#40380000
b10 $
#40390000
b1 $
#40400000
b0 $
#40410000
b1100 #
b110 !
#40430000
b11 !
#40450000
b100 !
#40460000
b1111 $
#40470000
b101 !
#40480000
b1110 $
#40490000
b1101 $
#40500000
b1100 $
#40510000
b1011 $
#40520000
b1010 $
#40530000
b1001 $
#40540000
b1000 $
#40550000
b111 $
#40560000
b110 $
#40570000
b101 $
#40580000
b100 $
#40590000
b11 $
#40600000
b10 $
#40610000
b1 $
#40620000
b0 $
#40630000
b1011 #
b110 !
#40650000
b11 !
#40670000
b100 !
#40680000
b1111 $
#40690000
b101 !
#40700000
b1110 $
#40710000
b1101 $
#40720000
b1100 $
#40730000
b1011 $
#40740000
b1010 $
#40750000
b1001 $
#40760000
b1000 $
#40770000
b111 $
#40780000
b110 $
#40790000
b101 $
#40800000
b100 $
#40810000
b11 $
#40820000
b10 $
#40830000
b1 $
#40840000
b0 $
#40850000
b1010 #
b110 !
#40870000
b11 !
#40890000
b100 !
#40900000
b1111 $
#40910000
b101 !
#40920000
b1110 $
#40930000
b1101 $
#40940000
b1100 $
#40950000
b1011 $
#40960000
b1010 $
#40970000
b1001 $
#40980000
b1000 $
#40990000
b111 $
#41000000
b110 $
#41010000
b101 $
#41020000
b100 $
#41030000
b11 $
#41040000
b10 $
#41050000
b1 $
#41060000
b0 $
#41070000
b1001 #
b110 !
#41090000
b11 !
#41110000
b100 !
#41120000
b1111 $
#41130000
b101 !
#41140000
b1110 $
#41150000
b1101 $
#41160000
b1100 $
#41170000
b1011 $
#41180000
b1010 $
#41190000
b1001 $
#41200000
b1000 $
#41210000
b111 $
#41220000
b110 $
#41230000
b101 $
#41240000
b100 $
#41250000
b11 $
#41260000
b10 $
#41270000
b1 $
#41280000
b0 $
#41290000
b1000 #
b110 !
#41310000
b11 !
#41330000
b100 !
#41340000
b1111 $
#41350000
b101 !
#41360000
b1110 $
#41370000
b1101 $
#41380000
b1100 $
#41390000
b1011 $
#41400000
b1010 $
#41410000
b1001 $
#41420000
b1000 $
#41430000
b111 $
#41440000
b110 $
#41450000
b101 $
#41460000
b100 $
#41470000
b11 $
#41480000
b10 $
#41490000
b1 $
#41500000
b0 $
#41510000
b111 #
b110 !
#41530000
b11 !
#41550000
b100 !
#41560000
b1111 $
#41570000
b101 !
#41580000
b1110 $
#41590000
b1101 $
#41600000
b1100 $
#41610000
b1011 $
#41620000
b1010 $
#41630000
b1001 $
#41640000
b1000 $
#41650000
b111 $
#41660000
b110 $
#41670000
b101 $
#41680000
b100 $
#41690000
b11 $
#41700000
b10 $
#41710000
b1 $
#41720000
b0 $
#41730000
b110 #
b110 !
#41750000
b11 !
#41770000
b100 !
#41780000
b1111 $
#41790000
b101 !
#41800000
b1110 $
#41810000
b1101 $
#41820000
b1100 $
#41830000
b1011 $
#41840000
b1010 $
#41850000
b1001 $
#41860000
b1000 $
#41870000
b111 $
#41880000
b110 $
#41890000
b101 $
#41900000
b100 $
#41910000
b11 $
#41920000
b10 $
#41930000
b1 $
#41940000
b0 $
#41950000
b101 #
b110 !
#41970000
b11 !
#41990000
b100 !
#42000000
b1111 $
#42010000
b101 !
#42020000
b1110 $
#42030000
b1101 $
#42040000
b1100 $
#42050000
b1011 $
#42060000
b1010 $
#42070000
b1001 $
#42080000
b1000 $
#42090000
b111 $
#42100000
b110 $
#42110000
b101 $
#42120000
b100 $
#42130000
b11 $
#42140000
b10 $
#42150000
b1 $
#42160000
b0 $
#42170000
b100 #
b110 !
#42190000
b11 !
#42210000
b100 !
#42220000
b1111 $
#42230000
b101 !
#42240000
b1110 $
#42250000
b1101 $
#42260000
b1100 $
#42270000
b1011 $
#42280000
b1010 $
#42290000
b1001 $
#42300000
b1000 $
#42310000
b111 $
#42320000
b110 $
#42330000
b101 $
#42340000
b100 $
#42350000
b11 $
#42360000
b10 $
#42370000
b1 $
#42380000
b0 $
#42390000
b11 #
b110 !
#42410000
b11 !
#42430000
b100 !
#42440000
b1111 $
#42450000
b101 !
#42460000
b1110 $
#42470000
b1101 $
#42480000
b1100 $
#42490000
b1011 $
#42500000
b1010 $
#42510000
b1001 $
#42520000
b1000 $
#42530000
b111 $
#42540000
b110 $
#42550000
b101 $
#42560000
b100 $
#42570000
b11 $
#42580000
b10 $
#42590000
b1 $
#42600000
b0 $
#42610000
b10 #
b110 !
#42630000
b11 !
#42650000
b100 !
#42660000
b1111 $
#42670000
b101 !
#42680000
b1110 $
#42690000
b1101 $
#42700000
b1100 $
#42710000
b1011 $
#42720000
b1010 $
#42730000
b1001 $
#42740000
b1000 $
#42750000
b111 $
#42760000
b110 $
#42770000
b101 $
#42780000
b100 $
#42790000
b11 $
#42800000
b10 $
#42810000
b1 $
#42820000
b0 $
#42830000
b1 #
b110 !
#42850000
b11 !
#42870000
b100 !
#42880000
b1111 $
#42890000
b101 !
#42900000
b1110 $
#42910000
b1101 $
#42920000
b1100 $
#42930000
b1011 $
#42940000
b1010 $
#42950000
b1001 $
#42960000
b1000 $
#42970000
b111 $
#42980000
b110 $
#42990000
b101 $
#43000000
b100 $
#43010000
b11 $
#43020000
b10 $
#43030000
b1 $
#43040000
b0 $
#43050000
b0 #
b110 !
#43070000
b111 !
#43090000
b1000 !
#46810000
1%
b1001 !
#47310000
0%
b1010 !
#47320000
b10 "
#47330000
b1 !
#47340000
b1111 #
#47350000
b10 !
#47860000
b11 !
#47880000
b100 !
#47890000
b1111 $
#47900000
b101 !
#47910000
b1110 $
#47920000
b1101 $
#47930000
b1100 $
#47940000
b1011 $
#47950000
b1010 $
#47960000
b1001 $
#47970000
b1000 $
#47980000
b111 $
#47990000
b110 $
#48000000
b101 $
#48010000
b100 $
#48020000
b11 $
#48030000
b10 $
#48040000
b1 $
#48050000
b0 $
#48060000
b110 !
b1110 #
#48080000
b11 !
#48100000
b100 !
#48110000
b1111 $
#48120000
b101 !
#48130000
b1110 $
#48140000
b1101 $
#48150000
b1100 $
#48160000
b1011 $
#48170000
b1010 $
#48180000
b1001 $
#48190000
b1000 $
#48200000
b111 $
#48210000
b110 $
#48220000
b101 $
#48230000
b100 $
#48240000
b11 $
#48250000
b10 $
#48260000
b1 $
#48270000
b0 $
#48280000
b110 !
b1101 #
#48300000
b11 !
#48320000
b100 !
#48330000
b1111 $
#48340000
b101 !
#48350000
b1110 $
#48360000
b1101 $
#48370000
b1100 $
#48380000
b1011 $
#48390000
b1010 $
#48400000
b1001 $
#48410000
b1000 $
#48420000
b111 $
#48430000
b110 $
#48440000
b101 $
#48450000
b100 $
#48460000
b11 $
#48470000
b10 $
#48480000
b1 $
#48490000
b0 $
#48500000
b110 !
b1100 #
#48520000
b11 !
#48540000
b100 !
#48550000
b1111 $
#48560000
b101 !
#48570000
b1110 $
#48580000
b1101 $
#48590000
b1100 $
#48600000
b1011 $
#48610000
b1010 $
#48620000
b1001 $
#48630000
b1000 $
#48640000
b111 $
#48650000
b110 $
#48660000
b101 $
#48670000
b100 $
#48680000
b11 $
#48690000
b10 $
#48700000
b1 $
#48710000
b0 $
#48720000
b110 !
b1011 #
#48740000
b11 !
#48760000
b100 !
#48770000
b1111 $
#48780000
b101 !
#48790000
b1110 $
#48800000
b1101 $
#48810000
b1100 $
#48820000
b1011 $
#48830000
b1010 $
#48840000
b1001 $
#48850000
b1000 $
#48860000
b111 $
#48870000
b110 $
#48880000
b101 $
#48890000
b100 $
#48900000
b11 $
#48910000
b10 $
#48920000
b1 $
#48930000
b0 $
#48940000
b110 !
b1010 #
#48960000
b11 !
#48980000
b100 !
#48990000
b1111 $
#49000000
b101 !
#49010000
b1110 $
#49020000
b1101 $
#49030000
b1100 $
#49040000
b1011 $
#49050000
b1010 $
#49060000
b1001 $
#49070000
b1000 $
#49080000
b111 $
#49090000
b110 $
#49100000
b101 $
#49110000
b100 $
#49120000
b11 $
#49130000
b10 $
#49140000
b1 $
#49150000
b0 $
#49160000
b110 !
b1001 #
#49180000
b11 !
#49200000
b100 !
#49210000
b1111 $
#49220000
b101 !
#49230000
b1110 $
#49240000
b1101 $
#49250000
b1100 $
#49260000
b1011 $
#49270000
b1010 $
#49280000
b1001 $
#49290000
b1000 $
#49300000
b111 $
#49310000
b110 $
#49320000
b101 $
#49330000
b100 $
#49340000
b11 $
#49350000
b10 $
#49360000
b1 $
#49370000
b0 $
#49380000
b110 !
b1000 #
#49400000
b11 !
#49420000
b100 !
#49430000
b1111 $
#49440000
b101 !
#49450000
b1110 $
#49460000
b1101 $
#49470000
b1100 $
#49480000
b1011 $
#49490000
b1010 $
#49500000
b1001 $
#49510000
b1000 $
#49520000
b111 $
#49530000
b110 $
#49540000
b101 $
#49550000
b100 $
#49560000
b11 $
#49570000
b10 $
#49580000
b1 $
#49590000
b0 $
#49600000
b110 !
b111 #
#49620000
b11 !
#49640000
b100 !
#49650000
b1111 $
#49660000
b101 !
#49670000
b1110 $
#49680000
b1101 $
#49690000
b1100 $
#49700000
b1011 $
#49710000
b1010 $
#49720000
b1001 $
#49730000
b1000 $
#49740000
b111 $
#49750000
b110 $
#49760000
b101 $
#49770000
b100 $
#49780000
b11 $
#49790000
b10 $
#49800000
b1 $
#49810000
b0 $
#49820000
b110 !
b110 #
#49840000
b11 !
#49860000
b100 !
#49870000
b1111 $
#49880000
b101 !
#49890000
b1110 $
#49900000
b1101 $
#49910000
b1100 $
#49920000
b1011 $
#49930000
b1010 $
#49940000
b1001 $
#49950000
b1000 $
#49960000
b111 $
#49970000
b110 $
#49980000
b101 $
#49990000
b100 $
#50000000
b11 $
#50010000
b10 $
#50020000
b1 $
#50030000
b0 $
#50040000
b110 !
b101 #
#50060000
b11 !
#50080000
b100 !
#50090000
b1111 $
#50100000
b101 !
#50110000
b1110 $
#50120000
b1101 $
#50130000
b1100 $
#50140000
b1011 $
#50150000
b1010 $
#50160000
b1001 $
#50170000
b1000 $
#50180000
b111 $
#50190000
b110 $
#50200000
b101 $
#50210000
b100 $
#50220000
b11 $
#50230000
b10 $
#50240000
b1 $
#50250000
b0 $
#50260000
b110 !
b100 #
#50280000
b11 !
#50300000
b100 !
#50310000
b1111 $
#50320000
b101 !
#50330000
b1110 $
#50340000
b1101 $
#50350000
b1100 $
#50360000
b1011 $
#50370000
b1010 $
#50380000
b1001 $
#50390000
b1000 $
#50400000
b111 $
#50410000
b110 $
#50420000
b101 $
#50430000
b100 $
#50440000
b11 $
#50450000
b10 $
#50460000
b1 $
#50470000
b0 $
#50480000
b110 !
b11 #
#50500000
b11 !
#50520000
b100 !
#50530000
b1111 $
#50540000
b101 !
#50550000
b1110 $
#50560000
b1101 $
#50570000
b1100 $
#50580000
b1011 $
#50590000
b1010 $
#50600000
b1001 $
#50610000
b1000 $
#50620000
b111 $
#50630000
b110 $
#50640000
b101 $
#50650000
b100 $
#50660000
b11 $
#50670000
b10 $
#50680000
b1 $
#50690000
b0 $
#50700000
b110 !
b10 #
#50720000
b11 !
#50740000
b100 !
#50750000
b1111 $
#50760000
b101 !
#50770000
b1110 $
#50780000
b1101 $
#50790000
b1100 $
#50800000
b1011 $
#50810000
b1010 $
#50820000
b1001 $
#50830000
b1000 $
#50840000
b111 $
#50850000
b110 $
#50860000
b101 $
#50870000
b100 $
#50880000
b11 $
#50890000
b10 $
#50900000
b1 $
#50910000
b0 $
#50920000
b110 !
b1 #
#50940000
b11 !
#50960000
b100 !
#50970000
b1111 $
#50980000
b101 !
#50990000
b1110 $
#51000000
b1101 $
#51010000
b1100 $
#51020000
b1011 $
#51030000
b1010 $
#51040000
b1001 $
#51050000
b1000 $
#51060000
b111 $
#51070000
b110 $
#51080000
b101 $
#51090000
b100 $
#51100000
b11 $
#51110000
b10 $
#51120000
b1 $
#51130000
b0 $
#51140000
b110 !
b0 #
#51160000
b111 !
#51180000
b1000 !
#54900000
1%
b1001 !
#55400000
0%
b1010 !
#55410000
b11 "
#55420000
b1 !
#55430000
b1111 #
#55440000
b10 !
#55950000
b11 !
#55970000
b100 !
#55980000
b1111 $
#55990000
b101 !
#56000000
b1110 $
#56010000
b1101 $
#56020000
b1100 $
#56030000
b1011 $
#56040000
b1010 $
#56050000
b1001 $
#56060000
b1000 $
#56070000
b111 $
#56080000
b110 $
#56090000
b101 $
#56100000
b100 $
#56110000
b11 $
#56120000
b10 $
#56130000
b1 $
#56140000
b0 $
#56150000
b1110 #
b110 !
#56170000
b11 !
#56190000
b100 !
#56200000
b1111 $
#56210000
b101 !
#56220000
b1110 $
#56230000
b1101 $
#56240000
b1100 $
#56250000
b1011 $
#56260000
b1010 $
#56270000
b1001 $
#56280000
b1000 $
#56290000
b111 $
#56300000
b110 $
#56310000
b101 $
#56320000
b100 $
#56330000
b11 $
#56340000
b10 $
#56350000
b1 $
#56360000
b0 $
#56370000
b1101 #
b110 !
#56390000
b11 !
#56410000
b100 !
#56420000
b1111 $
#56430000
b101 !
#56440000
b1110 $
#56450000
b1101 $
#56460000
b1100 $
#56470000
b1011 $
#56480000
b1010 $
#56490000
b1001 $
#56500000
b1000 $
#56510000
b111 $
#56520000
b110 $
#56530000
b101 $
#56540000
b100 $
#56550000
b11 $
#56560000
b10 $
#56570000
b1 $
#56580000
b0 $
#56590000
b1100 #
b110 !
#56610000
b11 !
#56630000
b100 !
#56640000
b1111 $
#56650000
b101 !
#56660000
b1110 $
#56670000
b1101 $
#56680000
b1100 $
#56690000
b1011 $
#56700000
b1010 $
#56710000
b1001 $
#56720000
b1000 $
#56730000
b111 $
#56740000
b110 $
#56750000
b101 $
#56760000
b100 $
#56770000
b11 $
#56780000
b10 $
#56790000
b1 $
#56800000
b0 $
#56810000
b1011 #
b110 !
#56830000
b11 !
#56850000
b100 !
#56860000
b1111 $
#56870000
b101 !
#56880000
b1110 $
#56890000
b1101 $
#56900000
b1100 $
#56910000
b1011 $
#56920000
b1010 $
#56930000
b1001 $
#56940000
b1000 $
#56950000
b111 $
#56960000
b110 $
#56970000
b101 $
#56980000
b100 $
#56990000
b11 $
#57000000
b10 $
#57010000
b1 $
#57020000
b0 $
#57030000
b1010 #
b110 !
#57050000
b11 !
#57070000
b100 !
#57080000
b1111 $
#57090000
b101 !
#57100000
b1110 $
#57110000
b1101 $
#57120000
b1100 $
#57130000
b1011 $
#57140000
b1010 $
#57150000
b1001 $
#57160000
b1000 $
#57170000
b111 $
#57180000
b110 $
#57190000
b101 $
#57200000
b100 $
#57210000
b11 $
#57220000
b10 $
#57230000
b1 $
#57240000
b0 $
#57250000
b1001 #
b110 !
#57270000
b11 !
#57290000
b100 !
#57300000
b1111 $
#57310000
b101 !
#57320000
b1110 $
#57330000
b1101 $
#57340000
b1100 $
#57350000
b1011 $
#57360000
b1010 $
#57370000
b1001 $
#57380000
b1000 $
#57390000
b111 $
#57400000
b110 $
#57410000
b101 $
#57420000
b100 $
#57430000
b11 $
#57440000
b10 $
#57450000
b1 $
#57460000
b0 $
#57470000
b1000 #
b110 !
#57490000
b11 !
#57510000
b100 !
#57520000
b1111 $
#57530000
b101 !
#57540000
b1110 $
#57550000
b1101 $
#57560000
b1100 $
#57570000
b1011 $
#57580000
b1010 $
#57590000
b1001 $
#57600000
b1000 $
#57610000
b111 $
#57620000
b110 $
#57630000
b101 $
#57640000
b100 $
#57650000
b11 $
#57660000
b10 $
#57670000
b1 $
#57680000
b0 $
#57690000
b111 #
b110 !
#57710000
b11 !
#57730000
b100 !
#57740000
b1111 $
#57750000
b101 !
#57760000
b1110 $
#57770000
b1101 $
#57780000
b1100 $
#57790000
b1011 $
#57800000
b1010 $
#57810000
b1001 $
#57820000
b1000 $
#57830000
b111 $
#57840000
b110 $
#57850000
b101 $
#57860000
b100 $
#57870000
b11 $
#57880000
b10 $
#57890000
b1 $
#57900000
b0 $
#57910000
b110 #
b110 !
#57930000
b11 !
#57950000
b100 !
#57960000
b1111 $
#57970000
b101 !
#57980000
b1110 $
#57990000
b1101 $
#58000000
b1100 $
#58010000
b1011 $
#58020000
b1010 $
#58030000
b1001 $
#58040000
b1000 $
#58050000
b111 $
#58060000
b110 $
#58070000
b101 $
#58080000
b100 $
#58090000
b11 $
#58100000
b10 $
#58110000
b1 $
#58120000
b0 $
#58130000
b101 #
b110 !
#58150000
b11 !
#58170000
b100 !
#58180000
b1111 $
#58190000
b101 !
#58200000
b1110 $
#58210000
b1101 $
#58220000
b1100 $
#58230000
b1011 $
#58240000
b1010 $
#58250000
b1001 $
#58260000
b1000 $
#58270000
b111 $
#58280000
b110 $
#58290000
b101 $
#58300000
b100 $
#58310000
b11 $
#58320000
b10 $
#58330000
b1 $
#58340000
b0 $
#58350000
b100 #
b110 !
#58370000
b11 !
#58390000
b100 !
#58400000
b1111 $
#58410000
b101 !
#58420000
b1110 $
#58430000
b1101 $
#58440000
b1100 $
#58450000
b1011 $
#58460000
b1010 $
#58470000
b1001 $
#58480000
b1000 $
#58490000
b111 $
#58500000
b110 $
#58510000
b101 $
#58520000
b100 $
#58530000
b11 $
#58540000
b10 $
#58550000
b1 $
#58560000
b0 $
#58570000
b11 #
b110 !
#58590000
b11 !
#58610000
b100 !
#58620000
b1111 $
#58630000
b101 !
#58640000
b1110 $
#58650000
b1101 $
#58660000
b1100 $
#58670000
b1011 $
#58680000
b1010 $
#58690000
b1001 $
#58700000
b1000 $
#58710000
b111 $
#58720000
b110 $
#58730000
b101 $
#58740000
b100 $
#58750000
b11 $
#58760000
b10 $
#58770000
b1 $
#58780000
b0 $
#58790000
b10 #
b110 !
#58810000
b11 !
#58830000
b100 !
#58840000
b1111 $
#58850000
b101 !
#58860000
b1110 $
#58870000
b1101 $
#58880000
b1100 $
#58890000
b1011 $
#58900000
b1010 $
#58910000
b1001 $
#58920000
b1000 $
#58930000
b111 $
#58940000
b110 $
#58950000
b101 $
#58960000
b100 $
#58970000
b11 $
#58980000
b10 $
#58990000
b1 $
#59000000
b0 $
#59010000
b1 #
b110 !
#59030000
b11 !
#59050000
b100 !
#59060000
b1111 $
#59070000
b101 !
#59080000
b1110 $
#59090000
b1101 $
#59100000
b1100 $
#59110000
b1011 $
#59120000
b1010 $
#59130000
b1001 $
#59140000
b1000 $
#59150000
b111 $
#59160000
b110 $
#59170000
b101 $
#59180000
b100 $
#59190000
b11 $
#59200000
b10 $
#59210000
b1 $
#59220000
b0 $
#59230000
b0 #
b110 !
#59250000
b111 !
#59270000
b1000 !
#62990000
1%
b1001 !
#63490000
0%
b1010 !
#63500000
b100 "
#63510000
b1 !
#63520000
b1111 #
#63530000
b10 !
#64040000
b11 !
#64060000
b100 !
#64070000
b1111 $
#64080000
b101 !
#64090000
b1110 $
#64100000
b1101 $
#64110000
b1100 $
#64120000
b1011 $
#64130000
b1010 $
#64140000
b1001 $
#64150000
b1000 $
#64160000
b111 $
#64170000
b110 $
#64180000
b101 $
#64190000
b100 $
#64200000
b11 $
#64210000
b10 $
#64220000
b1 $
#64230000
b0 $
#64240000
b110 !
b1110 #
#64260000
b11 !
#64280000
b100 !
#64290000
b1111 $
#64300000
b101 !
#64310000
b1110 $
#64320000
b1101 $
#64330000
b1100 $
#64340000
b1011 $
#64350000
b1010 $
#64360000
b1001 $
#64370000
b1000 $
#64380000
b111 $
#64390000
b110 $
#64400000
b101 $
#64410000
b100 $
#64420000
b11 $
#64430000
b10 $
#64440000
b1 $
#64450000
b0 $
#64460000
b110 !
b1101 #
#64480000
b11 !
#64500000
b100 !
#64510000
b1111 $
#64520000
b101 !
#64530000
b1110 $
#64540000
b1101 $
#64550000
b1100 $
#64560000
b1011 $
#64570000
b1010 $
#64580000
b1001 $
#64590000
b1000 $
#64600000
b111 $
#64610000
b110 $
#64620000
b101 $
#64630000
b100 $
#64640000
b11 $
#64650000
b10 $
#64660000
b1 $
#64670000
b0 $
#64680000
b110 !
b1100 #
#64700000
b11 !
#64720000
b100 !
#64730000
b1111 $
#64740000
b101 !
#64750000
b1110 $
#64760000
b1101 $
#64770000
b1100 $
#64780000
b1011 $
#64790000
b1010 $
#64800000
b1001 $
#64810000
b1000 $
#64820000
b111 $
#64830000
b110 $
#64840000
b101 $
#64850000
b100 $
#64860000
b11 $
#64870000
b10 $
#64880000
b1 $
#64890000
b0 $
#64900000
b110 !
b1011 #
#64920000
b11 !
#64940000
b100 !
#64950000
b1111 $
#64960000
b101 !
#64970000
b1110 $
#64980000
b1101 $
#64990000
b1100 $
#65000000
b1011 $
#65010000
b1010 $
#65020000
b1001 $
#65030000
b1000 $
#65040000
b111 $
#65050000
b110 $
#65060000
b101 $
#65070000
b100 $
#65080000
b11 $
#65090000
b10 $
#65100000
b1 $
#65110000
b0 $
#65120000
b110 !
b1010 #
#65140000
b11 !
#65160000
b100 !
#65170000
b1111 $
#65180000
b101 !
#65190000
b1110 $
#65200000
b1101 $
#65210000
b1100 $
#65220000
b1011 $
#65230000
b1010 $
#65240000
b1001 $
#65250000
b1000 $
#65260000
b111 $
#65270000
b110 $
#65280000
b101 $
#65290000
b100 $
#65300000
b11 $
#65310000
b10 $
#65320000
b1 $
#65330000
b0 $
#65340000
b110 !
b1001 #
#65360000
b11 !
