test/pe_sim/sim_build/pe_dump.vcd
$date
	Mon Jun 22 17:38:43 2026
$end
$version
	Icarus Verilog
$end
$timescale
	1ps
$end
$scope module tb_pe_top $end
$scope module u_pe $end
$var reg 4 ! state [3:0] $end
$upscope $end
$upscope $end
$scope module tb_pe_top $end
$scope module u_pe $end
$var reg 8 " row_idx [7:0] $end
$upscope $end
$upscope $end
$scope module tb_pe_top $end
$scope module u_pe $end
$var reg 16 # a_nnz_left [15:0] $end
$upscope $end
$upscope $end
$scope module tb_pe_top $end
$scope module u_pe $end
$var reg 16 $ b_nnz_left [15:0] $end
$upscope $end
$upscope $end
$scope module tb_pe_top $end
$scope module u_pe $end
$var wire 1 % cbuf_wr_valid $end
$upscope $end
$upscope $end
$scope module tb_pe_top $end
$scope module u_pe $end
$var reg 1 & done $end
$upscope $end
$upscope $end
$enddefinitions $end
$comment Show the parameter values. $end
$dumpall
$end
#0
$dumpvars
0&
0%
b0 $
b0 #
b0 "
b0 !
$end
#48100000
b1 !
#48110000
b1111 #
#48120000
b10 !
#48130000
b11 !
#48150000
b100 !
#48160000
b1 $
#48170000
b101 !
#48180000
b0 $
#48190000
b1110 #
b11 !
#48210000
b100 !
#48230000
b101 !
#48240000
b11 !
b1101 #
#48260000
b100 !
#48280000
b101 !
#48290000
b1100 #
b11 !
#48310000
b100 !
#48330000
b101 !
#48340000
b11 !
b1011 #
#48360000
b100 !
#48370000
b1 $
#48380000
b101 !
#48390000
b0 $
#48400000
b11 !
b1010 #
#48420000
b100 !
#48430000
b10 $
#48440000
b101 !
#48450000
b0 $
#48460000
b11 !
b1001 #
#48480000
b100 !
#48490000
b1 $
#48500000
b101 !
#48510000
b0 $
#48520000
b11 !
b1000 #
#48540000
b100 !
#48560000
b101 !
#48570000
b111 #
b11 !
#48590000
b100 !
#48610000
b101 !
#48620000
b11 !
b110 #
#48640000
b100 !
#48650000
b1 $
#48660000
b101 !
#48670000
b0 $
#48680000
b11 !
b101 #
#48700000
b100 !
#48720000
b101 !
#48730000
b100 #
b11 !
#48750000
b100 !
#48760000
b10 $
#48770000
b101 !
#48780000
b0 $
#48790000
b11 #
b11 !
#48810000
b100 !
#48820000
b1 $
#48830000
b101 !
#48840000
b0 $
#48850000
b10 #
b11 !
#48870000
b100 !
#48890000
b101 !
#48900000
b11 !
b1 #
#48920000
b100 !
#48930000
b10 $
#48940000
b101 !
#48950000
b0 $
#48960000
b110 !
b0 #
#48970000
b111 !
#49000000
b1000 !
#49010000
b1 "
#49020000
b1 !
#49030000
b100100 #
#49040000
b10 !
#49050000
1%
b11 !
#49060000
0%
#49070000
1%
b100 !
#49080000
0%
b1 $
#49090000
1%
b101 !
#49100000
0%
b0 $
#49110000
b100011 #
b11 !
#49120000
1%
#49130000
0%
b100 !
#49140000
1%
b1 $
#49150000
0%
b101 !
#49160000
b0 $
#49170000
b100010 #
b11 !
#49190000
b100 !
#49210000
b101 !
#49220000
b11 !
b100001 #
#49240000
b100 !
#49260000
b101 !
#49270000
b100000 #
b11 !
#49290000
b100 !
#49300000
b1 $
#49310000
b101 !
#49320000
b0 $
#49330000
b11111 #
b11 !
#49350000
b100 !
#49360000
b10 $
#49370000
b101 !
#49380000
b0 $
#49390000
b11110 #
b11 !
#49410000
b100 !
#49420000
b10 $
#49430000
b101 !
#49440000
b0 $
#49450000
b11101 #
b11 !
#49470000
b100 !
#49480000
b1 $
#49490000
b101 !
#49500000
b0 $
#49510000
b11100 #
b11 !
#49530000
b100 !
#49550000
b101 !
#49560000
b11 !
b11011 #
#49580000
b100 !
#49600000
b101 !
#49610000
b11010 #
b11 !
#49630000
b100 !
#49640000
b10 $
#49650000
b101 !
#49660000
b0 $
#49670000
b11001 #
b11 !
#49690000
b100 !
#49700000
b1 $
#49710000
b101 !
#49720000
b0 $
#49730000
b11000 #
b11 !
#49750000
b100 !
#49760000
b1 $
#49770000
b101 !
#49780000
b0 $
#49790000
b10111 #
b11 !
#49810000
b100 !
#49820000
b1 $
#49830000
b101 !
#49840000
b0 $
#49850000
b10110 #
b11 !
#49870000
b100 !
#49880000
b1 $
#49890000
b101 !
#49900000
b0 $
#49910000
b10101 #
b11 !
#49930000
b100 !
#49940000
b1 $
#49950000
b101 !
#49960000
b0 $
#49970000
b10100 #
b11 !
#49990000
b100 !
#50000000
b10 $
#50010000
b101 !
#50020000
b0 $
#50030000
b10011 #
b11 !
#50050000
b100 !
#50070000
b101 !
#50080000
b11 !
b10010 #
#50100000
b100 !
#50110000
b1 $
#50120000
b101 !
#50130000
b0 $
#50140000
b11 !
b10001 #
#50160000
b100 !
#50170000
b1 $
#50180000
b101 !
#50190000
b0 $
#50200000
b11 !
b10000 #
#50220000
b100 !
#50230000
b1 $
#50240000
b101 !
#50250000
b0 $
#50260000
b11 !
b1111 #
#50280000
b100 !
#50290000
b1 $
#50300000
b101 !
#50310000
b0 $
#50320000
b11 !
b1110 #
#50340000
b100 !
#50360000
b101 !
#50370000
b1101 #
b11 !
#50390000
b100 !
#50400000
b10 $
#50410000
b101 !
#50420000
b0 $
#50430000
b1100 #
b11 !
#50450000
b100 !
#50460000
b11 $
#50470000
b101 !
#50480000
b0 $
#50490000
b1011 #
b11 !
#50510000
b100 !
#50520000
b1 $
#50530000
b101 !
#50540000
b0 $
#50550000
b1010 #
b11 !
#50570000
b100 !
#50580000
b1 $
#50590000
b101 !
#50600000
b0 $
#50610000
b1001 #
b11 !
#50630000
b100 !
#50640000
b10 $
#50650000
b101 !
#50660000
b0 $
#50670000
b1000 #
b11 !
#50690000
b100 !
#50710000
b101 !
#50720000
b11 !
b111 #
#50740000
b100 !
#50750000
b1 $
#50760000
b101 !
#50770000
b0 $
#50780000
b11 !
b110 #
#50800000
b100 !
#50820000
b101 !
#50830000
b101 #
b11 !
#50850000
b100 !
#50860000
b1 $
#50870000
b101 !
#50880000
b0 $
#50890000
b100 #
b11 !
#50910000
b100 !
#50920000
b1 $
#50930000
b101 !
#50940000
b0 $
#50950000
b11 #
b11 !
#50970000
b100 !
#50990000
b101 !
#51000000
b11 !
b10 #
#51020000
b100 !
#51040000
b101 !
#51050000
b1 #
b11 !
#51070000
b100 !
#51080000
b10 $
#51090000
b101 !
#51100000
b0 $
#51110000
b0 #
b110 !
#51120000
b111 !
#51150000
b1000 !
#51160000
b10 "
#51170000
b1 !
#51180000
b1000110 #
#51190000
b10 !
#51200000
1%
b11 !
#51210000
0%
#51220000
1%
b100 !
#51230000
0%
#51240000
1%
b101 !
#51250000
0%
b1000101 #
b11 !
#51260000
1%
#51270000
0%
b100 !
#51280000
1%
#51290000
0%
b101 !
#51300000
1%
b11 !
b1000100 #
#51310000
0%
#51320000
b100 !
#51330000
b10 $
#51340000
b101 !
#51350000
b0 $
#51360000
b11 !
b1000011 #
#51380000
b100 !
#51390000
b1 $
#51400000
b101 !
#51410000
b0 $
#51420000
b11 !
b1000010 #
#51440000
b100 !
#51460000
b101 !
#51470000
b1000001 #
b11 !
#51490000
b100 !
#51500000
b1 $
#51510000
b101 !
#51520000
b0 $
#51530000
b1000000 #
b11 !
#51550000
b100 !
#51570000
b101 !
#51580000
b11 !
b111111 #
#51600000
b100 !
#51620000
b101 !
#51630000
b111110 #
b11 !
#51650000
b100 !
#51660000
b1 $
#51670000
b101 !
#51680000
b0 $
#51690000
b111101 #
b11 !
#51710000
b100 !
#51720000
b1 $
#51730000
b101 !
#51740000
b0 $
#51750000
b111100 #
b11 !
#51770000
b100 !
#51790000
b101 !
#51800000
b11 !
b111011 #
#51820000
b100 !
#51840000
b101 !
#51850000
b111010 #
b11 !
#51870000
b100 !
#51880000
b1 $
#51890000
b101 !
#51900000
b0 $
#51910000
b111001 #
b11 !
#51930000
b100 !
#51950000
b101 !
#51960000
b11 !
b111000 #
#51980000
b100 !
#51990000
b1 $
#52000000
b101 !
#52010000
b0 $
#52020000
b11 !
b110111 #
#52040000
b100 !
#52060000
b101 !
#52070000
b110110 #
b11 !
#52090000
b100 !
#52100000
b1 $
#52110000
b101 !
#52120000
b0 $
#52130000
b110101 #
b11 !
#52150000
b100 !
#52160000
b1 $
#52170000
b101 !
#52180000
b0 $
#52190000
b110100 #
b11 !
#52210000
b100 !
#52230000
b101 !
#52240000
b11 !
b110011 #
#52260000
b100 !
#52280000
b101 !
#52290000
b110010 #
b11 !
#52310000
b100 !
#52320000
b10 $
#52330000
b101 !
#52340000
b0 $
#52350000
b110001 #
b11 !
#52370000
b100 !
#52390000
b101 !
#52400000
b11 !
b110000 #
#52420000
b100 !
#52430000
b1 $
#52440000
b101 !
#52450000
b0 $
#52460000
b11 !
b101111 #
#52480000
b100 !
#52500000
b101 !
#52510000
b101110 #
b11 !
#52530000
b100 !
#52550000
b101 !
#52560000
b11 !
b101101 #
#52580000
b100 !
#52590000
b10 $
#52600000
b101 !
#52610000
b0 $
#52620000
b11 !
b101100 #
#52640000
b100 !
#52650000
b1 $
#52660000
b101 !
#52670000
b0 $
#52680000
b11 !
b101011 #
#52700000
b100 !
#52710000
b10 $
#52720000
b101 !
#52730000
b0 $
#52740000
b11 !
b101010 #
#52760000
b100 !
#52780000
b101 !
#52790000
b101001 #
b11 !
#52810000
b100 !
#52820000
b1 $
#52830000
b101 !
#52840000
b0 $
#52850000
b101000 #
b11 !
#52870000
b100 !
#52890000
b101 !
#52900000
b11 !
b100111 #
#52920000
b100 !
#52930000
b10 $
#52940000
b101 !
#52950000
b0 $
#52960000
b11 !
b100110 #
#52980000
b100 !
#52990000
b1 $
#53000000
b101 !
#53010000
b0 $
#53020000
b11 !
b100101 #
#53040000
b100 !
#53050000
b10 $
#53060000
b101 !
#53070000
b0 $
#53080000
b11 !
b100100 #
#53100000
b100 !
#53110000
b10 $
#53120000
b101 !
#53130000
b0 $
#53140000
b11 !
b100011 #
#53160000
b100 !
#53170000
b1 $
#53180000
b101 !
#53190000
b0 $
#53200000
b11 !
b100010 #
#53220000
b100 !
#53240000
b101 !
#53250000
b100001 #
b11 !
#53270000
b100 !
#53280000
b1 $
#53290000
b101 !
#53300000
b0 $
#53310000
b100000 #
b11 !
#53330000
b100 !
#53340000
b1 $
#53350000
b101 !
#53360000
b0 $
#53370000
b11111 #
b11 !
#53390000
b100 !
#53400000
b11 $
#53410000
b101 !
#53420000
b0 $
#53430000
b11110 #
b11 !
#53450000
b100 !
#53460000
b1 $
#53470000
b101 !
#53480000
b0 $
#53490000
b11101 #
b11 !
#53510000
b100 !
#53520000
b1 $
#53530000
b101 !
#53540000
b0 $
#53550000
b11100 #
b11 !
#53570000
b100 !
#53580000
b1 $
#53590000
b101 !
#53600000
b0 $
#53610000
b11011 #
b11 !
#53630000
b100 !
#53640000
b1 $
#53650000
b101 !
#53660000
b0 $
#53670000
b11010 #
b11 !
#53690000
b100 !
#53700000
b1 $
#53710000
b101 !
#53720000
b0 $
#53730000
b11001 #
b11 !
#53750000
b100 !
#53760000
b1 $
#53770000
b101 !
#53780000
b0 $
#53790000
b11000 #
b11 !
#53810000
b100 !
#53820000
b10 $
#53830000
b101 !
#53840000
b0 $
#53850000
b10111 #
b11 !
#53870000
b100 !
#53880000
b10 $
#53890000
b101 !
#53900000
b0 $
#53910000
b10110 #
b11 !
#53930000
b100 !
#53940000
b1 $
#53950000
b101 !
#53960000
b0 $
#53970000
b10101 #
b11 !
#53990000
b100 !
#54000000
b10 $
#54010000
b101 !
#54020000
b0 $
#54030000
b10100 #
b11 !
#54050000
b100 !
#54070000
b101 !
#54080000
b11 !
b10011 #
#54100000
b100 !
#54110000
b1 $
#54120000
b101 !
#54130000
b0 $
#54140000
b11 !
b10010 #
#54160000
b100 !
#54180000
b101 !
#54190000
b10001 #
b11 !
#54210000
b100 !
#54220000
b1 $
#54230000
b101 !
#54240000
b0 $
#54250000
b10000 #
b11 !
#54270000
b100 !
#54280000
b11 $
#54290000
b101 !
#54300000
b0 $
#54310000
b1111 #
b11 !
#54330000
b100 !
#54340000
b1 $
#54350000
b101 !
#54360000
b0 $
#54370000
b1110 #
b11 !
#54390000
b100 !
#54410000
b101 !
#54420000
b11 !
b1101 #
#54440000
b100 !
#54460000
b101 !
#54470000
b1100 #
b11 !
#54490000
b100 !
#54510000
b101 !
#54520000
b11 !
b1011 #
#54540000
b100 !
#54550000
b1 $
#54560000
b101 !
#54570000
b0 $
#54580000
b11 !
b1010 #
#54600000
b100 !
#54620000
b101 !
#54630000
b1001 #
b11 !
#54650000
b100 !
#54660000
b1 $
#54670000
b101 !
#54680000
b0 $
#54690000
b1000 #
b11 !
#54710000
b100 !
#54720000
b1 $
#54730000
b101 !
#54740000
b0 $
#54750000
b111 #
b11 !
#54770000
b100 !
#54790000
b101 !
#54800000
b11 !
b110 #
#54820000
b100 !
#54840000
b101 !
#54850000
b101 #
b11 !
#54870000
b100 !
#54880000
b1 $
#54890000
b101 !
#54900000
b0 $
#54910000
b100 #
b11 !
#54930000
b100 !
#54950000
b101 !
#54960000
b11 !
b11 #
#54980000
b100 !
#54990000
b10 $
#55000000
b101 !
#55010000
b0 $
#55020000
b11 !
b10 #
#55040000
b100 !
#55050000
b1 $
#55060000
b101 !
#55070000
b0 $
#55080000
b11 !
b1 #
#55100000
b100 !
#55110000
b10 $
#55120000
b101 !
#55130000
b0 $
#55140000
b110 !
b0 #
#55150000
b111 !
#55180000
b1000 !
#55190000
b11 "
#55200000
b1 !
#55210000
b10011 #
#55220000
b10 !
#55230000
1%
b11 !
#55240000
0%
#55250000
1%
b100 !
#55260000
0%
#55270000
1%
b101 !
#55280000
0%
b11 !
b10010 #
#55290000
1%
#55300000
0%
b100 !
#55310000
1%
b1 $
#55320000
0%
b101 !
#55330000
1%
b0 $
#55340000
0%
b11 !
b10001 #
#55360000
b100 !
#55370000
b1 $
#55380000
b101 !
#55390000
b0 $
#55400000
b11 !
b10000 #
#55420000
b100 !
#55440000
b101 !
#55450000
b1111 #
b11 !
#55470000
b100 !
#55490000
b101 !
#55500000
b11 !
b1110 #
#55520000
b100 !
#55540000
b101 !
#55550000
b1101 #
b11 !
#55570000
b100 !
#55580000
b10 $
#55590000
b101 !
#55600000
b0 $
#55610000
b1100 #
b11 !
#55630000
b100 !
#55650000
b101 !
#55660000
b11 !
b1011 #
#55680000
b100 !
#55690000
b1 $
#55700000
b101 !
#55710000
b0 $
#55720000
b11 !
b1010 #
#55740000
b100 !
#55750000
b10 $
#55760000
b101 !
#55770000
b0 $
#55780000
b11 !
b1001 #
#55800000
b100 !
#55810000
b1 $
#55820000
b101 !
#55830000
b0 $
#55840000
b11 !
b1000 #
#55860000
b100 !
#55880000
b101 !
#55890000
b111 #
b11 !
#55910000
b100 !
#55920000
b1 $
#55930000
b101 !
#55940000
b0 $
#55950000
b110 #
b11 !
#55970000
b100 !
#55980000
b1 $
#55990000
b101 !
#56000000
b0 $
#56010000
b101 #
b11 !
#56030000
b100 !
#56040000
b1 $
#56050000
b101 !
#56060000
b0 $
#56070000
b100 #
b11 !
#56090000
b100 !
#56110000
b101 !
#56120000
b11 !
b11 #
#56140000
b100 !
#56150000
b1 $
#56160000
b101 !
#56170000
b0 $
#56180000
b11 !
b10 #
#56200000
b100 !
#56210000
b10 $
#56220000
b101 !
#56230000
b0 $
#56240000
b11 !
b1 #
#56260000
b100 !
#56270000
b10 $
#56280000
b101 !
#56290000
b0 $
#56300000
b110 !
b0 #
#56310000
b111 !
#56340000
b1000 !
#56350000
b100 "
#56360000
b1 !
#56370000
b1011000 #
#56380000
b10 !
#56390000
1%
b11 !
#56400000
0%
#56410000
b100 !
#56420000
1%
b1 $
#56430000
0%
b101 !
#56440000
1%
b0 $
#56450000
0%
b1010111 #
b11 !
#56460000
1%
#56470000
0%
b100 !
#56480000
1%
b1 $
#56490000
0%
b101 !
#56500000
b0 $
#56510000
b1010110 #
b11 !
#56530000
b100 !
#56550000
b101 !
#56560000
b11 !
b1010101 #
#56580000
b100 !
#56590000
b10 $
#56600000
b101 !
#56610000
b0 $
#56620000
b11 !
b1010100 #
#56640000
b100 !
#56650000
b10 $
#56660000
b101 !
#56670000
b0 $
#56680000
b11 !
b1010011 #
#56700000
b100 !
#56720000
b101 !
#56730000
b1010010 #
b11 !
#56750000
b100 !
#56760000
b1 $
#56770000
b101 !
#56780000
b0 $
#56790000
b1010001 #
b11 !
#56810000
b100 !
#56820000
b1 $
#56830000
b101 !
#56840000
b0 $
#56850000
b1010000 #
b11 !
#56870000
b100 !
#56880000
b1 $
#56890000
b101 !
#56900000
b0 $
#56910000
b1001111 #
b11 !
#56930000
b100 !
#56940000
b1 $
#56950000
b101 !
#56960000
b0 $
#56970000
b1001110 #
b11 !
#56990000
b100 !
#57000000
b1 $
#57010000
b101 !
#57020000
b0 $
#57030000
b1001101 #
b11 !
#57050000
b100 !
#57060000
b1 $
#57070000
b101 !
#57080000
b0 $
#57090000
b1001100 #
b11 !
#57110000
b100 !
#57120000
b1 $
#57130000
b101 !
#57140000
b0 $
#57150000
b1001011 #
b11 !
#57170000
b100 !
#57180000
b1 $
#57190000
b101 !
#57200000
b0 $
#57210000
b1001010 #
b11 !
#57230000
b100 !
#57240000
b10 $
#57250000
b101 !
#57260000
b0 $
#57270000
b1001001 #
b11 !
#57290000
b100 !
#57300000
b1 $
#57310000
b101 !
#57320000
b0 $
#57330000
b1001000 #
b11 !
#57350000
b100 !
#57360000
b10 $
#57370000
b101 !
#57380000
b0 $
#57390000
b1000111 #
b11 !
#57410000
b100 !
#57430000
b101 !
#57440000
b11 !
b1000110 #
#57460000
b100 !
#57470000
b1 $
#57480000
b101 !
#57490000
b0 $
#57500000
b11 !
b1000101 #
#57520000
b100 !
#57530000
b1 $
#57540000
b101 !
#57550000
b0 $
#57560000
b11 !
b1000100 #
#57580000
b100 !
#57600000
b101 !
#57610000
b1000011 #
b11 !
#57630000
b100 !
#57640000
b1 $
#57650000
b101 !
#57660000
b0 $
#57670000
b1000010 #
b11 !
#57690000
b100 !
#57710000
b101 !
#57720000
b11 !
b1000001 #
#57740000
b100 !
#57750000
b1 $
#57760000
b101 !
#57770000
b0 $
#57780000
b11 !
b1000000 #
#57800000
b100 !
#57820000
b101 !
#57830000
b111111 #
b11 !
#57850000
b100 !
#57860000
b1 $
#57870000
b101 !
#57880000
b0 $
#57890000
b111110 #
b11 !
#57910000
b100 !
#57920000
b1 $
#57930000
b101 !
#57940000
b0 $
#57950000
b111101 #
b11 !
#57970000
b100 !
#57990000
b101 !
#58000000
b11 !
b111100 #
#58020000
b100 !
#58030000
b1 $
#58040000
b101 !
#58050000
b0 $
#58060000
b11 !
b111011 #
#58080000
b100 !
#58100000
b101 !
#58110000
b111010 #
b11 !
#58130000
b100 !
#58140000
b1 $
#58150000
b101 !
#58160000
b0 $
#58170000
b111001 #
b11 !
#58190000
b100 !
#58200000
b10 $
#58210000
b101 !
#58220000
b0 $
#58230000
b111000 #
b11 !
#58250000
b100 !
#58270000
b101 !
#58280000
b11 !
b110111 #
#58300000
b100 !
#58310000
b1 $
#58320000
b101 !
#58330000
b0 $
#58340000
b11 !
b110110 #
#58360000
b100 !
#58370000
b1 $
#58380000
b101 !
#58390000
b0 $
#58400000
b11 !
b110101 #
#58420000
b100 !
#58430000
b10 $
#58440000
b101 !
#58450000
b0 $
#58460000
b11 !
b110100 #
#58480000
b100 !
#58500000
b101 !
#58510000
b110011 #
b11 !
#58530000
b100 !
#58550000
b101 !
#58560000
b11 !
b110010 #
#58580000
b100 !
#58590000
b1 $
#58600000
b101 !
#58610000
b0 $
#58620000
b11 !
b110001 #
#58640000
b100 !
#58650000
b10 $
#58660000
b101 !
#58670000
b0 $
#58680000
b11 !
b110000 #
#58700000
b100 !
#58710000
b10 $
#58720000
b101 !
#58730000
b0 $
#58740000
b11 !
b101111 #
#58760000
b100 !
#58780000
b101 !
#58790000
b101110 #
b11 !
#58810000
b100 !
#58830000
b101 !
#58840000
b11 !
b101101 #
#58860000
b100 !
#58870000
b1 $
#58880000
b101 !
#58890000
b0 $
#58900000
b11 !
b101100 #
#58920000
b100 !
#58930000
b1 $
#58940000
b101 !
#58950000
b0 $
#58960000
b11 !
b101011 #
#58980000
b100 !
#58990000
b10 $
#59000000
b101 !
#59010000
b0 $
#59020000
b11 !
b101010 #
#59040000
b100 !
#59060000
b101 !
#59070000
b101001 #
b11 !
#59090000
b100 !
#59100000
b1 $
#59110000
b101 !
#59120000
b0 $
#59130000
b101000 #
b11 !
#59150000
b100 !
#59160000
b10 $
#59170000
b101 !
#59180000
b0 $
#59190000
b100111 #
b11 !
#59210000
b100 !
#59220000
b1 $
#59230000
b101 !
#59240000
b0 $
#59250000
b100110 #
b11 !
#59270000
b100 !
#59280000
b1 $
#59290000
b101 !
#59300000
b0 $
#59310000
b100101 #
b11 !
#59330000
b100 !
#59340000
b1 $
#59350000
b101 !
#59360000
b0 $
#59370000
b100100 #
b11 !
#59390000
b100 !
#59410000
b101 !
#59420000
b11 !
b100011 #
#59440000
b100 !
#59450000
b1 $
#59460000
b101 !
#59470000
b0 $
#59480000
b11 !
b100010 #
#59500000
b100 !
#59510000
b10 $
#59520000
b101 !
#59530000
b0 $
#59540000
b11 !
b100001 #
#59560000
b100 !
#59580000
b101 !
#59590000
b100000 #
b11 !
#59610000
b100 !
#59620000
b1 $
#59630000
b101 !
#59640000
b0 $
#59650000
b11111 #
b11 !
#59670000
b100 !
#59690000
b101 !
#59700000
b11 !
b11110 #
#59720000
b100 !
#59730000
b1 $
#59740000
b101 !
#59750000
b0 $
#59760000
b11 !
b11101 #
#59780000
b100 !
#59800000
b101 !
#59810000
b11100 #
b11 !
#59830000
b100 !
#59840000
b1 $
#59850000
b101 !
#59860000
b0 $
#59870000
b11011 #
b11 !
#59890000
b100 !
#59910000
b101 !
#59920000
b11 !
b11010 #
#59940000
b100 !
#59950000
b10 $
#59960000
b101 !
#59970000
b0 $
#59980000
b11 !
b11001 #
#60000000
b100 !
#60010000
b11 $
#60020000
b101 !
#60030000
b0 $
#60040000
b11 !
b11000 #
#60060000
b100 !
#60080000
b101 !
#60090000
b10111 #
b11 !
#60110000
b100 !
#60120000
b1 $
#60130000
b101 !
#60140000
b0 $
#60150000
b10110 #
b11 !
#60170000
b100 !
#60180000
b10 $
#60190000
b101 !
#60200000
b0 $
#60210000
b10101 #
b11 !
#60230000
b100 !
#60240000
b1 $
#60250000
b101 !
#60260000
b0 $
#60270000
b10100 #
b11 !
#60290000
b100 !
#60300000
b1 $
#60310000
b101 !
#60320000
b0 $
#60330000
b10011 #
b11 !
#60350000
b100 !
#60370000
b101 !
#60380000
b11 !
b10010 #
#60400000
b100 !
#60420000
b101 !
#60430000
b10001 #
b11 !
#60450000
b100 !
#60470000
b101 !
#60480000
b11 !
b10000 #
#60500000
b100 !
#60510000
b1 $
#60520000
b101 !
#60530000
b0 $
#60540000
b11 !
b1111 #
#60560000
b100 !
#60570000
b1 $
#60580000
b101 !
#60590000
b0 $
#60600000
b11 !
b1110 #
#60620000
b100 !
#60630000
b1 $
#60640000
b101 !
#60650000
b0 $
#60660000
b11 !
b1101 #
#60680000
b100 !
#60700000
b101 !
#60710000
b1100 #
b11 !
#60730000
b100 !
#60740000
b1 $
#60750000
b101 !
#60760000
b0 $
#60770000
b1011 #
b11 !
#60790000
b100 !
#60800000
b100 $
#60810000
b101 !
#60820000
b0 $
#60830000
b1010 #
b11 !
#60850000
b100 !
#60870000
b101 !
#60880000
b11 !
b1001 #
#60900000
b100 !
#60910000
b1 $
#60920000
b101 !
#60930000
b0 $
#60940000
b11 !
b1000 #
#60960000
b100 !
#60970000
b1 $
#60980000
b101 !
#60990000
b0 $
#61000000
b11 !
b111 #
#61020000
b100 !
#61030000
b1 $
#61040000
b101 !
#61050000
b0 $
#61060000
b11 !
b110 #
#61080000
b100 !
#61090000
b1 $
#61100000
b101 !
#61110000
b0 $
#61120000
b11 !
b101 #
#61140000
b100 !
#61160000
b101 !
#61170000
b100 #
b11 !
#61190000
b100 !
#61200000
b10 $
#61210000
b101 !
#61220000
b0 $
#61230000
b11 #
b11 !
#61250000
b100 !
#61260000
b1 $
#61270000
b101 !
#61280000
b0 $
#61290000
b10 #
b11 !
#61310000
b100 !
#61320000
b10 $
#61330000
b101 !
#61340000
b0 $
#61350000
b1 #
b11 !
#61370000
b100 !
#61390000
b101 !
#61400000
b110 !
b0 #
#61410000
b111 !
#61420000
b1000 !
#61430000
b101 "
#61440000
1%
b1 !
#61450000
0%
b11111 #
#61460000
1%
b10 !
#61470000
0%
b11 !
#61480000
1%
#61490000
0%
b100 !
#61500000
1%
b1 $
#61510000
0%
b101 !
#61520000
1%
b0 $
#61530000
0%
b11110 #
b11 !
#61540000
1%
#61550000
0%
b100 !
#61570000
b101 !
#61580000
b11 !
b11101 #
#61600000
b100 !
#61620000
b101 !
#61630000
b11100 #
b11 !
#61650000
b100 !
#61670000
b101 !
#61680000
b11 !
b11011 #
#61700000
b100 !
#61720000
b101 !
#61730000
b11010 #
b11 !
#61750000
b100 !
#61760000
b10 $
#61770000
b101 !
#61780000
b0 $
#61790000
b11001 #
b11 !
#61810000
b100 !
#61820000
b1 $
#61830000
b101 !
#61840000
b0 $
#61850000
b11000 #
b11 !
#61870000
b100 !
#61880000
b10 $
#61890000
b101 !
#61900000
b0 $
#61910000
b10111 #
b11 !
#61930000
b100 !
#61950000
b101 !
#61960000
b11 !
b10110 #
#61980000
b100 !
#61990000
b1 $
#62000000
b101 !
#62010000
b0 $
#62020000
b11 !
b10101 #
#62040000
b100 !
#62050000
b10 $
#62060000
b101 !
#62070000
b0 $
#62080000
b11 !
b10100 #
#62100000
b100 !
#62110000
b1 $
#62120000
b101 !
#62130000
b0 $
#62140000
b11 !
b10011 #
#62160000
b100 !
#62170000
b1 $
#62180000
b101 !
#62190000
b0 $
#62200000
b11 !
b10010 #
#62220000
b100 !
#62240000
b101 !
#62250000
b10001 #
b11 !
#62270000
b100 !
#62290000
b101 !
#62300000
b11 !
b10000 #
#62320000
b100 !
#62340000
b101 !
#62350000
b1111 #
b11 !
#62370000
b100 !
#62380000
b1 $
#62390000
b101 !
#62400000
b0 $
#62410000
b1110 #
b11 !
#62430000
b100 !
#62450000
b101 !
#62460000
b11 !
b1101 #
#62480000
b100 !
#62490000
b1 $
#62500000
b101 !
#62510000
b0 $
#62520000
b11 !
b1100 #
#62540000
b100 !
#62560000
b101 !
#62570000
b1011 #
b11 !
#62590000
b100 !
#62610000
b101 !
#62620000
b11 !
b1010 #
#62640000
b100 !
#62650000
b1 $
#62660000
b101 !
#62670000
b0 $
#62680000
b11 !
b1001 #
#62700000
b100 !
#62720000
b101 !
#62730000
b1000 #
b11 !
#62750000
b100 !
#62770000
b101 !
#62780000
b11 !
b111 #
#62800000
b100 !
#62810000
b1 $
#62820000
b101 !
#62830000
b0 $
#62840000
b11 !
b110 #
#62860000
b100 !
#62870000
b10 $
#62880000
b101 !
#62890000
b0 $
#62900000
b11 !
b101 #
#62920000
b100 !
#62930000
b1 $
#62940000
b101 !
#62950000
b0 $
#62960000
b11 !
b100 #
#62980000
b100 !
#62990000
b1 $
#63000000
b101 !
#63010000
b0 $
#63020000
b11 !
b11 #
#63040000
b100 !
#63050000
b1 $
#63060000
b101 !
#63070000
b0 $
#63080000
b11 !
b10 #
#63100000
b100 !
#63110000
b1 $
#63120000
b101 !
#63130000
b0 $
#63140000
b11 !
b1 #
#63160000
b100 !
#63180000
b101 !
#63190000
b0 #
b110 !
#63200000
b111 !
#63210000
b1000 !
#63220000
b110 "
#63230000
1%
b1 !
#63240000
0%
b1000001 #
#63250000
1%
b10 !
#63260000
0%
b11 !
#63270000
1%
#63280000
0%
b100 !
#63290000
1%
b10 $
#63300000
0%
b101 !
#63310000
1%
b0 $
#63320000
0%
b11 !
b1000000 #
#63330000
1%
#63340000
0%
b100 !
#63360000
b101 !
#63370000
b111111 #
b11 !
#63390000
b100 !
#63410000
b101 !
#63420000
b11 !
b111110 #
#63440000
b100 !
#63450000
b10 $
#63460000
b101 !
#63470000
b0 $
#63480000
b11 !
b111101 #
#63500000
b100 !
#63510000
b1 $
#63520000
b101 !
#63530000
b0 $
#63540000
b11 !
b111100 #
#63560000
b100 !
#63570000
b10 $
#63580000
b101 !
#63590000
b0 $
#63600000
b11 !
b111011 #
#63620000
b100 !
#63630000
b1 $
#63640000
b101 !
#63650000
b0 $
#63660000
b11 !
b111010 #
#63680000
b100 !
#63700000
b101 !
#63710000
b111001 #
b11 !
#63730000
b100 !
#63750000
b101 !
#63760000
b11 !
b111000 #
#63780000
b100 !
#63800000
b101 !
#63810000
b110111 #
b11 !
#63830000
b100 !
#63840000
b1 $
#63850000
b101 !
#63860000
b0 $
#63870000
b110110 #
b11 !
#63890000
b100 !
#63910000
b101 !
#63920000
b11 !
b110101 #
#63940000
b100 !
#63950000
b10 $
#63960000
b101 !
#63970000
b0 $
#63980000
b11 !
b110100 #
#64000000
b100 !
#64010000
b10 $
#64020000
b101 !
#64030000
b0 $
#64040000
b11 !
b110011 #
#64060000
b100 !
#64070000
b1 $
#64080000
b101 !
#64090000
b0 $
#64100000
b11 !
b110010 #
#64120000
b100 !
#64130000
b10 $
#64140000
b101 !
#64150000
b0 $
#64160000
b11 !
b110001 #
#64180000
b100 !
#64200000
b101 !
#64210000
b110000 #
b11 !
#64230000
b100 !
#64240000
b1 $
#64250000
b101 !
#64260000
b0 $
#64270000
b101111 #
b11 !
#64290000
b100 !
#64310000
b101 !
#64320000
b11 !
b101110 #
#64340000
b100 !
#64360000
b101 !
#64370000
b101101 #
b11 !
#64390000
b100 !
#64410000
b101 !
#64420000
b11 !
b101100 #
#64440000
b100 !
#64450000
b1 $
#64460000
b101 !
#64470000
b0 $
#64480000
b11 !
b101011 #
#64500000
b100 !
#64510000
b10 $
#64520000
b101 !
#64530000
b0 $
