test/pe_sim/sim_build/pe_dump.vcd
$date
	Sat Jun 27 11:53:11 2026
$end
$version
	Icarus Verilog
$end
$timescale
	1ps
$end
$scope module tb_pe_top $end
$scope module u_pe $end
$var reg 3 ! state [2:0] $end
$upscope $end
$upscope $end
$scope module tb_pe_top $end
$scope module u_pe $end
$var reg 8 " row_idx [7:0] $end
$upscope $end
$upscope $end
$scope module tb_pe_top $end
$scope module u_pe $end
$var reg 3 # gen_state [2:0] $end
$upscope $end
$upscope $end
$scope module tb_pe_top $end
$scope module u_pe $end
$var reg 1 $ done $end
$upscope $end
$upscope $end
$enddefinitions $end
$comment Show the parameter values. $end
$dumpall
$end
#0
$dumpvars
0$
b0 #
b0 "
b0 !
$end
#284420000
b1 !
#284430000
b10 !
#284440000
b1 #
b11 !
#284450000
b10 #
#284780000
b11 #
#284790000
b100 !
#284800000
b0 #
#284890000
b101 !
#284900000
b110 !
#284910000
b1 "
b1 !
#284920000
b10 !
#284930000
b11 !
b1 #
#284940000
b10 #
#285380000
b11 #
#285390000
b100 !
#285400000
b0 #
#285490000
b101 !
#285500000
b110 !
#285510000
b10 "
b1 !
#285520000
b10 !
#285530000
b11 !
b1 #
#285540000
b10 #
#285980000
b11 #
#285990000
b100 !
#286000000
b0 #
#286070000
b101 !
#286080000
b110 !
#286090000
b11 "
b1 !
#286100000
b10 !
#286110000
b11 !
b1 #
#286120000
b10 #
#286460000
b11 #
#286470000
b100 !
#286480000
b0 #
#286540000
b101 !
#286550000
b110 !
#286560000
b1 !
b100 "
#286570000
b10 !
#286580000
b1 #
b11 !
#286590000
b10 #
#286850000
b11 #
#286860000
b100 !
#286870000
b0 #
#286920000
b101 !
#286930000
b110 !
#286940000
b1 !
b101 "
#286950000
b10 !
#286960000
b1 #
b11 !
#286970000
b10 #
#287050000
b11 #
#287060000
b100 !
#287070000
b0 #
#287100000
b101 !
#287190000
b110 !
#287200000
b1 !
b110 "
#287210000
b10 !
#287220000
b1 #
b11 !
#287230000
b10 #
#287870000
b11 #
#287880000
b100 !
#287890000
b0 #
#288020000
b101 !
#288030000
b110 !
#288040000
b1 !
b111 "
#288050000
b10 !
#288060000
b1 #
b11 !
#288070000
b10 #
#288500000
b11 #
#288510000
b100 !
#288520000
b0 #
#288600000
b101 !
#288610000
b110 !
#288620000
b1 !
b1000 "
#288630000
b10 !
#288640000
b1 #
b11 !
#288650000
b10 #
#288770000
b11 #
#288780000
b100 !
#288790000
b0 #
#288800000
b101 !
#289040000
b110 !
#289050000
b1001 "
b1 !
#289060000
b10 !
#289070000
b11 !
b1 #
#289080000
b10 #
#289500000
b11 #
#289510000
b100 !
#289520000
b0 #
#289620000
b101 !
#289630000
b110 !
#289640000
b1 !
b1010 "
#289650000
b10 !
#289660000
b1 #
b11 !
#289670000
b10 #
#289690000
b11 #
#289700000
b100 !
#289710000
b0 #
#289720000
b101 !
#289920000
b110 !
#289930000
b1011 "
b1 !
#289940000
b10 !
#289950000
b11 !
b1 #
#289960000
b10 #
#290270000
b11 #
#290280000
b100 !
#290290000
b0 #
#290350000
b101 !
#290360000
b110 !
#290370000
b1100 "
b1 !
#290380000
b10 !
#290390000
b11 !
b1 #
#290400000
b10 #
#291110000
b11 #
#291120000
b100 !
#291130000
b0 #
#291260000
b101 !
#291270000
b110 !
#291280000
b1 !
b1101 "
#291290000
b10 !
#291300000
b1 #
b11 !
#291310000
b10 #
#291560000
b11 #
#291570000
b100 !
#291580000
b0 #
#291640000
b101 !
#291660000
b110 !
#291670000
b1110 "
b1 !
#291680000
b10 !
#291690000
b11 !
b1 #
#291700000
b10 #
#291800000
b11 #
#291810000
b100 !
#291820000
b0 #
#291850000
b101 !
#291980000
b110 !
#291990000
b1111 "
b1 !
#292000000
b10 !
#292010000
b11 !
b1 #
#292020000
b10 #
#292160000
b11 #
#292170000
b100 !
#292180000
b0 #
#292220000
b101 !
#292230000
b110 !
#292240000
b1 !
b10000 "
#292250000
b10 !
#292260000
b1 #
b11 !
#292270000
b10 #
#292820000
b11 #
#292830000
b100 !
#292840000
b0 #
#292950000
b101 !
#292960000
b110 !
#292970000
b10001 "
b1 !
#292980000
b10 !
#292990000
b11 !
b1 #
#293000000
b10 #
#293680000
b11 #
#293690000
b100 !
#293700000
b0 #
#293820000
b101 !
#293830000
b110 !
#293840000
b1 !
b10010 "
#293850000
b10 !
#293860000
b1 #
b11 !
#293870000
b10 #
#294220000
b11 #
#294230000
b100 !
#294240000
b0 #
#294320000
b101 !
#294330000
b110 !
#294340000
b1 !
b10011 "
#294350000
b10 !
#294360000
b1 #
b11 !
#294370000
b10 #
#294670000
b11 #
#294680000
b100 !
#294690000
b0 #
#294740000
b101 !
#294750000
b110 !
#294760000
b1 !
b10100 "
#294770000
b10 !
#294780000
b1 #
b11 !
#294790000
b10 #
#294850000
b11 #
#294860000
b100 !
#294870000
b0 #
#294900000
b101 !
#295060000
b110 !
#295070000
b10101 "
b1 !
#295080000
b10 !
#295090000
b11 !
b1 #
#295100000
b10 #
#295260000
b11 #
#295270000
b100 !
#295280000
b0 #
#295340000
b101 !
#295350000
b110 !
#295360000
b1 !
b10110 "
#295370000
b10 !
#295380000
b1 #
b11 !
#295390000
b10 #
#296130000
b11 #
#296140000
b100 !
#296150000
b0 #
#296260000
b101 !
#296270000
b110 !
#296280000
b1 !
b10111 "
#296290000
b10 !
#296300000
b1 #
b11 !
#296310000
b10 #
#296960000
b11 #
#296970000
b100 !
#296980000
b0 #
#297100000
b101 !
#297110000
b110 !
#297120000
b1 !
b11000 "
#297130000
b10 !
#297140000
b1 #
b11 !
#297150000
b10 #
#297680000
b11 #
#297690000
b100 !
#297700000
b0 #
#297800000
b101 !
#297810000
b110 !
#297820000
b1 !
b11001 "
#297830000
b10 !
#297840000
b1 #
b11 !
#297850000
b10 #
#298020000
b11 #
#298030000
b100 !
#298040000
b0 #
#298070000
b101 !
#298190000
b110 !
#298200000
b1 !
b11010 "
#298210000
b10 !
#298220000
b1 #
b11 !
#298230000
b10 #
#298270000
b11 #
#298280000
b100 !
#298290000
b0 #
#298300000
b101 !
#298330000
b110 !
#298340000
b1 !
b11011 "
#298350000
b10 !
#298360000
b1 #
b11 !
#298370000
b10 #
#298780000
b11 #
#298790000
b100 !
#298800000
b0 #
#298890000
b101 !
#298900000
b110 !
#298910000
b11100 "
b1 !
#298920000
b10 !
#298930000
b11 !
b1 #
#298940000
b10 #
#299510000
b11 #
#299520000
b100 !
#299530000
b0 #
#299630000
b101 !
#299640000
b110 !
#299650000
b11101 "
b1 !
#299660000
b10 !
#299670000
b11 !
b1 #
#299680000
b10 #
#299820000
b11 #
#299830000
b100 !
#299840000
b0 #
#299880000
b101 !
#299980000
b110 !
#299990000
b11110 "
b1 !
#300000000
b10 !
#300010000
b11 !
b1 #
#300020000
b10 #
#300090000
b11 #
#300100000
b100 !
#300110000
b0 #
#300120000
b101 !
#300140000
b110 !
#300150000
b11111 "
b1 !
#300160000
b10 !
#300170000
b11 !
b1 #
#300180000
b10 #
#300940000
b11 #
#300950000
b100 !
#300960000
b0 #
#301100000
b101 !
#301110000
b110 !
#301120000
b1 !
b100000 "
#301130000
b10 !
#301140000
b1 #
b11 !
#301150000
b10 #
#301590000
b11 #
#301600000
b100 !
#301610000
b0 #
#301710000
b101 !
#301720000
b110 !
#301730000
b100001 "
b1 !
#301740000
b10 !
#301750000
b11 !
b1 #
#301760000
b10 #
#302130000
b11 #
#302140000
b100 !
#302150000
b0 #
#302190000
b101 !
#302200000
b110 !
#302210000
b100010 "
b1 !
#302220000
b10 !
#302230000
b11 !
b1 #
#302240000
b10 #
#302870000
b11 #
#302880000
b100 !
#302890000
b0 #
#303000000
b101 !
#303010000
b110 !
#303020000
b1 !
b100011 "
#303030000
b10 !
#303040000
b1 #
b11 !
#303050000
b10 #
#303670000
b11 #
#303680000
b100 !
#303690000
b0 #
#303790000
b101 !
#303800000
b110 !
#303810000
b100100 "
b1 !
#303820000
b10 !
#303830000
b11 !
b1 #
#303840000
b10 #
#304350000
b11 #
#304360000
b100 !
#304370000
b0 #
#304450000
b101 !
#304460000
b110 !
#304470000
b100101 "
b1 !
#304480000
b10 !
#304490000
b11 !
b1 #
#304500000
b10 #
#304890000
b11 #
#304900000
b100 !
#304910000
b0 #
#305000000
b101 !
#305010000
b110 !
#305020000
b1 !
b100110 "
#305030000
b10 !
#305040000
b1 #
b11 !
#305050000
b10 #
#305080000
b11 #
#305090000
b100 !
#305100000
b0 #
b101 !
#305300000
b110 !
#305310000
b100111 "
b1 !
#305320000
b10 !
#305330000
b11 !
b1 #
#305340000
b10 #
#305930000
b11 #
#305940000
b100 !
#305950000
b0 #
#306050000
b101 !
#306060000
b110 !
#306070000
b101000 "
b1 !
#306080000
b10 !
#306090000
b11 !
b1 #
#306100000
b10 #
#306510000
b11 #
#306520000
b100 !
#306530000
b0 #
#306610000
b101 !
#306620000
b110 !
#306630000
b101001 "
b1 !
#306640000
b10 !
#306650000
b11 !
b1 #
#306660000
b10 #
#306850000
b11 #
#306860000
b100 !
#306870000
b0 #
#306910000
b101 !
#307010000
b110 !
#307020000
b1 !
b101010 "
#307030000
b10 !
#307040000
b1 #
b11 !
#307050000
b10 #
#307560000
b11 #
#307570000
b100 !
#307580000
b0 #
#307650000
b101 !
#307660000
b110 !
#307670000
b101011 "
b1 !
#307680000
b10 !
#307690000
b11 !
b1 #
#307700000
b10 #
#307850000
b11 #
#307860000
b100 !
#307870000
b0 #
#307930000
b101 !
#308000000
b110 !
#308010000
b101100 "
b1 !
#308020000
b10 !
#308030000
b11 !
b1 #
#308040000
b10 #
#308600000
b11 #
#308610000
b100 !
#308620000
b0 #
#308730000
b101 !
#308740000
b110 !
#308750000
b101101 "
b1 !
#308760000
b10 !
#308770000
b11 !
b1 #
#308780000
b10 #
#308860000
b11 #
#308870000
b100 !
#308880000
b0 #
#308920000
b101 !
#309090000
b110 !
#309100000
b1 !
b101110 "
#309110000
b10 !
#309120000
b1 #
b11 !
#309130000
b10 #
#309730000
b11 #
#309740000
b100 !
#309750000
b0 #
#309830000
b101 !
#309840000
b110 !
#309850000
b101111 "
b1 !
#309860000
b10 !
#309870000
b11 !
b1 #
#309880000
b10 #
#309910000
b11 #
#309920000
b100 !
#309930000
b0 #
#309940000
b101 !
#310230000
b110 !
#310240000
b1 !
b110000 "
#310250000
b10 !
#310260000
b1 #
b11 !
#310270000
b10 #
#310710000
b11 #
#310720000
b100 !
#310730000
b0 #
#310810000
b101 !
#310820000
b110 !
#310830000
b110001 "
b1 !
#310840000
b10 !
#310850000
b11 !
b1 #
#310860000
b10 #
#311070000
b11 #
#311080000
b100 !
#311090000
b0 #
#311130000
b101 !
#311230000
b110 !
#311240000
b1 !
b110010 "
#311250000
b10 !
#311260000
b1 #
b11 !
#311270000
b10 #
#311400000
b11 #
#311410000
b100 !
#311420000
b0 #
#311450000
b101 !
#311460000
b110 !
#311470000
b110011 "
b1 !
#311480000
b10 !
#311490000
b11 !
b1 #
#311500000
b10 #
#311790000
b11 #
#311800000
b100 !
#311810000
b0 #
#311870000
b101 !
#311880000
b110 !
#311890000
b110100 "
b1 !
#311900000
b10 !
#311910000
b11 !
b1 #
#311920000
b10 #
#312610000
b11 #
#312620000
b100 !
#312630000
b0 #
#312730000
b101 !
#312740000
b110 !
#312750000
b110101 "
b1 !
#312760000
b10 !
#312770000
b11 !
b1 #
#312780000
b10 #
#313380000
b11 #
#313390000
b100 !
#313400000
b0 #
#313500000
b101 !
#313510000
b110 !
#313520000
b1 !
b110110 "
#313530000
b10 !
#313540000
b1 #
b11 !
#313550000
b10 #
#313990000
b11 #
#314000000
b100 !
#314010000
b0 #
#314070000
b101 !
#314080000
b110 !
#314090000
b110111 "
b1 !
#314100000
b10 !
#314110000
b11 !
b1 #
#314120000
b10 #
#314310000
b11 #
#314320000
b100 !
#314330000
b0 #
#314390000
b101 !
#314530000
b110 !
#314540000
b1 !
b111000 "
#314550000
b10 !
#314560000
b1 #
b11 !
#314570000
b10 #
#314640000
b11 #
#314650000
b100 !
#314660000
b0 #
#314670000
b101 !
#314690000
b110 !
#314700000
b1 !
b111001 "
#314710000
b10 !
#314720000
b1 #
b11 !
#314730000
b10 #
#314940000
b11 #
#314950000
b100 !
#314960000
b0 #
#315010000
b101 !
#315020000
b110 !
#315030000
b111010 "
b1 !
#315040000
b10 !
#315050000
b11 !
b1 #
#315060000
b10 #
#315740000
b11 #
#315750000
b100 !
#315760000
b0 #
#315880000
b101 !
#315890000
b110 !
#315900000
b1 !
b111011 "
#315910000
b10 !
#315920000
b1 #
b11 !
#315930000
b10 #
#316330000
b11 #
#316340000
b100 !
#316350000
b0 #
#316460000
b101 !
#316470000
b110 !
#316480000
b1 !
b111100 "
#316490000
b10 !
#316500000
b1 #
b11 !
#316510000
b10 #
#317030000
b11 #
#317040000
b100 !
#317050000
b0 #
#317160000
b101 !
#317170000
b110 !
#317180000
b1 !
b111101 "
#317190000
b10 !
#317200000
b1 #
b11 !
#317210000
b10 #
#317710000
b11 #
#317720000
b100 !
#317730000
b0 #
#317790000
b101 !
#317800000
b110 !
#317810000
b111110 "
b1 !
#317820000
b10 !
#317830000
b11 !
b1 #
#317840000
b10 #
#318030000
b11 #
#318040000
b100 !
#318050000
b0 #
#318100000
b101 !
#318240000
b110 !
#318250000
b111111 "
b1 !
#318260000
b10 !
#318270000
b11 !
b1 #
#318280000
b10 #
#318970000
b11 #
#318980000
b100 !
#318990000
b0 #
#319160000
b101 !
#319170000
b110 !
#319180000
b1 !
b1000000 "
#319190000
b10 !
#319200000
b1 #
b11 !
#319210000
b10 #
#319290000
b11 #
#319300000
b100 !
#319310000
b0 #
#319340000
b101 !
#319580000
b110 !
#319590000
b1000001 "
b1 !
#319600000
b10 !
#319610000
b11 !
b1 #
#319620000
b10 #
#319800000
b11 #
#319810000
b100 !
#319820000
b0 #
#319860000
b101 !
#319870000
b110 !
#319880000
b1 !
b1000010 "
#319890000
b10 !
#319900000
b1 #
b11 !
#319910000
b10 #
#320260000
b11 #
#320270000
b100 !
#320280000
b0 #
#320340000
b101 !
#320350000
b110 !
#320360000
b1 !
b1000011 "
#320370000
b10 !
#320380000
b1 #
b11 !
#320390000
b10 #
#321010000
b11 #
#321020000
b100 !
#321030000
b0 #
#321120000
b101 !
#321130000
b110 !
#321140000
b1 !
b1000100 "
#321150000
b10 !
#321160000
b1 #
b11 !
#321170000
b10 #
#321270000
b11 #
#321280000
b100 !
#321290000
b0 #
#321320000
b101 !
#321620000
b110 !
#321630000
b1000101 "
b1 !
#321640000
b10 !
#321650000
b11 !
b1 #
#321660000
b10 #
#321780000
b11 #
#321790000
b100 !
#321800000
b0 #
#321840000
b101 !
#321850000
b110 !
#321860000
b1 !
b1000110 "
#321870000
b10 !
#321880000
b1 #
b11 !
#321890000
b10 #
#322570000
b11 #
#322580000
b100 !
#322590000
b0 #
#322690000
b101 !
#322700000
b110 !
#322710000
b1000111 "
b1 !
#322720000
b10 !
#322730000
b11 !
b1 #
#322740000
b10 #
#323210000
b11 #
#323220000
b100 !
#323230000
b0 #
#323310000
b101 !
#323320000
b110 !
#323330000
b1001000 "
b1 !
#323340000
b10 !
#323350000
b11 !
b1 #
#323360000
b10 #
#323640000
b11 #
#323650000
b100 !
#323660000
b0 #
#323720000
b101 !
#323730000
b110 !
#323740000
b1 !
b1001001 "
#323750000
b10 !
#323760000
b1 #
b11 !
#323770000
b10 #
#324200000
b11 #
#324210000
b100 !
#324220000
b0 #
#324280000
b101 !
#324290000
b110 !
#324300000
b1 !
b1001010 "
#324310000
b10 !
#324320000
b1 #
b11 !
#324330000
b10 #
#324400000
b11 #
#324410000
b100 !
#324420000
b0 #
#324450000
b101 !
#324630000
b110 !
#324640000
b1 !
b1001011 "
#324650000
b10 !
#324660000
b1 #
b11 !
#324670000
b10 #
#324950000
b11 #
#324960000
b100 !
#324970000
b0 #
#325020000
b101 !
#325030000
b110 !
#325040000
b1 !
b1001100 "
#325050000
b10 !
#325060000
b1 #
b11 !
#325070000
b10 #
#325510000
b11 #
#325520000
b100 !
#325530000
b0 #
#325610000
b101 !
#325620000
b110 !
#325630000
b1001101 "
b1 !
#325640000
b10 !
#325650000
b11 !
b1 #
#325660000
b10 #
#325980000
b11 #
#325990000
b100 !
#326000000
b0 #
#326070000
b101 !
#326080000
b110 !
#326090000
b1001110 "
b1 !
#326100000
b10 !
#326110000
b11 !
b1 #
#326120000
b10 #
#326200000
b11 #
#326210000
b100 !
#326220000
b0 #
#326250000
b101 !
#326440000
b110 !
#326450000
b1001111 "
b1 !
#326460000
b10 !
#326470000
b11 !
b1 #
#326480000
b10 #
#326610000
b11 #
#326620000
b100 !
#326630000
b0 #
#326670000
b101 !
#326680000
b110 !
#326690000
b1010000 "
b1 !
#326700000
b10 !
#326710000
b11 !
b1 #
#326720000
b10 #
#326930000
b11 #
#326940000
b100 !
#326950000
b0 #
#327000000
b101 !
#327010000
b110 !
#327020000
b1 !
b1010001 "
#327030000
b10 !
#327040000
b1 #
b11 !
#327050000
b10 #
#327490000
b11 #
#327500000
b100 !
#327510000
b0 #
#327590000
b101 !
#327600000
b110 !
#327610000
b1010010 "
b1 !
#327620000
b10 !
#327630000
b11 !
b1 #
#327640000
b10 #
#328290000
b11 #
#328300000
b100 !
#328310000
b0 #
#328430000
b101 !
#328440000
b110 !
#328450000
b1010011 "
b1 !
#328460000
b10 !
#328470000
b11 !
b1 #
#328480000
b10 #
#328890000
b11 #
#328900000
b100 !
#328910000
b0 #
#329000000
b101 !
#329010000
b110 !
#329020000
b1 !
b1010100 "
#329030000
b10 !
#329040000
b1 #
b11 !
#329050000
b10 #
#329750000
b11 #
#329760000
b100 !
#329770000
b0 #
#329910000
b101 !
#329920000
b110 !
#329930000
b1010101 "
b1 !
#329940000
b10 !
#329950000
b11 !
b1 #
#329960000
b10 #
#330560000
b11 #
#330570000
b100 !
#330580000
b0 #
#330710000
b101 !
#330720000
b110 !
#330730000
b1010110 "
b1 !
#330740000
b10 !
#330750000
b11 !
b1 #
#330760000
b10 #
#331430000
b11 #
#331440000
b100 !
#331450000
b0 #
#331570000
b101 !
#331580000
b110 !
#331590000
b1010111 "
b1 !
#331600000
b10 !
#331610000
b11 !
b1 #
#331620000
b10 #
#332270000
b11 #
#332280000
b100 !
#332290000
b0 #
#332420000
b101 !
#332430000
b110 !
#332440000
b1 !
b1011000 "
#332450000
b10 !
#332460000
b1 #
b11 !
#332470000
b10 #
#333010000
b11 #
#333020000
b100 !
#333030000
b0 #
#333160000
b101 !
#333170000
b110 !
#333180000
b1 !
b1011001 "
#333190000
b10 !
#333200000
b1 #
b11 !
#333210000
b10 #
#333620000
b11 #
#333630000
b100 !
#333640000
b0 #
#333720000
b101 !
#333730000
b110 !
#333740000
b1 !
b1011010 "
#333750000
b10 !
#333760000
b1 #
b11 !
#333770000
b10 #
#333990000
b11 #
#334000000
b100 !
#334010000
b0 #
#334060000
b101 !
#334070000
b110 !
#334080000
b1 !
b1011011 "
#334090000
b10 !
#334100000
b1 #
b11 !
#334110000
b10 #
#334860000
b11 #
#334870000
b100 !
#334880000
b0 #
#335050000
b101 !
#335060000
b110 !
#335070000
b1011100 "
b1 !
#335080000
b10 !
#335090000
b11 !
b1 #
#335100000
b10 #
#335390000
b11 #
#335400000
b100 !
#335410000
b0 #
#335470000
b101 !
#335480000
b110 !
#335490000
b1011101 "
b1 !
#335500000
b10 !
#335510000
b11 !
b1 #
#335520000
b10 #
#335940000
b11 #
#335950000
b100 !
#335960000
b0 #
#336040000
b101 !
#336050000
b110 !
#336060000
b1 !
b1011110 "
#336070000
b10 !
#336080000
b1 #
b11 !
#336090000
b10 #
#336180000
b11 #
#336190000
b100 !
#336200000
b0 #
#336230000
b101 !
#336340000
b110 !
#336350000
b1011111 "
b1 !
#336360000
b10 !
#336370000
b11 !
b1 #
#336380000
b10 #
#336490000
b11 #
#336500000
b100 !
#336510000
b0 #
#336550000
b101 !
#336560000
b110 !
#336570000
b1100000 "
b1 !
#336580000
b10 !
#336590000
b11 !
b1 #
#336600000
b10 #
#336860000
b11 #
#336870000
b100 !
#336880000
b0 #
#336940000
b101 !
#336950000
b110 !
#336960000
b1 !
b1100001 "
#336970000
b10 !
#336980000
b1 #
b11 !
#336990000
b10 #
#337700000
b11 #
#337710000
b100 !
#337720000
b0 #
#337840000
b101 !
#337850000
b110 !
#337860000
b1 !
b1100010 "
#337870000
b10 !
#337880000
b1 #
b11 !
#337890000
b10 #
#338610000
b11 #
#338620000
b100 !
#338630000
b0 #
#338750000
b101 !
#338760000
b110 !
#338770000
b1100011 "
b1 !
#338780000
b10 !
#338790000
b11 !
b1 #
#338800000
b10 #
#338900000
b11 #
#338910000
b100 !
#338920000
b0 #
#338960000
b101 !
#339150000
b110 !
#339160000
b1 !
b1100100 "
#339170000
b10 !
#339180000
b1 #
b11 !
#339190000
b10 #
#339450000
b11 #
#339460000
b100 !
#339470000
b0 #
#339510000
b101 !
#339520000
b110 !
#339530000
b1100101 "
b1 !
#339540000
b10 !
#339550000
b11 !
b1 #
#339560000
b10 #
#339890000
b11 #
#339900000
b100 !
#339910000
b0 #
#339980000
b101 !
#339990000
b110 !
#340000000
b1 !
b1100110 "
#340010000
b10 !
#340020000
b1 #
b11 !
#340030000
b10 #
#340380000
b11 #
#340390000
b100 !
#340400000
b0 #
#340460000
b101 !
#340470000
b110 !
#340480000
b1 !
b1100111 "
#340490000
b10 !
#340500000
b1 #
b11 !
#340510000
b10 #
#341250000
b11 #
#341260000
b100 !
#341270000
b0 #
#341430000
b101 !
#341440000
b110 !
#341450000
b1101000 "
b1 !
#341460000
b10 !
#341470000
b11 !
b1 #
#341480000
b10 #
#341630000
b11 #
#341640000
b100 !
#341650000
b0 #
#341700000
b101 !
#341950000
b110 !
#341960000
b1 !
b1101001 "
#341970000
b10 !
#341980000
b1 #
b11 !
#341990000
b10 #
#342040000
b11 #
#342050000
b100 !
#342060000
b0 #
#342100000
b101 !
#342110000
b110 !
#342120000
b1 !
b1101010 "
#342130000
b10 !
#342140000
b1 #
b11 !
#342150000
b10 #
#342910000
b11 #
#342920000
b100 !
#342930000
b0 #
#343030000
b101 !
#343040000
b110 !
#343050000
b1101011 "
b1 !
#343060000
b10 !
#343070000
b11 !
b1 #
#343080000
b10 #
#343370000
b11 #
#343380000
b100 !
#343390000
b0 #
#343450000
b101 !
#343490000
b110 !
#343500000
b1 !
b1101100 "
#343510000
b10 !
#343520000
b1 #
b11 !
#343530000
b10 #
#343880000
b11 #
#343890000
b100 !
#343900000
b0 #
#343970000
b101 !
#343980000
b110 !
#343990000
b1101101 "
b1 !
#344000000
b10 !
#344010000
b11 !
b1 #
#344020000
b10 #
#344440000
b11 #
#344450000
b100 !
#344460000
b0 #
#344550000
b101 !
#344560000
b110 !
#344570000
b1101110 "
b1 !
#344580000
b10 !
#344590000
b11 !
b1 #
#344600000
b10 #
#344970000
b11 #
#344980000
b100 !
#344990000
b0 #
#345040000
b101 !
#345050000
b110 !
#345060000
b1 !
b1101111 "
#345070000
b10 !
#345080000
b1 #
b11 !
#345090000
b10 #
#345230000
b11 #
#345240000
b100 !
#345250000
b0 #
#345280000
b101 !
#345310000
b110 !
#345320000
b1 !
b1110000 "
#345330000
b10 !
#345340000
b1 #
b11 !
#345350000
b10 #
#345520000
b11 #
#345530000
b100 !
#345540000
b0 #
#345600000
b101 !
#345610000
b110 !
#345620000
b1 !
b1110001 "
#345630000
b10 !
#345640000
b1 #
b11 !
#345650000
b10 #
#345730000
b11 #
#345740000
b100 !
#345750000
b0 #
#345780000
b101 !
#345860000
b110 !
#345870000
b1110010 "
b1 !
#345880000
b10 !
#345890000
b11 !
b1 #
#345900000
b10 #
#346030000
b11 #
#346040000
b100 !
#346050000
b0 #
#346090000
b101 !
#346100000
b110 !
#346110000
b1110011 "
b1 !
#346120000
b10 !
#346130000
b11 !
b1 #
#346140000
b10 #
#346850000
b11 #
#346860000
b100 !
#346870000
b0 #
#346980000
b101 !
#346990000
b110 !
#347000000
b1 !
b1110100 "
#347010000
b10 !
#347020000
b1 #
b11 !
#347030000
b10 #
#347130000
b11 #
#347140000
b100 !
#347150000
b0 #
#347190000
b101 !
#347470000
b110 !
#347480000
b1 !
b1110101 "
#347490000
b10 !
#347500000
b1 #
b11 !
#347510000
b10 #
#347820000
b11 #
#347830000
b100 !
#347840000
b0 #
#347920000
b101 !
#347930000
b110 !
#347940000
b1 !
b1110110 "
#347950000
b10 !
#347960000
b1 #
b11 !
#347970000
b10 #
#348170000
b11 #
#348180000
b100 !
#348190000
b0 #
#348240000
b101 !
#348270000
b110 !
#348280000
b1 !
b1110111 "
#348290000
b10 !
#348300000
b1 #
b11 !
#348310000
b10 #
#348990000
b11 #
#349000000
b100 !
#349010000
b0 #
#349130000
b101 !
#349140000
b110 !
#349150000
b1111000 "
b1 !
#349160000
b10 !
#349170000
b11 !
b1 #
#349180000
b10 #
#349640000
b11 #
#349650000
b100 !
#349660000
b0 #
#349740000
b101 !
#349750000
b110 !
#349760000
b1 !
b1111001 "
#349770000
b10 !
#349780000
b1 #
b11 !
#349790000
b10 #
#350230000
b11 #
#350240000
b100 !
#350250000
b0 #
#350360000
b101 !
#350370000
b110 !
#350380000
b1 !
b1111010 "
#350390000
b10 !
#350400000
b1 #
b11 !
#350410000
b10 #
#350820000
b11 #
#350830000
b100 !
#350840000
b0 #
#350910000
b101 !
#350920000
b110 !
#350930000
b1111011 "
b1 !
#350940000
b10 !
#350950000
b11 !
b1 #
#350960000
b10 #
#351480000
b11 #
#351490000
b100 !
#351500000
b0 #
#351610000
b101 !
#351620000
b110 !
#351630000
b1111100 "
b1 !
#351640000
b10 !
#351650000
b11 !
b1 #
#351660000
b10 #
#352050000
b11 #
#352060000
b100 !
#352070000
b0 #
#352150000
b101 !
#352160000
b110 !
#352170000
b1111101 "
b1 !
#352180000
b10 !
#352190000
b11 !
b1 #
#352200000
b10 #
#352690000
b11 #
#352700000
b100 !
#352710000
b0 #
#352790000
b101 !
#352800000
b110 !
#352810000
b1111110 "
b1 !
#352820000
b10 !
#352830000
b11 !
b1 #
#352840000
b10 #
#353290000
b11 #
#353300000
b100 !
#353310000
b0 #
#353390000
b101 !
#353400000
b110 !
#353410000
b1111111 "
b1 !
#353420000
b10 !
#353430000
b11 !
b1 #
#353440000
b10 #
#353870000
b11 #
#353880000
b100 !
#353890000
b0 #
#353970000
b101 !
#353980000
b110 !
#353990000
b10000000 "
b1 !
#354000000
b10 !
#354010000
b11 !
b1 #
#354020000
b10 #
#354300000
b11 #
#354310000
b100 !
#354320000
b0 #
#354370000
b101 !
#354380000
b110 !
#354390000
b10000001 "
b1 !
#354400000
b10 !
#354410000
b11 !
b1 #
#354420000
b10 #
#354480000
b11 #
#354490000
b100 !
#354500000
b0 #
#354530000
b101 !
#354740000
b110 !
#354750000
b10000010 "
b1 !
#354760000
b10 !
#354770000
b11 !
b1 #
#354780000
b10 #
#355000000
b11 #
#355010000
b100 !
#355020000
b0 #
#355080000
b101 !
#355090000
b110 !
#355100000
b1 !
b10000011 "
#355110000
b10 !
#355120000
b1 #
b11 !
#355130000
b10 #
#355190000
b11 #
#355200000
b100 !
#355210000
b0 #
#355250000
b101 !
#355380000
b110 !
#355390000
b10000100 "
b1 !
#355400000
b10 !
#355410000
b11 !
b1 #
#355420000
b10 #
#355750000
b11 #
#355760000
b100 !
#355770000
b0 #
#355860000
b101 !
#355870000
b110 !
#355880000
b1 !
b10000101 "
#355890000
b10 !
#355900000
b1 #
b11 !
#355910000
b10 #
#356490000
b11 #
#356500000
b100 !
#356510000
b0 #
#356620000
b101 !
#356630000
b110 !
#356640000
b1 !
b10000110 "
#356650000
b10 !
#356660000
b1 #
b11 !
#356670000
b10 #
#357100000
b11 #
#357110000
b100 !
#357120000
b0 #
#357180000
b101 !
#357190000
b110 !
#357200000
b1 !
b10000111 "
#357210000
b10 !
#357220000
b1 #
b11 !
#357230000
b10 #
#357740000
b11 #
#357750000
b100 !
#357760000
b0 #
#357850000
b101 !
#357860000
b110 !
#357870000
b10001000 "
b1 !
#357880000
b10 !
#357890000
b11 !
b1 #
#357900000
b10 #
#358110000
b11 #
#358120000
b100 !
#358130000
b0 #
#358180000
b101 !
#358280000
b110 !
#358290000
b10001001 "
b1 !
#358300000
b10 !
#358310000
b11 !
b1 #
#358320000
b10 #
#358380000
b11 #
#358390000
b100 !
#358400000
b0 #
#358410000
b101 !
#358470000
b110 !
#358480000
b1 !
b10001010 "
#358490000
b10 !
#358500000
b1 #
b11 !
#358510000
b10 #
#359180000
b11 #
#359190000
b100 !
#359200000
b0 #
#359330000
b101 !
#359340000
b110 !
#359350000
b10001011 "
b1 !
#359360000
b10 !
#359370000
b11 !
b1 #
#359380000
b10 #
#360120000
b11 #
#360130000
b100 !
#360140000
b0 #
#360240000
b101 !
#360250000
b110 !
#360260000
b1 !
b10001100 "
#360270000
b10 !
#360280000
b1 #
b11 !
#360290000
b10 #
#360980000
b11 #
#360990000
b100 !
#361000000
b0 #
#361120000
b101 !
#361130000
b110 !
#361140000
b1 !
b10001101 "
#361150000
b10 !
#361160000
b1 #
b11 !
#361170000
b10 #
#361360000
b11 #
#361370000
b100 !
#361380000
b0 #
#361430000
b101 !
#361530000
b110 !
#361540000
b1 !
b10001110 "
#361550000
b10 !
#361560000
b1 #
b11 !
#361570000
b10 #
#362120000
b11 #
#362130000
b100 !
#362140000
b0 #
#362220000
b101 !
#362230000
b110 !
#362240000
b1 !
b10001111 "
#362250000
b10 !
#362260000
b1 #
b11 !
#362270000
b10 #
#362320000
b11 #
#362330000
b100 !
#362340000
b0 #
#362350000
b101 !
#362550000
b110 !
#362560000
b1 !
b10010000 "
