test/pe_sim/sim_build/pe_dump.vcd
$date
	Tue Jun 23 18:09:19 2026
$end
$version
	Icarus Verilog
$end
$timescale
	1ps
$end
$scope module tb_pe_top $end
$scope module u_pe $end
$var reg 4 ! state [3:0] $end
$upscope $end
$upscope $end
$scope module tb_pe_top $end
$scope module u_pe $end
$var reg 8 " row_idx [7:0] $end
$upscope $end
$upscope $end
$scope module tb_pe_top $end
$scope module u_pe $end
$var reg 16 # a_nnz_left [15:0] $end
$upscope $end
$upscope $end
$scope module tb_pe_top $end
$scope module u_pe $end
$var reg 16 $ b_nnz_left [15:0] $end
$upscope $end
$upscope $end
$scope module tb_pe_top $end
$scope module u_pe $end
$var wire 1 % cbuf_wr_valid $end
$upscope $end
$upscope $end
$scope module tb_pe_top $end
$scope module u_pe $end
$var reg 1 & done $end
$upscope $end
$upscope $end
$enddefinitions $end
$comment Show the parameter values. $end
$dumpall
$end
#0
$dumpvars
0&
0%
b0 $
b0 #
b0 "
b0 !
$end
#294450000
b1 !
#294460000
b100001 #
#294470000
b10 !
#294480000
b11 !
#294490000
b10011 $
b101 !
#294500000
b1111 $
#294510000
b1011 $
#294520000
b111 $
#294530000
b11 $
#294540000
b10101 $
b100000 #
#294550000
b10010 $
#294560000
b1110 $
#294570000
b1010 $
#294580000
b110 $
#294590000
b10 $
#294600000
b10000 $
b11111 #
#294610000
b1110 $
#294620000
b1010 $
#294630000
b110 $
#294640000
b10 $
#294650000
b10000 $
b11110 #
#294660000
b1110 $
#294670000
b1010 $
#294680000
b110 $
#294690000
b10 $
#294700000
b10001 $
b11101 #
#294710000
b1111 $
#294720000
b1011 $
#294730000
b111 $
#294740000
b11 $
#294750000
b10110 $
b11100 #
#294760000
b10011 $
#294770000
b1111 $
#294780000
b1011 $
#294790000
b111 $
#294800000
b11 $
#294810000
b1110 $
b11011 #
#294820000
b1011 $
#294830000
b111 $
#294840000
b11 $
#294850000
b1010 $
b11010 #
#294860000
b111 $
#294870000
b11 $
#294880000
b11000 $
b11001 #
#294890000
b10101 $
#294900000
b10001 $
#294910000
b1101 $
#294920000
b1001 $
#294930000
b101 $
#294940000
b1 $
#294950000
b1011 $
b11000 #
#294960000
b1010 $
#294970000
b110 $
#294980000
b10 $
#294990000
b1100 $
b10111 #
#295000000
b1010 $
#295010000
b110 $
#295020000
b10 $
#295030000
b10000 $
b10110 #
#295040000
b1110 $
#295050000
b1010 $
#295060000
b110 $
#295070000
b10 $
#295080000
b10000 $
b10101 #
#295090000
b1110 $
#295100000
b1010 $
#295110000
b110 $
#295120000
b10 $
#295130000
b10001 $
b10100 #
#295140000
b1111 $
#295150000
b1011 $
#295160000
b111 $
#295170000
b11 $
#295180000
b11001 $
b10011 #
#295190000
b10110 $
#295200000
b10010 $
#295210000
b1110 $
#295220000
b1010 $
#295230000
b110 $
#295240000
b10 $
#295250000
b10000 $
b10010 #
#295260000
b1110 $
#295270000
b1010 $
#295280000
b110 $
#295290000
b10 $
#295300000
b11101 $
b10001 #
#295310000
b11011 $
#295320000
b10111 $
#295330000
b10011 $
#295340000
b1111 $
#295350000
b1011 $
#295360000
b111 $
#295370000
b11 $
#295380000
b10000 $
b10000 #
#295390000
b1101 $
#295400000
b1001 $
#295410000
b101 $
#295420000
b1 $
#295430000
b1111 $
b1111 #
#295440000
b1110 $
#295450000
b1010 $
#295460000
b110 $
#295470000
b10 $
#295480000
b10011 $
b1110 #
#295490000
b10001 $
#295500000
b1101 $
#295510000
b1001 $
#295520000
b101 $
#295530000
b1 $
#295540000
b10001 $
b1101 #
#295550000
b10000 $
#295560000
b1100 $
#295570000
b1000 $
#295580000
b100 $
#295590000
b10101 $
b1100 #
#295600000
b10001 $
#295610000
b1101 $
#295620000
b1001 $
#295630000
b101 $
#295640000
b1 $
#295650000
b10011 $
b1011 #
#295660000
b10010 $
#295670000
b1110 $
#295680000
b1010 $
#295690000
b110 $
#295700000
b10 $
#295710000
b10100 $
b1010 #
#295720000
b10010 $
#295730000
b1110 $
#295740000
b1010 $
#295750000
b110 $
#295760000
b10 $
#295770000
b10011 $
b1001 #
#295780000
b10001 $
#295790000
b1101 $
#295800000
b1001 $
#295810000
b101 $
#295820000
b1 $
#295830000
b10011 $
b1000 #
#295840000
b10010 $
#295850000
b1110 $
#295860000
b1010 $
#295870000
b110 $
#295880000
b10 $
#295890000
b10000 $
b111 #
#295900000
b1110 $
#295910000
b1010 $
#295920000
b110 $
#295930000
b10 $
#295940000
b1110 $
b110 #
#295950000
b1100 $
#295960000
b1000 $
#295970000
b100 $
#295980000
b10010 $
b101 #
#295990000
b1110 $
#296000000
b1010 $
#296010000
b110 $
#296020000
b10 $
#296030000
b11001 $
b100 #
#296040000
b10111 $
#296050000
b10011 $
#296060000
b1111 $
#296070000
b1011 $
#296080000
b111 $
#296090000
b11 $
#296100000
b10001 $
b11 #
#296110000
b1110 $
#296120000
b1010 $
#296130000
b110 $
#296140000
b10 $
#296150000
b1111 $
b10 #
#296160000
b1101 $
#296170000
b1001 $
#296180000
b101 $
#296190000
b1 $
#296200000
b1110 $
b1 #
#296210000
b1101 $
#296220000
b1001 $
#296230000
b101 $
#296240000
b1 $
#296250000
b0 $
b0 #
b110 !
#296270000
b111 !
#296300000
b1000 !
#296310000
b1 "
#296320000
b1 !
#296330000
b101100 #
#296340000
b10 !
#296350000
b11 !
#296360000
b101 !
b10000 $
#296370000
b1100 $
#296380000
1%
b1000 $
#296390000
b100 $
#296400000
b10000 $
b101011 #
#296410000
b1100 $
#296420000
b1000 $
#296430000
b100 $
#296440000
b1101 $
b101010 #
#296450000
b1001 $
#296460000
b101 $
#296470000
b1 $
#296480000
b10011 $
b101001 #
#296490000
b10010 $
#296500000
b1110 $
#296510000
b1010 $
#296520000
b110 $
#296530000
b10 $
#296540000
b1101 $
b101000 #
#296550000
b1011 $
#296560000
b111 $
#296570000
b11 $
#296580000
b10010 $
b100111 #
#296590000
b1111 $
#296600000
b1011 $
#296610000
b111 $
#296620000
b11 $
#296630000
b10101 $
b100110 #
#296640000
b10010 $
#296650000
b1110 $
#296660000
b1010 $
#296670000
b110 $
#296680000
b10 $
#296690000
b10000 $
b100101 #
#296700000
b1110 $
#296710000
b1010 $
#296720000
b110 $
#296730000
b10 $
#296740000
b10011 $
b100100 #
#296750000
b10001 $
#296760000
b1101 $
#296770000
b1001 $
#296780000
b101 $
#296790000
b1 $
#296800000
b1111 $
b100011 #
#296810000
b1110 $
#296820000
b1010 $
#296830000
b110 $
#296840000
b10 $
#296850000
b10001 $
b100010 #
#296860000
b1111 $
#296870000
0%
b1011 $
#296880000
1%
b111 $
#296890000
b11 $
#296900000
b10110 $
b100001 #
#296910000
b10011 $
#296920000
b1111 $
#296930000
b1011 $
#296940000
b111 $
#296950000
0%
b11 $
#296960000
1%
b10001 $
b100000 #
#296970000
b1110 $
#296980000
b1010 $
#296990000
b110 $
#297000000
b10 $
#297010000
b10000 $
b11111 #
#297020000
b1110 $
#297030000
b1010 $
#297040000
b110 $
#297050000
b10 $
#297060000
b1101 $
b11110 #
#297070000
b1011 $
#297080000
b111 $
#297090000
b11 $
#297100000
b10000 $
b11101 #
#297110000
b1101 $
#297120000
b1001 $
#297130000
b101 $
#297140000
b1 $
#297150000
b10110 $
b11100 #
#297160000
b10101 $
#297170000
b10001 $
#297180000
b1101 $
#297190000
b1001 $
#297200000
b101 $
#297210000
b1 $
#297220000
b10000 $
b11011 #
#297230000
b1111 $
#297240000
b1011 $
#297250000
b111 $
#297260000
b11 $
#297270000
b10000 $
b11010 #
#297280000
b1101 $
#297290000
b1001 $
#297300000
b101 $
#297310000
b1 $
#297320000
b10000 $
b11001 #
#297330000
b1111 $
#297340000
b1011 $
#297350000
b111 $
#297360000
b11 $
#297370000
b1110 $
b11000 #
#297380000
b1011 $
#297390000
b111 $
#297400000
b11 $
#297410000
b1101 $
b10111 #
#297420000
b1010 $
#297430000
b110 $
#297440000
b10 $
#297450000
b1101 $
b10110 #
#297460000
b1011 $
#297470000
b111 $
#297480000
b11 $
#297490000
b1011 $
b10101 #
#297500000
b1000 $
#297510000
b100 $
#297520000
b11010 $
b10100 #
#297530000
b10110 $
#297540000
b10010 $
#297550000
0%
b1110 $
#297560000
b1010 $
#297570000
b110 $
#297580000
b10 $
#297590000
b10100 $
b10011 #
#297600000
b10010 $
#297610000
b1110 $
#297620000
b1010 $
#297630000
b110 $
#297640000
b10 $
#297650000
b10100 $
b10010 #
#297660000
b10010 $
#297670000
b1110 $
#297680000
b1010 $
#297690000
b110 $
#297700000
b10 $
#297710000
b10000 $
b10001 #
#297720000
b1110 $
#297730000
b1010 $
#297740000
b110 $
#297750000
b10 $
#297760000
b10000 $
b10000 #
#297770000
b1110 $
#297780000
b1010 $
#297790000
b110 $
#297800000
b10 $
#297810000
b10011 $
b1111 #
#297820000
b10001 $
#297830000
b1101 $
#297840000
b1001 $
#297850000
b101 $
#297860000
b1 $
#297870000
b10011 $
b1110 #
#297880000
b10010 $
#297890000
b1110 $
#297900000
b1010 $
#297910000
b110 $
#297920000
b10 $
#297930000
b1111 $
b1101 #
#297940000
b1101 $
#297950000
b1001 $
#297960000
b101 $
#297970000
b1 $
#297980000
b1111 $
b1100 #
#297990000
b1110 $
#298000000
b1010 $
#298010000
b110 $
#298020000
b10 $
#298030000
b1100 $
b1011 #
#298040000
b1010 $
#298050000
b110 $
#298060000
b10 $
#298070000
b1110 $
b1010 #
#298080000
b1100 $
#298090000
b1000 $
#298100000
b100 $
#298110000
b10011 $
b1001 #
#298120000
b1111 $
#298130000
b1011 $
#298140000
b111 $
#298150000
b11 $
#298160000
b1111 $
b1000 #
#298170000
b1100 $
#298180000
b1000 $
#298190000
b100 $
#298200000
b1111 $
b111 #
#298210000
b1011 $
#298220000
b111 $
#298230000
b11 $
#298240000
b10000 $
b110 #
#298250000
b1101 $
#298260000
b1001 $
#298270000
b101 $
#298280000
b1 $
#298290000
b10100 $
b101 #
#298300000
b10011 $
#298310000
b1111 $
#298320000
b1011 $
#298330000
b111 $
#298340000
b11 $
#298350000
b10001 $
b100 #
#298360000
b1110 $
#298370000
b1010 $
#298380000
b110 $
#298390000
b10 $
#298400000
b10100 $
b11 #
#298410000
b10010 $
#298420000
b1110 $
#298430000
b1010 $
#298440000
b110 $
#298450000
b10 $
#298460000
b10011 $
b10 #
#298470000
b10001 $
#298480000
b1101 $
#298490000
b1001 $
#298500000
b101 $
#298510000
b1 $
#298520000
b1100 $
b1 #
#298530000
b1011 $
#298540000
b111 $
#298550000
b11 $
#298560000
b110 !
b0 $
b0 #
#298580000
b111 !
#298610000
b1000 !
#298620000
b10 "
#298630000
b1 !
#298640000
b101100 #
#298650000
b10 !
#298660000
b11 !
#298670000
b10000 $
b101 !
#298680000
b1100 $
#298690000
b1000 $
#298700000
b100 $
#298710000
b10110 $
b101011 #
#298720000
b10010 $
#298730000
b1110 $
#298740000
b1010 $
#298750000
1%
b110 $
#298760000
b10 $
#298770000
b10100 $
b101010 #
#298780000
b10010 $
#298790000
b1110 $
#298800000
b1010 $
#298810000
b110 $
#298820000
b10 $
#298830000
b1010 $
b101001 #
#298840000
b1000 $
#298850000
b100 $
#298860000
b1110 $
b101000 #
#298870000
b1010 $
#298880000
b110 $
#298890000
b10 $
#298900000
b10001 $
b100111 #
#298910000
b1111 $
#298920000
b1011 $
#298930000
b111 $
#298940000
b11 $
#298950000
b1101 $
b100110 #
#298960000
b1010 $
#298970000
b110 $
#298980000
b10 $
#298990000
b110 $
b100101 #
#299000000
b100 $
#299010000
b1101 $
b100100 #
#299020000
b1001 $
#299030000
b101 $
#299040000
b1 $
#299050000
b10001 $
b100011 #
#299060000
b10000 $
#299070000
b1100 $
#299080000
b1000 $
#299090000
b100 $
#299100000
b10010 $
b100010 #
#299110000
b1110 $
#299120000
b1010 $
#299130000
b110 $
#299140000
b10 $
#299150000
b1101 $
b100001 #
#299160000
b1011 $
#299170000
b111 $
#299180000
b11 $
#299190000
b1111 $
b100000 #
#299200000
b1100 $
#299210000
b1000 $
#299220000
b100 $
#299230000
0%
b1100 $
b11111 #
#299240000
1%
b1000 $
#299250000
b100 $
#299260000
b10111 $
b11110 #
#299270000
b10011 $
#299280000
b1111 $
#299290000
b1011 $
#299300000
b111 $
#299310000
b11 $
#299320000
b1110 $
b11101 #
#299330000
b1011 $
#299340000
b111 $
#299350000
b11 $
#299360000
b10110 $
b11100 #
#299370000
b10011 $
#299380000
b1111 $
#299390000
b1011 $
#299400000
b111 $
#299410000
b11 $
#299420000
b10001 $
b11011 #
#299430000
b1110 $
#299440000
b1010 $
#299450000
b110 $
#299460000
b10 $
#299470000
b10001 $
b11010 #
#299480000
b1111 $
#299490000
b1011 $
#299500000
b111 $
#299510000
b11 $
#299520000
b10100 $
b11001 #
#299530000
b10001 $
#299540000
b1101 $
#299550000
b1001 $
#299560000
0%
b101 $
#299570000
1%
b1 $
#299580000
b1010 $
b11000 #
#299590000
b1001 $
#299600000
b101 $
#299610000
b1 $
#299620000
b10000 $
b10111 #
#299630000
b1111 $
#299640000
b1011 $
#299650000
b111 $
#299660000
b11 $
#299670000
b10000 $
b10110 #
#299680000
b1101 $
#299690000
b1001 $
#299700000
b101 $
#299710000
b1 $
#299720000
b10100 $
b10101 #
#299730000
b10011 $
#299740000
b1111 $
#299750000
b1011 $
#299760000
b111 $
#299770000
b11 $
#299780000
b1100 $
b10100 #
#299790000
b1001 $
#299800000
b101 $
#299810000
b1 $
#299820000
b1101 $
b10011 #
#299830000
b1100 $
#299840000
b1000 $
#299850000
b100 $
#299860000
b10011 $
b10010 #
#299870000
b1111 $
#299880000
0%
b1011 $
#299890000
b111 $
#299900000
b11 $
#299910000
b1011 $
b10001 #
#299920000
b1000 $
#299930000
b100 $
#299940000
b10000 $
b10000 #
#299950000
b1100 $
#299960000
b1000 $
#299970000
b100 $
#299980000
b11001 $
b1111 #
#299990000
b10101 $
#300000000
b10001 $
#300010000
b1101 $
#300020000
b1001 $
#300030000
b101 $
#300040000
b1 $
#300050000
b10001 $
b1110 #
#300060000
b10000 $
#300070000
b1100 $
#300080000
b1000 $
#300090000
b100 $
#300100000
b1101 $
b1101 #
#300110000
b1001 $
#300120000
b101 $
#300130000
b1 $
#300140000
b10001 $
b1100 #
#300150000
b10000 $
#300160000
b1100 $
#300170000
b1000 $
#300180000
b100 $
#300190000
b10110 $
b1011 #
#300200000
b10010 $
#300210000
b1110 $
#300220000
b1010 $
#300230000
b110 $
#300240000
b10 $
#300250000
b1111 $
b1010 #
#300260000
b1101 $
#300270000
b1001 $
#300280000
b101 $
#300290000
b1 $
#300300000
b10000 $
b1001 #
#300310000
b1111 $
#300320000
b1011 $
#300330000
b111 $
#300340000
b11 $
#300350000
b11001 $
b1000 #
#300360000
b10110 $
#300370000
b10010 $
#300380000
b1110 $
#300390000
b1010 $
#300400000
b110 $
#300410000
b10 $
#300420000
b10010 $
b111 #
#300430000
b10000 $
#300440000
b1100 $
#300450000
b1000 $
#300460000
b100 $
#300470000
b10000 $
b110 #
#300480000
b1100 $
#300490000
b1000 $
#300500000
b100 $
#300510000
b1110 $
b101 #
#300520000
b1010 $
#300530000
b110 $
#300540000
b10 $
#300550000
b1101 $
b100 #
#300560000
b1011 $
#300570000
b111 $
#300580000
b11 $
#300590000
b10101 $
b11 #
#300600000
b10010 $
#300610000
b1110 $
#300620000
b1010 $
#300630000
b110 $
#300640000
b10 $
#300650000
b10011 $
b10 #
#300660000
b10001 $
#300670000
b1101 $
#300680000
b1001 $
#300690000
b101 $
#300700000
b1 $
#300710000
b10100 $
b1 #
#300720000
b10011 $
#300730000
b1111 $
#300740000
b1011 $
#300750000
b111 $
#300760000
b11 $
#300770000
b0 $
b0 #
b110 !
#300790000
b111 !
#300820000
b1000 !
#300830000
b11 "
#300840000
b1 !
#300850000
b100010 #
#300860000
b10 !
#300870000
b11 !
#300880000
b101 !
b10110 $
#300890000
b10010 $
#300900000
b1110 $
#300910000
b1010 $
#300920000
b110 $
#300930000
b10 $
#300940000
b1110 $
b100001 #
#300950000
b1100 $
#300960000
b1000 $
#300970000
b100 $
#300980000
b10101 $
b100000 #
#300990000
b10001 $
#301000000
b1101 $
#301010000
b1001 $
#301020000
b101 $
#301030000
b1 $
#301040000
b10000 $
b11111 #
#301050000
b1111 $
#301060000
b1011 $
#301070000
b111 $
#301080000
b11 $
#301090000
1%
b1101 $
b11110 #
#301100000
b1010 $
#301110000
b110 $
#301120000
b10 $
#301130000
b10000 $
b11101 #
#301140000
b1110 $
#301150000
b1010 $
#301160000
b110 $
#301170000
b10 $
#301180000
b10100 $
b11100 #
#301190000
b10010 $
#301200000
b1110 $
#301210000
b1010 $
#301220000
b110 $
#301230000
b10 $
#301240000
b1011 $
b11011 #
#301250000
b1001 $
#301260000
b101 $
#301270000
b1 $
#301280000
b10000 $
b11010 #
#301290000
b1111 $
#301300000
b1011 $
#301310000
b111 $
#301320000
b11 $
#301330000
b10000 $
b11001 #
#301340000
b1101 $
#301350000
b1001 $
#301360000
b101 $
#301370000
b1 $
#301380000
b10000 $
b11000 #
#301390000
b1111 $
#301400000
b1011 $
#301410000
b111 $
#301420000
b11 $
#301430000
b11001 $
b10111 #
#301440000
b10110 $
#301450000
b10010 $
#301460000
b1110 $
#301470000
b1010 $
#301480000
b110 $
#301490000
b10 $
#301500000
b1100 $
b10110 #
#301510000
b1010 $
#301520000
b110 $
#301530000
b10 $
#301540000
b1100 $
b10101 #
#301550000
b1010 $
#301560000
b110 $
#301570000
b10 $
#301580000
b1010 $
b10100 #
#301590000
0%
b1000 $
#301600000
1%
b100 $
#301610000
b10000 $
b10011 #
#301620000
b1100 $
#301630000
b1000 $
#301640000
b100 $
#301650000
b1111 $
b10010 #
#301660000
b1011 $
#301670000
b111 $
#301680000
b11 $
#301690000
b10011 $
b10001 #
#301700000
b10000 $
#301710000
b1100 $
#301720000
b1000 $
#301730000
b100 $
#301740000
b10101 $
b10000 #
#301750000
b10001 $
#301760000
b1101 $
#301770000
b1001 $
#301780000
b101 $
#301790000
b1 $
#301800000
b1010 $
b1111 #
#301810000
b1001 $
#301820000
b101 $
#301830000
b1 $
#301840000
b10001 $
b1110 #
#301850000
b10000 $
#301860000
b1100 $
#301870000
b1000 $
#301880000
b100 $
#301890000
b10110 $
b1101 #
#301900000
b10010 $
#301910000
b1110 $
#301920000
b1010 $
#301930000
b110 $
#301940000
b10 $
#301950000
0%
b1101 $
b1100 #
#301960000
1%
b1011 $
#301970000
b111 $
#301980000
b11 $
#301990000
b10011 $
b1011 #
#302000000
b10000 $
#302010000
b1100 $
#302020000
b1000 $
#302030000
b100 $
#302040000
b1111 $
b1010 #
#302050000
b1011 $
#302060000
b111 $
#302070000
b11 $
#302080000
b10010 $
b1001 #
#302090000
b1111 $
#302100000
b1011 $
#302110000
b111 $
#302120000
b11 $
#302130000
b11010 $
b1000 #
#302140000
b10111 $
#302150000
b10011 $
#302160000
b1111 $
#302170000
b1011 $
#302180000
b111 $
#302190000
b11 $
#302200000
b10011 $
b111 #
#302210000
b10000 $
#302220000
b1100 $
#302230000
b1000 $
#302240000
b100 $
#302250000
b10111 $
b110 #
#302260000
b10011 $
#302270000
b1111 $
#302280000
0%
b1011 $
#302290000
b111 $
#302300000
b11 $
#302310000
b10000 $
b101 #
#302320000
b1101 $
#302330000
b1001 $
#302340000
b101 $
#302350000
b1 $
#302360000
b1101 $
b100 #
#302370000
b1100 $
#302380000
b1000 $
#302390000
b100 $
#302400000
b10101 $
b11 #
#302410000
b10001 $
#302420000
b1101 $
#302430000
b1001 $
#302440000
b101 $
#302450000
b1 $
#302460000
b1100 $
b10 #
#302470000
b1011 $
#302480000
b111 $
#302490000
b11 $
#302500000
b10110 $
b1 #
#302510000
b10011 $
#302520000
b1111 $
#302530000
b1011 $
#302540000
b111 $
#302550000
b11 $
#302560000
b110 !
b0 $
b0 #
#302580000
b111 !
#302610000
b1000 !
#302620000
b100 "
#302630000
b1 !
#302640000
b11010 #
#302650000
b10 !
#302660000
b11 !
#302670000
b10111 $
b101 !
#302680000
b10011 $
#302690000
b1111 $
#302700000
b1011 $
#302710000
b111 $
#302720000
b11 $
#302730000
b10101 $
b11001 #
#302740000
b10010 $
#302750000
b1110 $
#302760000
b1010 $
#302770000
b110 $
#302780000
b10 $
#302790000
b10011 $
b11000 #
#302800000
b10001 $
#302810000
b1101 $
#302820000
b1001 $
#302830000
1%
b101 $
#302840000
b1 $
#302850000
b10010 $
b10111 #
#302860000
b10001 $
#302870000
b1101 $
#302880000
b1001 $
#302890000
b101 $
#302900000
b1 $
#302910000
b1110 $
b10110 #
#302920000
b1101 $
#302930000
b1001 $
#302940000
b101 $
#302950000
b1 $
#302960000
b101 $
b10101 #
#302970000
b100 $
#302980000
b11010 $
b10100 #
#302990000
b10110 $
#303000000
b10010 $
#303010000
b1110 $
#303020000
b1010 $
#303030000
b110 $
#303040000
b10 $
#303050000
b10000 $
b10011 #
#303060000
b1110 $
#303070000
b1010 $
#303080000
b110 $
#303090000
b10 $
#303100000
b10001 $
b10010 #
#303110000
b1111 $
#303120000
b1011 $
#303130000
b111 $
#303140000
b11 $
#303150000
b10100 $
b10001 #
#303160000
b10001 $
#303170000
b1101 $
#303180000
b1001 $
#303190000
b101 $
#303200000
b1 $
#303210000
b1111 $
b10000 #
#303220000
b1110 $
#303230000
b1010 $
#303240000
b110 $
#303250000
b10 $
#303260000
b10000 $
b1111 #
#303270000
b1110 $
#303280000
b1010 $
#303290000
b110 $
#303300000
b10 $
#303310000
b1101 $
b1110 #
#303320000
0%
b1011 $
#303330000
1%
b111 $
#303340000
b11 $
#303350000
b1101 $
b1101 #
#303360000
b1010 $
#303370000
b110 $
#303380000
b10 $
#303390000
b1100 $
b1100 #
#303400000
b1010 $
#303410000
b110 $
#303420000
b10 $
#303430000
b11000 $
b1011 #
#303440000
b10110 $
#303450000
b10010 $
#303460000
b1110 $
#303470000
b1010 $
#303480000
b110 $
#303490000
b10 $
#303500000
b1011 $
b1010 #
#303510000
b1001 $
#303520000
b101 $
#303530000
b1 $
#303540000
b10001 $
b1001 #
#303550000
b10000 $
#303560000
b1100 $
#303570000
b1000 $
#303580000
b100 $
#303590000
b1111 $
b1000 #
#303600000
b1011 $
#303610000
b111 $
#303620000
b11 $
#303630000
b10100 $
b111 #
#303640000
b10001 $
#303650000
b1101 $
#303660000
b1001 $
#303670000
b101 $
#303680000
b1 $
#303690000
b1111 $
b110 #
#303700000
b1110 $
#303710000
b1010 $
#303720000
b110 $
#303730000
b10 $
#303740000
b1101 $
b101 #
#303750000
b1011 $
#303760000
b111 $
#303770000
b11 $
#303780000
b10011 $
b100 #
#303790000
b10000 $
#303800000
b1100 $
#303810000
b1000 $
#303820000
b100 $
#303830000
b10000 $
b11 #
#303840000
b1100 $
#303850000
b1000 $
#303860000
b100 $
#303870000
b10000 $
b10 #
#303880000
b1100 $
#303890000
b1000 $
#303900000
b100 $
#303910000
b10000 $
b1 #
#303920000
b1100 $
#303930000
b1000 $
#303940000
b100 $
#303950000
b0 $
b0 #
b110 !
#303970000
b111 !
#304000000
0%
#304020000
b1000 !
#304030000
b101 "
#304040000
b1 !
#304050000
b1000 #
#304060000
b10 !
#304070000
b11 !
#304080000
1%
b101 !
b10010 $
#304090000
b1110 $
#304100000
b1010 $
#304110000
b110 $
#304120000
b10 $
#304130000
b11000 $
b111 #
#304140000
b10110 $
#304150000
b10010 $
#304160000
b1110 $
#304170000
b1010 $
#304180000
b110 $
#304190000
b10 $
#304200000
b1100 $
b110 #
#304210000
b1010 $
#304220000
b110 $
#304230000
b10 $
#304240000
b10111 $
b101 #
#304250000
b10101 $
#304260000
b10001 $
#304270000
b1101 $
#304280000
b1001 $
#304290000
b101 $
#304300000
b1 $
#304310000
b1011 $
b100 #
#304320000
b1010 $
#304330000
b110 $
#304340000
b10 $
#304350000
b1011 $
b11 #
#304360000
b1001 $
#304370000
b101 $
#304380000
b1 $
#304390000
b10010 $
b10 #
#304400000
b10001 $
#304410000
b1101 $
#304420000
b1001 $
#304430000
b101 $
#304440000
b1 $
#304450000
b10011 $
b1 #
#304460000
b10010 $
#304470000
b1110 $
#304480000
b1010 $
#304490000
b110 $
#304500000
b10 $
#304510000
b0 $
b0 #
b110 !
#304530000
b111 !
#304560000
0%
#304570000
1%
#304910000
0%
#304920000
1%
#305220000
0%
#305240000
b1000 !
#305250000
b110 "
#305260000
1%
b1 !
#305270000
b1000000 #
#305280000
b10 !
#305290000
b11 !
#305300000
b101 !
b1100 $
#305310000
b1000 $
#305320000
b100 $
#305330000
0%
b10101 $
b111111 #
#305340000
1%
b10001 $
#305350000
b1101 $
#305360000
b1001 $
#305370000
b101 $
#305380000
b1 $
#305390000
0%
b1011 $
b111110 #
#305400000
1%
b1010 $
#305410000
b110 $
#305420000
b10 $
#305430000
b1111 $
b111101 #
#305440000
b1101 $
#305450000
b1001 $
#305460000
b101 $
#305470000
b1 $
#305480000
b10011 $
b111100 #
#305490000
b10010 $
#305500000
b1110 $
#305510000
b1010 $
#305520000
0%
b110 $
#305530000
1%
b10 $
#305540000
b10011 $
b111011 #
#305550000
b10001 $
#305560000
b1101 $
#305570000
b1001 $
#305580000
b101 $
#305590000
b1 $
#305600000
b1010 $
b111010 #
#305610000
b1001 $
#305620000
b101 $
#305630000
b1 $
#305640000
b1111 $
b111001 #
#305650000
b1110 $
#305660000
0%
b1010 $
#305670000
1%
b110 $
#305680000
b10 $
#305690000
b1111 $
b111000 #
#305700000
0%
b1101 $
#305710000
1%
b1001 $
#305720000
b101 $
#305730000
b1 $
#305740000
b10000 $
b110111 #
#305750000
b1111 $
#305760000
b1011 $
#305770000
0%
b111 $
#305780000
1%
b11 $
#305790000
b1101 $
b110110 #
#305800000
b1010 $
#305810000
b110 $
#305820000
b10 $
#305830000
b10110 $
b110101 #
#305840000
b10100 $
#305850000
b10000 $
#305860000
b1100 $
#305870000
b1000 $
#305880000
b100 $
#305890000
b1111 $
b110100 #
#305900000
b1011 $
#305910000
b111 $
#305920000
b11 $
#305930000
0%
b10110 $
b110011 #
#305940000
1%
b10011 $
#305950000
0%
b1111 $
#305960000
1%
b1011 $
#305970000
b111 $
#305980000
b11 $
#305990000
b1100 $
b110010 #
#306000000
b1001 $
#306010000
b101 $
#306020000
b1 $
#306030000
b10100 $
b110001 #
#306040000
b10011 $
#306050000
b1111 $
#306060000
b1011 $
#306070000
b111 $
#306080000
0%
b11 $
#306090000
1%
b10011 $
b110000 #
#306100000
b10000 $
#306110000
b1100 $
#306120000
b1000 $
#306130000
b100 $
#306140000
b10001 $
b101111 #
#306150000
0%
b1101 $
#306160000
1%
b1001 $
#306170000
b101 $
#306180000
0%
b1 $
#306190000
b1010 $
b101110 #
#306200000
b1001 $
#306210000
b101 $
#306220000
b1 $
#306230000
b1101 $
b101101 #
#306240000
b1100 $
#306250000
b1000 $
#306260000
b100 $
#306270000
b10011 $
b101100 #
#306280000
b1111 $
#306290000
b1011 $
#306300000
b111 $
#306310000
b11 $
#306320000
b10010 $
b101011 #
#306330000
b1111 $
#306340000
b1011 $
#306350000
b111 $
#306360000
b11 $
#306370000
b1101 $
b101010 #
#306380000
b1010 $
#306390000
b110 $
#306400000
b10 $
#306410000
b10111 $
b101001 #
#306420000
b10101 $
#306430000
b10001 $
#306440000
b1101 $
#306450000
b1001 $
#306460000
b101 $
#306470000
b1 $
#306480000
b10001 $
b101000 #
#306490000
b10000 $
#306500000
b1100 $
#306510000
b1000 $
#306520000
b100 $
#306530000
b10111 $
b100111 #
#306540000
b10011 $
#306550000
b1111 $
#306560000
b1011 $
#306570000
b111 $
#306580000
b11 $
#306590000
b1101 $
b100110 #
#306600000
b1010 $
#306610000
b110 $
#306620000
b10 $
#306630000
b10001 $
b100101 #
#306640000
b1111 $
#306650000
b1011 $
#306660000
b111 $
#306670000
b11 $
#306680000
b1100 $
b100100 #
#306690000
b1001 $
#306700000
b101 $
#306710000
b1 $
#306720000
b10000 $
b100011 #
#306730000
b1111 $
#306740000
b1011 $
#306750000
b111 $
#306760000
b11 $
#306770000
b11001 $
b100010 #
#306780000
b10110 $
#306790000
b10010 $
#306800000
b1110 $
#306810000
b1010 $
#306820000
b110 $
#306830000
b10 $
#306840000
b11000 $
b100001 #
#306850000
b10110 $
#306860000
b10010 $
#306870000
b1110 $
#306880000
b1010 $
#306890000
b110 $
#306900000
b10 $
#306910000
b1101 $
b100000 #
#306920000
b1011 $
#306930000
b111 $
#306940000
b11 $
#306950000
b1011 $
b11111 #
#306960000
b1000 $
#306970000
b100 $
#306980000
b11010 $
b11110 #
#306990000
b10110 $
#307000000
b10010 $
#307010000
b1110 $
#307020000
b1010 $
#307030000
b110 $
#307040000
b10 $
#307050000
b1011 $
b11101 #
#307060000
b1001 $
#307070000
b101 $
#307080000
b1 $
#307090000
b1010 $
b11100 #
#307100000
b1001 $
#307110000
b101 $
#307120000
b1 $
#307130000
b10010 $
b11011 #
#307140000
b10001 $
#307150000
b1101 $
#307160000
b1001 $
#307170000
b101 $
#307180000
b1 $
#307190000
b1100 $
b11010 #
#307200000
b1011 $
#307210000
b111 $
#307220000
b11 $
#307230000
b11110 $
b11001 #
#307240000
b11011 $
#307250000
b10111 $
#307260000
b10011 $
#307270000
b1111 $
#307280000
b1011 $
#307290000
b111 $
#307300000
b11 $
#307310000
b10010 $
b11000 #
#307320000
b1111 $
#307330000
b1011 $
#307340000
b111 $
#307350000
b11 $
#307360000
b10101 $
b10111 #
#307370000
b10010 $
#307380000
b1110 $
#307390000
b1010 $
#307400000
b110 $
#307410000
b10 $
#307420000
b10000 $
b10110 #
#307430000
b1110 $
#307440000
b1010 $
#307450000
b110 $
#307460000
b10 $
#307470000
b10010 $
b10101 #
