test/pe_sim/sim_build/pe_dump.vcd
$date
	Fri Jun 26 20:12:50 2026
$end
$version
	Icarus Verilog
$end
$timescale
	1ps
$end
$scope module tb_pe_top $end
$scope module u_pe $end
$var reg 3 ! state [2:0] $end
$upscope $end
$upscope $end
$scope module tb_pe_top $end
$scope module u_pe $end
$var reg 8 " row_idx [7:0] $end
$upscope $end
$upscope $end
$scope module tb_pe_top $end
$scope module u_pe $end
$var reg 3 # gen_state [2:0] $end
$upscope $end
$upscope $end
$scope module tb_pe_top $end
$scope module u_pe $end
$var reg 1 $ done $end
$upscope $end
$upscope $end
$enddefinitions $end
$comment Show the parameter values. $end
$dumpall
$end
#0
$dumpvars
0$
b0 #
b0 "
b0 !
$end
#303760000
b1 !
#303770000
b10 !
#303780000
b1 #
b11 !
#303790000
b10 #
#304120000
b11 #
#304130000
b100 !
#304140000
b0 #
#304610000
b101 !
#304630000
b110 !
#304640000
b1 !
b1 "
#304650000
b10 !
#304660000
b1 #
b11 !
#304670000
b10 #
#305110000
b11 #
#305120000
b100 !
#305130000
b0 #
#305650000
b101 !
#305670000
b110 !
#305680000
b1 !
b10 "
#305690000
b10 !
#305700000
b1 #
b11 !
#305710000
b10 #
#306150000
b11 #
#306160000
b100 !
#306170000
b0 #
#306630000
b101 !
#306650000
b110 !
#306660000
b1 !
b11 "
#306670000
b10 !
#306680000
b1 #
b11 !
#306690000
b10 #
#307030000
b11 #
#307040000
b100 !
#307050000
b0 #
#307450000
b101 !
#307470000
b110 !
#307480000
b1 !
b100 "
#307490000
b10 !
#307500000
b1 #
b11 !
#307510000
b10 #
#307770000
b11 #
#307780000
b100 !
#307790000
b0 #
#308090000
b101 !
#308110000
b110 !
#308120000
b1 !
b101 "
#308130000
b10 !
#308140000
b1 #
b11 !
#308150000
b10 #
#308230000
b11 #
#308240000
b100 !
#308250000
b0 #
#308350000
b101 !
#308500000
b110 !
#308510000
b110 "
b1 !
#308520000
b10 !
#308530000
b11 !
b1 #
#308540000
b10 #
#309180000
b11 #
#309190000
b100 !
#309200000
b0 #
#309990000
b101 !
#310010000
b110 !
#310020000
b1 !
b111 "
#310030000
b10 !
#310040000
b1 #
b11 !
#310050000
b10 #
#310480000
b11 #
#310490000
b100 !
#310500000
b0 #
#311020000
b101 !
#311040000
b110 !
#311050000
b1000 "
b1 !
#311060000
b10 !
#311070000
b11 !
b1 #
#311080000
b10 #
#311200000
b11 #
#311210000
b100 !
#311220000
b0 #
#311360000
b101 !
#311480000
b110 !
#311490000
b1001 "
b1 !
#311500000
b10 !
#311510000
b11 !
b1 #
#311520000
b10 #
#311940000
b11 #
#311950000
b100 !
#311960000
b0 #
#312470000
b101 !
#312490000
b110 !
#312500000
b1 !
b1010 "
#312510000
b10 !
#312520000
b1 #
b11 !
#312530000
b10 #
#312550000
b11 #
#312560000
b100 !
#312570000
b0 #
#312600000
b101 !
#312860000
b110 !
#312870000
b1011 "
b1 !
#312880000
b10 !
#312890000
b11 !
b1 #
#312900000
b10 #
#313210000
b11 #
#313220000
b100 !
#313230000
b0 #
#313600000
b101 !
#313620000
b110 !
#313630000
b1100 "
b1 !
#313640000
b10 !
#313650000
b11 !
b1 #
#313660000
b10 #
#314370000
b11 #
#314380000
b100 !
#314390000
b0 #
#315240000
b101 !
#315260000
b110 !
#315270000
b1101 "
b1 !
#315280000
b10 !
#315290000
b11 !
b1 #
#315300000
b10 #
#315550000
b11 #
#315560000
b100 !
#315570000
b0 #
#315880000
b101 !
#315900000
b110 !
#315910000
b1110 "
b1 !
#315920000
b10 !
#315930000
b11 !
b1 #
#315940000
b10 #
#316040000
b11 #
#316050000
b100 !
#316060000
b0 #
#316160000
b101 !
#316250000
b110 !
#316260000
b1 !
b1111 "
#316270000
b10 !
#316280000
b1 #
b11 !
#316290000
b10 #
#316430000
b11 #
#316440000
b100 !
#316450000
b0 #
#316600000
b101 !
#316620000
b110 !
#316630000
b10000 "
b1 !
#316640000
b10 !
#316650000
b11 !
b1 #
#316660000
b10 #
#317210000
b11 #
#317220000
b100 !
#317230000
b0 #
#317880000
b101 !
#317900000
b110 !
#317910000
b10001 "
b1 !
#317920000
b10 !
#317930000
b11 !
b1 #
#317940000
b10 #
#318620000
b11 #
#318630000
b100 !
#318640000
b0 #
#319470000
b101 !
#319490000
b110 !
#319500000
b1 !
b10010 "
#319510000
b10 !
#319520000
b1 #
b11 !
#319530000
b10 #
#319880000
b11 #
#319890000
b100 !
#319900000
b0 #
#320320000
b101 !
#320340000
b110 !
#320350000
b10011 "
b1 !
#320360000
b10 !
#320370000
b11 !
b1 #
#320380000
b10 #
#320680000
b11 #
#320690000
b100 !
#320700000
b0 #
#321060000
b101 !
#321080000
b110 !
#321090000
b10100 "
b1 !
#321100000
b10 !
#321110000
b11 !
b1 #
#321120000
b10 #
#321180000
b11 #
#321190000
b100 !
#321200000
b0 #
#321310000
b101 !
#321450000
b110 !
#321460000
b1 !
b10101 "
#321470000
b10 !
#321480000
b1 #
b11 !
#321490000
b10 #
#321650000
b11 #
#321660000
b100 !
#321670000
b0 #
#321910000
b101 !
#321930000
b110 !
#321940000
b1 !
b10110 "
#321950000
b10 !
#321960000
b1 #
b11 !
#321970000
b10 #
#322710000
b11 #
#322720000
b100 !
#322730000
b0 #
#323530000
b101 !
#323550000
b110 !
#323560000
b1 !
b10111 "
#323570000
b10 !
#323580000
b1 #
b11 !
#323590000
b10 #
#324240000
b11 #
#324250000
b100 !
#324260000
b0 #
#325020000
b101 !
#325040000
b110 !
#325050000
b11000 "
b1 !
#325060000
b10 !
#325070000
b11 !
b1 #
#325080000
b10 #
#325610000
b11 #
#325620000
b100 !
#325630000
b0 #
#326290000
b101 !
#326310000
b110 !
#326320000
b1 !
b11001 "
#326330000
b10 !
#326340000
b1 #
b11 !
#326350000
b10 #
#326520000
b11 #
#326530000
b100 !
#326540000
b0 #
#326740000
b101 !
#326890000
b110 !
#326900000
b1 !
b11010 "
#326910000
b10 !
#326920000
b1 #
b11 !
#326930000
b10 #
#326970000
b11 #
#326980000
b100 !
#326990000
b0 #
#327050000
b101 !
#327150000
b110 !
#327160000
b1 !
b11011 "
#327170000
b10 !
#327180000
b1 #
b11 !
#327190000
b10 #
#327600000
b11 #
#327610000
b100 !
#327620000
b0 #
#328090000
b101 !
#328110000
b110 !
#328120000
b1 !
b11100 "
#328130000
b10 !
#328140000
b1 #
b11 !
#328150000
b10 #
#328720000
b11 #
#328730000
b100 !
#328740000
b0 #
#329390000
b101 !
#329410000
b110 !
#329420000
b1 !
b11101 "
#329430000
b10 !
#329440000
b1 #
b11 !
#329450000
b10 #
#329590000
b11 #
#329600000
b100 !
#329610000
b0 #
#329790000
b101 !
#329890000
b110 !
#329900000
b1 !
b11110 "
#329910000
b10 !
#329920000
b1 #
b11 !
#329930000
b10 #
#330000000
b11 #
#330010000
b100 !
#330020000
b0 #
#330110000
b101 !
#330130000
b110 !
#330140000
b1 !
b11111 "
#330150000
b10 !
#330160000
b1 #
b11 !
#330170000
b10 #
#330930000
b11 #
#330940000
b100 !
#330950000
b0 #
#331910000
b101 !
#331930000
b110 !
#331940000
b1 !
b100000 "
#331950000
b10 !
#331960000
b1 #
b11 !
#331970000
b10 #
#332410000
b11 #
#332420000
b100 !
#332430000
b0 #
#332990000
b101 !
#333010000
b110 !
#333020000
b1 !
b100001 "
#333030000
b10 !
#333040000
b1 #
b11 !
#333050000
b10 #
#333420000
b11 #
#333430000
b100 !
#333440000
b0 #
#333820000
b101 !
#333840000
b110 !
#333850000
b100010 "
b1 !
#333860000
b10 !
#333870000
b11 !
b1 #
#333880000
b10 #
#334510000
b11 #
#334520000
b100 !
#334530000
b0 #
#335270000
b101 !
#335290000
b110 !
#335300000
b1 !
b100011 "
#335310000
b10 !
#335320000
b1 #
b11 !
#335330000
b10 #
#335950000
b11 #
#335960000
b100 !
#335970000
b0 #
#336690000
b101 !
#336710000
b110 !
#336720000
b1 !
b100100 "
#336730000
b10 !
#336740000
b1 #
b11 !
#336750000
b10 #
#337260000
b11 #
#337270000
b100 !
#337280000
b0 #
#337830000
b101 !
#337850000
b110 !
#337860000
b1 !
b100101 "
#337870000
b10 !
#337880000
b1 #
b11 !
#337890000
b10 #
#338280000
b11 #
#338290000
b100 !
#338300000
b0 #
#338780000
b101 !
#338800000
b110 !
#338810000
b100110 "
b1 !
#338820000
b10 !
#338830000
b11 !
b1 #
#338840000
b10 #
#338870000
b11 #
#338880000
b100 !
#338890000
b0 #
#338930000
b101 !
#339320000
b110 !
#339330000
b100111 "
b1 !
#339340000
b10 !
#339350000
b11 !
b1 #
#339360000
b10 #
#339950000
b11 #
#339960000
b100 !
#339970000
b0 #
#340610000
b101 !
#340630000
b110 !
#340640000
b1 !
b101000 "
#340650000
b10 !
#340660000
b1 #
b11 !
#340670000
b10 #
#341080000
b11 #
#341090000
b100 !
#341100000
b0 #
#341630000
b101 !
#341650000
b110 !
#341660000
b1 !
b101001 "
#341670000
b10 !
#341680000
b1 #
b11 !
#341690000
b10 #
#341880000
b11 #
#341890000
b100 !
#341900000
b0 #
#342140000
b101 !
#342180000
b110 !
#342190000
b101010 "
b1 !
#342200000
b10 !
#342210000
b11 !
b1 #
#342220000
b10 #
#342730000
b11 #
#342740000
b100 !
#342750000
b0 #
#343300000
b101 !
#343320000
b110 !
#343330000
b101011 "
b1 !
#343340000
b10 !
#343350000
b11 !
b1 #
#343360000
b10 #
#343510000
b11 #
#343520000
b100 !
#343530000
b0 #
#343730000
b101 !
#343780000
b110 !
#343790000
b101100 "
b1 !
#343800000
b10 !
#343810000
b11 !
b1 #
#343820000
b10 #
#344380000
b11 #
#344390000
b100 !
#344400000
b0 #
#345080000
b101 !
#345100000
b110 !
#345110000
b101101 "
b1 !
#345120000
b10 !
#345130000
b11 !
b1 #
#345140000
b10 #
#345220000
b11 #
#345230000
b100 !
#345240000
b0 #
#345380000
b101 !
#345550000
b110 !
#345560000
b1 !
b101110 "
#345570000
b10 !
#345580000
b1 #
b11 !
#345590000
b10 #
#346190000
b11 #
#346200000
b100 !
#346210000
b0 #
#346920000
b101 !
#346940000
b110 !
#346950000
b101111 "
b1 !
#346960000
b10 !
#346970000
b11 !
b1 #
#346980000
b10 #
#347010000
b11 #
#347020000
b100 !
#347030000
b0 #
#347090000
b101 !
#347430000
b110 !
#347440000
b1 !
b110000 "
#347450000
b10 !
#347460000
b1 #
b11 !
#347470000
b10 #
#347910000
b11 #
#347920000
b100 !
#347930000
b0 #
#348470000
b101 !
#348490000
b110 !
#348500000
b1 !
b110001 "
#348510000
b10 !
#348520000
b1 #
b11 !
#348530000
b10 #
#348740000
b11 #
#348750000
b100 !
#348760000
b0 #
#349020000
b101 !
#349040000
b110 !
#349050000
b110010 "
b1 !
#349060000
b10 !
#349070000
b11 !
b1 #
#349080000
b10 #
#349210000
b11 #
#349220000
b100 !
#349230000
b0 #
#349360000
b101 !
#349380000
b110 !
#349390000
b110011 "
b1 !
#349400000
b10 !
#349410000
b11 !
b1 #
#349420000
b10 #
#349710000
b11 #
#349720000
b100 !
#349730000
b0 #
#350100000
b101 !
#350120000
b110 !
#350130000
b110100 "
b1 !
#350140000
b10 !
#350150000
b11 !
b1 #
#350160000
b10 #
#350850000
b11 #
#350860000
b100 !
#350870000
b0 #
#351640000
b101 !
#351660000
b110 !
#351670000
b110101 "
b1 !
#351680000
b10 !
#351690000
b11 !
b1 #
#351700000
b10 #
#352300000
b11 #
#352310000
b100 !
#352320000
b0 #
#353010000
b101 !
#353030000
b110 !
#353040000
b1 !
b110110 "
#353050000
b10 !
#353060000
b1 #
b11 !
#353070000
b10 #
#353510000
b11 #
#353520000
b100 !
#353530000
b0 #
#353990000
b101 !
#354010000
b110 !
#354020000
b1 !
b110111 "
#354030000
b10 !
#354040000
b1 #
b11 !
#354050000
b10 #
#354240000
b11 #
#354250000
b100 !
#354260000
b0 #
#354510000
b101 !
#354530000
b110 !
#354540000
b1 !
b111000 "
#354550000
b10 !
#354560000
b1 #
b11 !
#354570000
b10 #
#354640000
b11 #
#354650000
b100 !
#354660000
b0 #
#354740000
b101 !
#354880000
b110 !
#354890000
b111001 "
b1 !
#354900000
b10 !
#354910000
b11 !
b1 #
#354920000
b10 #
#355130000
b11 #
#355140000
b100 !
#355150000
b0 #
#355420000
b101 !
#355440000
b110 !
#355450000
b111010 "
b1 !
#355460000
b10 !
#355470000
b11 !
b1 #
#355480000
b10 #
#356160000
b11 #
#356170000
b100 !
#356180000
b0 #
#357010000
b101 !
#357030000
b110 !
#357040000
b1 !
b111011 "
#357050000
b10 !
#357060000
b1 #
b11 !
#357070000
b10 #
#357470000
b11 #
#357480000
b100 !
#357490000
b0 #
#358020000
b101 !
#358040000
b110 !
#358050000
b111100 "
b1 !
#358060000
b10 !
#358070000
b11 !
b1 #
#358080000
b10 #
#358600000
b11 #
#358610000
b100 !
#358620000
b0 #
#359280000
b101 !
#359300000
b110 !
#359310000
b111101 "
b1 !
#359320000
b10 !
#359330000
b11 !
b1 #
#359340000
b10 #
#359840000
b11 #
#359850000
b100 !
#359860000
b0 #
#360410000
b101 !
#360430000
b110 !
#360440000
b1 !
b111110 "
#360450000
b10 !
#360460000
b1 #
b11 !
#360470000
b10 #
#360660000
b11 #
#360670000
b100 !
#360680000
b0 #
#360910000
b101 !
#360930000
b110 !
#360940000
b1 !
b111111 "
#360950000
b10 !
#360960000
b1 #
b11 !
#360970000
b10 #
#361660000
b11 #
#361670000
b100 !
#361680000
b0 #
#362620000
b101 !
#362640000
b110 !
#362650000
b1000000 "
b1 !
#362660000
b10 !
#362670000
b11 !
b1 #
#362680000
b10 #
#362760000
b11 #
#362770000
b100 !
#362780000
b0 #
#362890000
b101 !
#363090000
b110 !
#363100000
b1 !
b1000001 "
#363110000
b10 !
#363120000
b1 #
b11 !
#363130000
b10 #
#363310000
b11 #
#363320000
b100 !
#363330000
b0 #
#363560000
b101 !
#363580000
b110 !
#363590000
b1000010 "
b1 !
#363600000
b10 !
#363610000
b11 !
b1 #
#363620000
b10 #
#363970000
b11 #
#363980000
b100 !
#363990000
b0 #
#364380000
b101 !
#364400000
b110 !
#364410000
b1000011 "
b1 !
#364420000
b10 !
#364430000
b11 !
b1 #
#364440000
b10 #
#365060000
b11 #
#365070000
b100 !
#365080000
b0 #
#365760000
b101 !
#365780000
b110 !
#365790000
b1000100 "
b1 !
#365800000
b10 !
#365810000
b11 !
b1 #
#365820000
b10 #
#365920000
b11 #
#365930000
b100 !
#365940000
b0 #
#366070000
b101 !
#366300000
b110 !
#366310000
b1000101 "
b1 !
#366320000
b10 !
#366330000
b11 !
b1 #
#366340000
b10 #
#366460000
b11 #
#366470000
b100 !
#366480000
b0 #
#366640000
b101 !
#366660000
b110 !
#366670000
b1000110 "
b1 !
#366680000
b10 !
#366690000
b11 !
b1 #
#366700000
b10 #
#367380000
b11 #
#367390000
b100 !
#367400000
b0 #
#368150000
b101 !
#368170000
b110 !
#368180000
b1 !
b1000111 "
#368190000
b10 !
#368200000
b1 #
b11 !
#368210000
b10 #
#368680000
b11 #
#368690000
b100 !
#368700000
b0 #
#369270000
b101 !
#369290000
b110 !
#369300000
b1 !
b1001000 "
#369310000
b10 !
#369320000
b1 #
b11 !
#369330000
b10 #
#369610000
b11 #
#369620000
b100 !
#369630000
b0 #
#369970000
b101 !
#369990000
b110 !
#370000000
b1 !
b1001001 "
#370010000
b10 !
#370020000
b1 #
b11 !
#370030000
b10 #
#370460000
b11 #
#370470000
b100 !
#370480000
b0 #
#370940000
b101 !
#370960000
b110 !
#370970000
b1001010 "
b1 !
#370980000
b10 !
#370990000
b11 !
b1 #
#371000000
b10 #
#371070000
b11 #
#371080000
b100 !
#371090000
b0 #
#371200000
b101 !
#371360000
b110 !
#371370000
b1001011 "
b1 !
#371380000
b10 !
#371390000
b11 !
b1 #
#371400000
b10 #
#371680000
b11 #
#371690000
b100 !
#371700000
b0 #
#372040000
b101 !
#372060000
b110 !
#372070000
b1001100 "
b1 !
#372080000
b10 !
#372090000
b11 !
b1 #
#372100000
b10 #
#372540000
b11 #
#372550000
b100 !
#372560000
b0 #
#373090000
b101 !
#373110000
b110 !
#373120000
b1 !
b1001101 "
#373130000
b10 !
#373140000
b1 #
b11 !
#373150000
b10 #
#373470000
b11 #
#373480000
b100 !
#373490000
b0 #
#373890000
b101 !
#373910000
b110 !
#373920000
b1 !
b1001110 "
#373930000
b10 !
#373940000
b1 #
b11 !
#373950000
b10 #
#374030000
b11 #
#374040000
b100 !
#374050000
b0 #
#374140000
b101 !
#374290000
b110 !
#374300000
b1 !
b1001111 "
#374310000
b10 !
#374320000
b1 #
b11 !
#374330000
b10 #
#374460000
b11 #
#374470000
b100 !
#374480000
b0 #
#374640000
b101 !
#374660000
b110 !
#374670000
b1010000 "
b1 !
#374680000
b10 !
#374690000
b11 !
b1 #
#374700000
b10 #
#374910000
b11 #
#374920000
b100 !
#374930000
b0 #
#375170000
b101 !
#375190000
b110 !
#375200000
b1 !
b1010001 "
#375210000
b10 !
#375220000
b1 #
b11 !
#375230000
b10 #
#375670000
b11 #
#375680000
b100 !
#375690000
b0 #
#376180000
b101 !
#376200000
b110 !
#376210000
b1010010 "
b1 !
#376220000
b10 !
#376230000
b11 !
b1 #
#376240000
b10 #
#376890000
b11 #
#376900000
b100 !
#376910000
b0 #
#377690000
b101 !
#377710000
b110 !
#377720000
b1 !
b1010011 "
#377730000
b10 !
#377740000
b1 #
b11 !
#377750000
b10 #
#378160000
b11 #
#378170000
b100 !
#378180000
b0 #
#378690000
b101 !
#378710000
b110 !
#378720000
b1 !
b1010100 "
#378730000
b10 !
#378740000
b1 #
b11 !
#378750000
b10 #
#379450000
b11 #
#379460000
b100 !
#379470000
b0 #
#380360000
b101 !
#380380000
b110 !
#380390000
b1010101 "
b1 !
#380400000
b10 !
#380410000
b11 !
b1 #
#380420000
b10 #
#381020000
b11 #
#381030000
b100 !
#381040000
b0 #
#381800000
b101 !
#381820000
b110 !
#381830000
b1010110 "
b1 !
#381840000
b10 !
#381850000
b11 !
b1 #
#381860000
b10 #
#382530000
b11 #
#382540000
b100 !
#382550000
b0 #
#383380000
b101 !
#383400000
b110 !
#383410000
b1010111 "
b1 !
#383420000
b10 !
#383430000
b11 !
b1 #
#383440000
b10 #
#384090000
b11 #
#384100000
b100 !
#384110000
b0 #
#384900000
b101 !
#384920000
b110 !
#384930000
b1011000 "
b1 !
#384940000
b10 !
#384950000
b11 !
b1 #
#384960000
b10 #
#385500000
b11 #
#385510000
b100 !
#385520000
b0 #
#386190000
b101 !
#386210000
b110 !
#386220000
b1 !
b1011001 "
#386230000
b10 !
#386240000
b1 #
b11 !
#386250000
b10 #
#386660000
b11 #
#386670000
b100 !
#386680000
b0 #
#387160000
b101 !
#387180000
b110 !
#387190000
b1011010 "
b1 !
#387200000
b10 !
#387210000
b11 !
b1 #
#387220000
b10 #
#387440000
b11 #
#387450000
b100 !
#387460000
b0 #
#387730000
b101 !
#387750000
b110 !
#387760000
b1 !
b1011011 "
#387770000
b10 !
#387780000
b1 #
b11 !
#387790000
b10 #
#388540000
b11 #
#388550000
b100 !
#388560000
b0 #
#389520000
b101 !
#389540000
b110 !
#389550000
b1011100 "
b1 !
#389560000
b10 !
#389570000
b11 !
b1 #
#389580000
b10 #
#389870000
b11 #
#389880000
b100 !
#389890000
b0 #
#390260000
b101 !
#390280000
b110 !
#390290000
b1011101 "
b1 !
#390300000
b10 !
#390310000
b11 !
b1 #
#390320000
b10 #
#390740000
b11 #
#390750000
b100 !
#390760000
b0 #
#391250000
b101 !
#391270000
b110 !
#391280000
b1 !
b1011110 "
#391290000
b10 !
#391300000
b1 #
b11 !
#391310000
b10 #
#391400000
b11 #
#391410000
b100 !
#391420000
b0 #
#391530000
b101 !
#391650000
b110 !
#391660000
b1 !
b1011111 "
#391670000
b10 !
#391680000
b1 #
b11 !
#391690000
b10 #
#391800000
b11 #
#391810000
b100 !
#391820000
b0 #
#391950000
b101 !
#391970000
b110 !
#391980000
b1 !
b1100000 "
#391990000
b10 !
#392000000
b1 #
b11 !
#392010000
b10 #
#392270000
b11 #
#392280000
b100 !
#392290000
b0 #
#392600000
b101 !
#392620000
b110 !
#392630000
b1100001 "
b1 !
#392640000
b10 !
#392650000
b11 !
b1 #
#392660000
b10 #
#393370000
b11 #
#393380000
b100 !
#393390000
b0 #
#394250000
b101 !
#394270000
b110 !
#394280000
b1 !
b1100010 "
#394290000
b10 !
#394300000
b1 #
b11 !
#394310000
b10 #
#395030000
b11 #
#395040000
b100 !
#395050000
b0 #
#395870000
b101 !
#395890000
b110 !
#395900000
b1 !
b1100011 "
#395910000
b10 !
#395920000
b1 #
b11 !
#395930000
b10 #
#396030000
b11 #
#396040000
b100 !
#396050000
b0 #
#396180000
b101 !
#396320000
b110 !
#396330000
b1100100 "
b1 !
#396340000
b10 !
#396350000
b11 !
b1 #
#396360000
b10 #
#396620000
b11 #
#396630000
b100 !
#396640000
b0 #
#396900000
b101 !
#396920000
b110 !
#396930000
b1100101 "
b1 !
#396940000
b10 !
#396950000
b11 !
b1 #
#396960000
b10 #
#397290000
b11 #
#397300000
b100 !
#397310000
b0 #
#397700000
b101 !
#397720000
b110 !
#397730000
b1100110 "
b1 !
#397740000
b10 !
#397750000
b11 !
b1 #
#397760000
b10 #
#398110000
b11 #
#398120000
b100 !
#398130000
b0 #
#398510000
b101 !
#398530000
b110 !
#398540000
b1 !
b1100111 "
#398550000
b10 !
#398560000
b1 #
b11 !
#398570000
b10 #
#399310000
b11 #
#399320000
b100 !
#399330000
b0 #
#400280000
b101 !
#400300000
b110 !
#400310000
b1101000 "
b1 !
#400320000
b10 !
#400330000
b11 !
b1 #
#400340000
b10 #
#400490000
b11 #
#400500000
b100 !
#400510000
b0 #
#400720000
b101 !
#400860000
b110 !
#400870000
b1101001 "
b1 !
#400880000
b10 !
#400890000
b11 !
b1 #
#400900000
b10 #
#400950000
b11 #
#400960000
b100 !
#400970000
b0 #
#401050000
b101 !
#401080000
b110 !
#401090000
b1101010 "
b1 !
#401100000
b10 !
#401110000
b11 !
b1 #
#401120000
b10 #
#401880000
b11 #
#401890000
b100 !
#401900000
b0 #
#402750000
b101 !
#402770000
b110 !
#402780000
b1 !
b1101011 "
#402790000
b10 !
#402800000
b1 #
b11 !
#402810000
b10 #
#403100000
b11 #
#403110000
b100 !
#403120000
b0 #
#403470000
b101 !
#403490000
b110 !
#403500000
b1 !
b1101100 "
#403510000
b10 !
#403520000
b1 #
b11 !
#403530000
b10 #
#403880000
b11 #
#403890000
b100 !
#403900000
b0 #
#404310000
b101 !
#404330000
b110 !
#404340000
b1 !
b1101101 "
#404350000
b10 !
#404360000
b1 #
b11 !
#404370000
b10 #
#404790000
b11 #
#404800000
b100 !
#404810000
b0 #
#405310000
b101 !
#405330000
b110 !
#405340000
b1 !
b1101110 "
#405350000
b10 !
#405360000
b1 #
b11 !
#405370000
b10 #
#405740000
b11 #
#405750000
b100 !
#405760000
b0 #
#406170000
b101 !
#406190000
b110 !
#406200000
b1 !
b1101111 "
#406210000
b10 !
#406220000
b1 #
b11 !
#406230000
b10 #
#406370000
b11 #
#406380000
b100 !
#406390000
b0 #
#406550000
b101 !
#406690000
b110 !
#406700000
b1 !
b1110000 "
#406710000
b10 !
#406720000
b1 #
b11 !
#406730000
b10 #
#406900000
b11 #
#406910000
b100 !
#406920000
b0 #
#407140000
b101 !
#407160000
b110 !
#407170000
b1110001 "
b1 !
#407180000
b10 !
#407190000
b11 !
b1 #
#407200000
b10 #
#407280000
b11 #
#407290000
b100 !
#407300000
b0 #
#407420000
b101 !
#407530000
b110 !
#407540000
b1 !
b1110010 "
#407550000
b10 !
#407560000
b1 #
b11 !
#407570000
b10 #
#407700000
b11 #
#407710000
b100 !
#407720000
b0 #
#407900000
b101 !
#407920000
b110 !
#407930000
b1110011 "
b1 !
#407940000
b10 !
#407950000
b11 !
b1 #
#407960000
b10 #
#408670000
b11 #
#408680000
b100 !
#408690000
b0 #
#409530000
b101 !
#409550000
b110 !
#409560000
b1 !
b1110100 "
#409570000
b10 !
#409580000
b1 #
b11 !
#409590000
b10 #
#409690000
b11 #
#409700000
b100 !
#409710000
b0 #
#409850000
b101 !
#409960000
b110 !
#409970000
b1110101 "
b1 !
#409980000
b10 !
#409990000
b11 !
b1 #
#410000000
b10 #
#410310000
b11 #
#410320000
b100 !
#410330000
b0 #
#410760000
b101 !
#410780000
b110 !
#410790000
b1110110 "
b1 !
#410800000
b10 !
#410810000
b11 !
b1 #
#410820000
b10 #
#411020000
b11 #
#411030000
b100 !
#411040000
b0 #
#411300000
b101 !
#411320000
b110 !
#411330000
b1110111 "
b1 !
#411340000
b10 !
#411350000
b11 !
b1 #
#411360000
b10 #
#412040000
b11 #
#412050000
b100 !
#412060000
b0 #
#412860000
b101 !
#412880000
b110 !
#412890000
b1111000 "
b1 !
#412900000
b10 !
#412910000
b11 !
b1 #
#412920000
b10 #
#413380000
b11 #
#413390000
b100 !
#413400000
b0 #
#413940000
b101 !
#413960000
b110 !
#413970000
b1111001 "
b1 !
#413980000
b10 !
#413990000
b11 !
b1 #
#414000000
b10 #
#414440000
b11 #
#414450000
b100 !
#414460000
b0 #
#415050000
b101 !
#415070000
b110 !
#415080000
b1 !
b1111010 "
#415090000
b10 !
#415100000
b1 #
b11 !
#415110000
b10 #
#415520000
b11 #
#415530000
b100 !
#415540000
b0 #
#416030000
b101 !
#416050000
b110 !
#416060000
b1 !
b1111011 "
#416070000
b10 !
#416080000
b1 #
b11 !
#416090000
b10 #
#416610000
b11 #
#416620000
b100 !
#416630000
b0 #
#417300000
b101 !
#417320000
b110 !
#417330000
b1111100 "
b1 !
#417340000
b10 !
#417350000
b11 !
b1 #
#417360000
b10 #
#417750000
b11 #
#417760000
b100 !
#417770000
b0 #
#418220000
b101 !
#418240000
b110 !
#418250000
b1111101 "
b1 !
#418260000
b10 !
#418270000
b11 !
b1 #
#418280000
b10 #
#418770000
b11 #
#418780000
b100 !
#418790000
b0 #
#419370000
b101 !
#419390000
b110 !
#419400000
b1 !
b1111110 "
#419410000
b10 !
#419420000
b1 #
b11 !
#419430000
b10 #
#419880000
b11 #
#419890000
b100 !
#419900000
b0 #
#420410000
b101 !
#420430000
b110 !
#420440000
b1 !
b1111111 "
#420450000
b10 !
#420460000
b1 #
b11 !
#420470000
b10 #
#420900000
b11 #
#420910000
b100 !
#420920000
b0 #
#421440000
b101 !
#421460000
b110 !
#421470000
b10000000 "
b1 !
#421480000
b10 !
#421490000
b11 !
b1 #
#421500000
b10 #
#421780000
b11 #
#421790000
b100 !
#421800000
b0 #
#422130000
b101 !
#422150000
b110 !
#422160000
b1 !
b10000001 "
#422170000
b10 !
#422180000
b1 #
b11 !
#422190000
b10 #
#422250000
b11 #
#422260000
b100 !
#422270000
b0 #
#422380000
b101 !
#422530000
b110 !
#422540000
b1 !
b10000010 "
#422550000
b10 !
#422560000
b1 #
b11 !
#422570000
b10 #
#422790000
b11 #
#422800000
b100 !
#422810000
b0 #
#423090000
b101 !
#423110000
b110 !
#423120000
b1 !
b10000011 "
#423130000
b10 !
#423140000
b1 #
b11 !
#423150000
b10 #
#423210000
b11 #
#423220000
b100 !
#423230000
b0 #
#423350000
b101 !
#423520000
b110 !
#423530000
b10000100 "
b1 !
#423540000
b10 !
#423550000
b11 !
b1 #
#423560000
b10 #
#423890000
b11 #
#423900000
b100 !
#423910000
b0 #
#424360000
b101 !
#424380000
b110 !
#424390000
b10000101 "
b1 !
#424400000
b10 !
#424410000
b11 !
b1 #
#424420000
b10 #
#425000000
b11 #
#425010000
b100 !
#425020000
b0 #
#425750000
b101 !
#425770000
b110 !
#425780000
b1 !
b10000110 "
#425790000
b10 !
#425800000
b1 #
b11 !
#425810000
b10 #
#426240000
b11 #
#426250000
b100 !
#426260000
b0 #
#426710000
b101 !
#426730000
b110 !
#426740000
b1 !
b10000111 "
#426750000
b10 !
#426760000
b1 #
b11 !
#426770000
b10 #
#427280000
b11 #
#427290000
b100 !
#427300000
b0 #
#427890000
b101 !
#427910000
b110 !
#427920000
b1 !
b10001000 "
#427930000
b10 !
#427940000
b1 #
b11 !
#427950000
b10 #
#428160000
b11 #
#428170000
b100 !
#428180000
b0 #
#428410000
b101 !
#428430000
b110 !
#428440000
b1 !
b10001001 "
#428450000
b10 !
#428460000
b1 #
b11 !
#428470000
b10 #
#428530000
b11 #
#428540000
b100 !
#428550000
b0 #
#428630000
b101 !
#428780000
b110 !
#428790000
b10001010 "
b1 !
#428800000
b10 !
#428810000
b11 !
b1 #
#428820000
b10 #
#429490000
b11 #
#429500000
b100 !
#429510000
b0 #
#430330000
b101 !
#430350000
b110 !
#430360000
b1 !
b10001011 "
#430370000
b10 !
#430380000
b1 #
b11 !
#430390000
b10 #
#431130000
b11 #
#431140000
b100 !
#431150000
b0 #
#431980000
b101 !
#432000000
b110 !
#432010000
b10001100 "
b1 !
#432020000
b10 !
#432030000
b11 !
b1 #
#432040000
b10 #
#432730000
b11 #
#432740000
b100 !
#432750000
b0 #
#433590000
b101 !
#433610000
b110 !
#433620000
b1 !
b10001101 "
#433630000
b10 !
#433640000
b1 #
b11 !
#433650000
b10 #
#433840000
b11 #
#433850000
b100 !
#433860000
b0 #
#434110000
b101 !
#434150000
b110 !
#434160000
b1 !
b10001110 "
#434170000
b10 !
#434180000
b1 #
b11 !
#434190000
b10 #
#434740000
b11 #
#434750000
b100 !
#434760000
b0 #
#435380000
b101 !
#435400000
b110 !
#435410000
b10001111 "
b1 !
#435420000
b10 !
#435430000
b11 !
b1 #
#435440000
b10 #
#435490000
b11 #
#435500000
b100 !
#435510000
b0 #
#435590000
b101 !
#435840000
b110 !
#435850000
b10010000 "
b1 !
