test/pe_sim/sim_build/pe_dump.vcd
$date
	Thu Jun 25 22:12:07 2026
$end
$version
	Icarus Verilog
$end
$timescale
	1ps
$end
$scope module tb_pe_top $end
$scope module u_pe $end
$var reg 3 ! state [2:0] $end
$upscope $end
$upscope $end
$scope module tb_pe_top $end
$scope module u_pe $end
$var reg 8 " row_idx [7:0] $end
$upscope $end
$upscope $end
$scope module tb_pe_top $end
$scope module u_pe $end
$var reg 3 # gen_state [2:0] $end
$upscope $end
$upscope $end
$scope module tb_pe_top $end
$scope module u_pe $end
$var reg 1 $ done $end
$upscope $end
$upscope $end
$enddefinitions $end
$comment Show the parameter values. $end
$dumpall
$end
#0
$dumpvars
0$
b0 #
b0 "
b0 !
$end
#295390000
b1 !
#295400000
b10 !
#295410000
b11 !
b1 #
#295420000
b10 #
#297180000
b100 #
#297190000
b11 #
#297200000
b100 !
#297210000
b101 !
b0 #
#297230000
b110 !
#297240000
b1 !
b1 "
#297250000
b10 !
#297260000
b1 #
b11 !
#297270000
b10 #
#299470000
b100 #
#299480000
b11 #
#299490000
b100 !
#299500000
b0 #
b101 !
#299540000
b110 !
#299550000
b10 "
b1 !
#299560000
b10 !
#299570000
b11 !
b1 #
#299580000
b10 #
#301680000
b100 #
#301690000
b11 #
#301700000
b100 !
#301710000
b101 !
b0 #
#301750000
b110 !
#301760000
b1 !
b11 "
#301770000
b10 !
#301780000
b1 #
b11 !
#301790000
b10 #
#303470000
b11 #
#303480000
b100 !
#303490000
b101 !
b0 #
#303530000
b110 !
#303540000
b1 !
b100 "
#303550000
b10 !
#303560000
b1 #
b11 !
#303570000
b10 #
#304850000
b100 #
#304860000
b11 #
#304870000
b100 !
#304880000
b0 #
b101 !
#304920000
b110 !
#304930000
b101 "
b1 !
#304940000
b10 !
#304950000
b11 !
b1 #
#304960000
b10 #
#305390000
b100 #
#305400000
b11 #
#305410000
b100 !
#305420000
b0 #
b101 !
#305460000
b110 !
#305470000
b110 "
b1 !
#305480000
b10 !
#305490000
b11 !
b1 #
#305500000
b10 #
#308730000
b100 #
#308740000
b11 #
#308750000
b100 !
#308760000
b0 #
b101 !
#308800000
b110 !
#308810000
b111 "
b1 !
#308820000
b10 !
#308830000
b11 !
b1 #
#308840000
b10 #
#310980000
b100 #
#310990000
b11 #
#311000000
b100 !
#311010000
b101 !
b0 #
#311050000
b110 !
#311060000
b1 !
b1000 "
#311070000
b10 !
#311080000
b1 #
b11 !
#311090000
b10 #
#311640000
b100 #
#311650000
b11 #
#311660000
b100 !
#311670000
b101 !
b0 #
#311710000
b110 !
#311720000
b1 !
b1001 "
#311730000
b10 !
#311740000
b1 #
b11 !
#311750000
b10 #
#313880000
b11 #
#313890000
b100 !
#313900000
b0 #
b101 !
#313940000
b110 !
#313950000
b1010 "
b1 !
#313960000
b10 !
#313970000
b11 !
b1 #
#313980000
b10 #
#314060000
b100 #
#314070000
b11 #
#314080000
b100 !
#314090000
b101 !
b0 #
#314480000
b110 !
#314490000
b1011 "
b1 !
#314500000
b10 !
#314510000
b11 !
b1 #
#314520000
b10 #
#316070000
b100 #
#316080000
b11 #
#316090000
b100 !
#316100000
b0 #
b101 !
#316140000
b110 !
#316150000
b1100 "
b1 !
#316160000
b10 !
#316170000
b11 !
b1 #
#316180000
b10 #
#319740000
b100 #
#319750000
b11 #
#319760000
b100 !
#319770000
b101 !
b0 #
#319810000
b110 !
#319820000
b1 !
b1101 "
#319830000
b10 !
#319840000
b1 #
b11 !
#319850000
b10 #
#321110000
b100 #
#321120000
b11 #
#321130000
b100 !
#321140000
b0 #
b101 !
#321180000
b110 !
#321190000
b1110 "
b1 !
#321200000
b10 !
#321210000
b11 !
b1 #
#321220000
b10 #
#321700000
b100 #
#321710000
b11 #
#321720000
b100 !
#321730000
b101 !
b0 #
#321780000
b110 !
#321790000
b1111 "
b1 !
#321800000
b10 !
#321810000
b11 !
b1 #
#321820000
b10 #
#322490000
b100 #
#322500000
b11 #
#322510000
b100 !
#322520000
b0 #
b101 !
#322560000
b110 !
#322570000
b10000 "
b1 !
#322580000
b10 !
#322590000
b11 !
b1 #
#322600000
b10 #
#325360000
b100 #
#325370000
b11 #
#325380000
b100 !
#325390000
b101 !
b0 #
#325430000
b110 !
#325440000
b1 !
b10001 "
#325450000
b10 !
#325460000
b1 #
b11 !
#325470000
b10 #
#328840000
b100 #
#328850000
b11 #
#328860000
b100 !
#328870000
b101 !
b0 #
#328910000
b110 !
#328920000
b1 !
b10010 "
#328930000
b10 !
#328940000
b1 #
b11 !
#328950000
b10 #
#330690000
b100 #
#330700000
b11 #
#330710000
b100 !
#330720000
b0 #
b101 !
#330760000
b110 !
#330770000
b10011 "
b1 !
#330780000
b10 !
#330790000
b11 !
b1 #
#330800000
b10 #
#332240000
b100 #
#332250000
b11 #
#332260000
b100 !
#332270000
b101 !
b0 #
#332310000
b110 !
#332320000
b1 !
b10100 "
#332330000
b10 !
#332340000
b1 #
b11 !
#332350000
b10 #
#332670000
b100 #
#332680000
b11 #
#332690000
b100 !
#332700000
b0 #
b101 !
#332950000
b110 !
#332960000
b1 !
b10101 "
#332970000
b10 !
#332980000
b1 #
b11 !
#332990000
b10 #
#333860000
b100 #
#333870000
b11 #
#333880000
b100 !
#333890000
b101 !
b0 #
#333930000
b110 !
#333940000
b1 !
b10110 "
#333950000
b10 !
#333960000
b1 #
b11 !
#333970000
b10 #
#337540000
b100 #
#337550000
b11 #
#337560000
b100 !
#337570000
b101 !
b0 #
#337610000
b110 !
#337620000
b1 !
b10111 "
#337630000
b10 !
#337640000
b1 #
b11 !
#337650000
b10 #
#340870000
b11 #
#340880000
b100 !
#340890000
b101 !
b0 #
#340930000
b110 !
#340940000
b1 !
b11000 "
#340950000
b10 !
#340960000
b1 #
b11 !
#340970000
b10 #
#343600000
b100 #
#343610000
b11 #
#343620000
b100 !
#343630000
b101 !
b0 #
#343700000
b110 !
#343710000
b11001 "
b1 !
#343720000
b10 !
#343730000
b11 !
b1 #
#343740000
b10 #
#344550000
b100 #
#344560000
b11 #
#344570000
b100 !
#344580000
b0 #
b101 !
#344620000
b110 !
#344630000
b11010 "
b1 !
#344640000
b10 !
#344650000
b11 !
b1 #
#344660000
b10 #
#344860000
b11 #
#344870000
b100 !
#344880000
b0 #
b101 !
#345060000
b110 !
#345070000
b11011 "
b1 !
#345080000
b10 !
#345090000
b11 !
b1 #
#345100000
b10 #
#347130000
b100 #
#347140000
b11 #
#347150000
b100 !
#347160000
b0 #
b101 !
#347200000
b110 !
#347210000
b11100 "
b1 !
#347220000
b10 !
#347230000
b11 !
b1 #
#347240000
b10 #
#350030000
b100 #
#350040000
b11 #
#350050000
b100 !
#350060000
b0 #
b101 !
#350120000
b110 !
#350130000
b11101 "
b1 !
#350140000
b10 !
#350150000
b11 !
b1 #
#350160000
b10 #
#350870000
b100 #
#350880000
b11 #
#350890000
b100 !
#350900000
b0 #
b101 !
#350940000
b110 !
#350950000
b11110 "
b1 !
#350960000
b10 !
#350970000
b11 !
b1 #
#350980000
b10 #
#351310000
b100 #
#351320000
b11 #
#351330000
b100 !
#351340000
b0 #
b101 !
#351400000
b110 !
#351410000
b11111 "
b1 !
#351420000
b10 !
#351430000
b11 !
b1 #
#351440000
b10 #
#355260000
b100 #
#355270000
b11 #
#355280000
b100 !
#355290000
b101 !
b0 #
#355330000
b110 !
#355340000
b1 !
b100000 "
#355350000
b10 !
#355360000
b1 #
b11 !
#355370000
b10 #
#357590000
b100 #
#357600000
b11 #
#357610000
b100 !
#357620000
b0 #
b101 !
#357660000
b110 !
#357670000
b100001 "
b1 !
#357680000
b10 !
#357690000
b11 !
b1 #
#357700000
b10 #
#359420000
b100 #
#359430000
b11 #
#359440000
b100 !
#359450000
b101 !
b0 #
#359490000
b110 !
#359500000
b1 !
b100010 "
#359510000
b10 !
#359520000
b1 #
b11 !
#359530000
b10 #
#362660000
b100 #
#362670000
b11 #
#362680000
b100 !
#362690000
b101 !
b0 #
#362730000
b110 !
#362740000
b1 !
b100011 "
#362750000
b10 !
#362760000
b1 #
b11 !
#362770000
b10 #
#365850000
b11 #
#365860000
b100 !
#365870000
b101 !
b0 #
#365910000
b110 !
#365920000
b1 !
b100100 "
#365930000
b10 !
#365940000
b1 #
b11 !
#365950000
b10 #
#368380000
b11 #
#368390000
b100 !
#368400000
b0 #
b101 !
#368440000
b110 !
#368450000
b100101 "
b1 !
#368460000
b10 !
#368470000
b11 !
b1 #
#368480000
b10 #
#370460000
b100 #
#370470000
b11 #
#370480000
b100 !
#370490000
b101 !
b0 #
#370530000
b110 !
#370540000
b1 !
b100110 "
#370550000
b10 !
#370560000
b1 #
b11 !
#370570000
b10 #
#370700000
b11 #
#370710000
b100 !
#370720000
b0 #
b101 !
#370990000
b110 !
#371000000
b1 !
b100111 "
#371010000
b10 !
#371020000
b1 #
b11 !
#371030000
b10 #
#373960000
b100 #
#373970000
b11 #
#373980000
b100 !
#373990000
b101 !
b0 #
#374030000
b110 !
#374040000
b1 !
b101000 "
#374050000
b10 !
#374060000
b1 #
b11 !
#374070000
b10 #
#376100000
b100 #
#376110000
b11 #
#376120000
b100 !
#376130000
b101 !
b0 #
#376180000
b110 !
#376190000
b101001 "
b1 !
#376200000
b10 !
#376210000
b11 !
b1 #
#376220000
b10 #
#377180000
b100 #
#377190000
b11 #
#377200000
b100 !
#377210000
b101 !
b0 #
#377250000
b110 !
#377260000
b1 !
b101010 "
#377270000
b10 !
#377280000
b1 #
b11 !
#377290000
b10 #
#379740000
b100 #
#379750000
b11 #
#379760000
b100 !
#379770000
b101 !
b0 #
#379810000
b110 !
#379820000
b1 !
b101011 "
#379830000
b10 !
#379840000
b1 #
b11 !
#379850000
b10 #
#380640000
b11 #
#380650000
b100 !
#380660000
b0 #
b101 !
#380700000
b110 !
#380710000
b101100 "
b1 !
#380720000
b10 !
#380730000
b11 !
b1 #
#380740000
b10 #
#383590000
b100 #
#383600000
b11 #
#383610000
b100 !
#383620000
b0 #
b101 !
#383660000
b110 !
#383670000
b101101 "
b1 !
#383680000
b10 !
#383690000
b11 !
b1 #
#383700000
b10 #
#384140000
b100 #
#384150000
b11 #
#384160000
b100 !
#384170000
b101 !
b0 #
#384230000
b110 !
#384240000
b1 !
b101110 "
#384250000
b10 !
#384260000
b1 #
b11 !
#384270000
b10 #
#387120000
b11 #
#387130000
b100 !
#387140000
b0 #
b101 !
#387180000
b110 !
#387190000
b101111 "
b1 !
#387200000
b10 !
#387210000
b11 !
b1 #
#387220000
b10 #
#387370000
b100 #
#387380000
b11 #
#387390000
b100 !
#387400000
b0 #
b101 !
#387770000
b110 !
#387780000
b1 !
b110000 "
#387790000
b10 !
#387800000
b1 #
b11 !
#387810000
b10 #
#390020000
b100 #
#390030000
b11 #
#390040000
b100 !
#390050000
b101 !
b0 #
#390090000
b110 !
#390100000
b1 !
b110001 "
#390110000
b10 !
#390120000
b1 #
b11 !
#390130000
b10 #
#391160000
b11 #
#391170000
b100 !
#391180000
b0 #
b101 !
#391220000
b110 !
#391230000
b110010 "
b1 !
#391240000
b10 !
#391250000
b11 !
b1 #
#391260000
b10 #
#391850000
b100 #
#391860000
b11 #
#391870000
b100 !
#391880000
b0 #
b101 !
#391920000
b110 !
#391930000
b110011 "
b1 !
#391940000
b10 !
#391950000
b11 !
b1 #
#391960000
b10 #
#393440000
b100 #
#393450000
b11 #
#393460000
b100 !
#393470000
b101 !
b0 #
#393510000
b110 !
#393520000
b1 !
b110100 "
#393530000
b10 !
#393540000
b1 #
b11 !
#393550000
b10 #
#396850000
b100 #
#396860000
b11 #
#396870000
b100 !
#396880000
b0 #
b101 !
#396920000
b110 !
#396930000
b110101 "
b1 !
#396940000
b10 !
#396950000
b11 !
b1 #
#396960000
b10 #
#399950000
b100 #
#399960000
b11 #
#399970000
b100 !
#399980000
b0 #
b101 !
#400020000
b110 !
#400030000
b110110 "
b1 !
#400040000
b10 !
#400050000
b11 !
b1 #
#400060000
b10 #
#402110000
b11 #
#402120000
b100 !
#402130000
b101 !
b0 #
#402170000
b110 !
#402180000
b1 !
b110111 "
#402190000
b10 !
#402200000
b1 #
b11 !
#402210000
b10 #
#403220000
b11 #
#403230000
b100 !
#403240000
b0 #
b101 !
#403280000
b110 !
#403290000
b111000 "
b1 !
#403300000
b10 !
#403310000
b11 !
b1 #
#403320000
b10 #
#403620000
b100 #
#403630000
b11 #
#403640000
b100 !
#403650000
b101 !
b0 #
#403740000
b110 !
#403750000
b111001 "
b1 !
#403760000
b10 !
#403770000
b11 !
b1 #
#403780000
b10 #
#404840000
b11 #
#404850000
b100 !
#404860000
b0 #
b101 !
#404900000
b110 !
#404910000
b111010 "
b1 !
#404920000
b10 !
#404930000
b11 !
b1 #
#404940000
b10 #
#408310000
b11 #
#408320000
b100 !
#408330000
b101 !
b0 #
#408370000
b110 !
#408380000
b1 !
b111011 "
#408390000
b10 !
#408400000
b1 #
b11 !
#408410000
b10 #
#410520000
b100 #
#410530000
b11 #
#410540000
b100 !
#410550000
b101 !
b0 #
#410590000
b110 !
#410600000
b1 !
b111100 "
#410610000
b10 !
#410620000
b1 #
b11 !
#410630000
b10 #
#413290000
b100 #
#413300000
b11 #
#413310000
b100 !
#413320000
b0 #
b101 !
#413360000
b110 !
#413370000
b111101 "
b1 !
#413380000
b10 !
#413390000
b11 !
b1 #
#413400000
b10 #
#415750000
b100 #
#415760000
b11 #
#415770000
b100 !
#415780000
b0 #
b101 !
#415840000
b110 !
#415850000
b111110 "
b1 !
#415860000
b10 !
#415870000
b11 !
b1 #
#415880000
b10 #
#416810000
b11 #
#416820000
b100 !
#416830000
b101 !
b0 #
#416870000
b110 !
#416880000
b1 !
b111111 "
#416890000
b10 !
#416900000
b1 #
b11 !
#416910000
b10 #
#420490000
b100 #
#420500000
b11 #
#420510000
b100 !
#420520000
b0 #
b101 !
#420560000
b110 !
#420570000
b1000000 "
b1 !
#420580000
b10 !
#420590000
b11 !
b1 #
#420600000
b10 #
#421020000
b100 #
#421030000
b11 #
#421040000
b100 !
#421050000
b101 !
b0 #
#421150000
b110 !
#421160000
b1 !
b1000001 "
#421170000
b10 !
#421180000
b1 #
b11 !
#421190000
b10 #
#422090000
b100 #
#422100000
b11 #
#422110000
b100 !
#422120000
b0 #
b101 !
#422160000
b110 !
#422170000
b1000010 "
b1 !
#422180000
b10 !
#422190000
b11 !
b1 #
#422200000
b10 #
#423890000
b100 #
#423900000
b11 #
#423910000
b100 !
#423920000
b0 #
b101 !
#423960000
b110 !
#423970000
b1000011 "
b1 !
#423980000
b10 !
#423990000
b11 !
b1 #
#424000000
b10 #
#426960000
b100 #
#426970000
b11 #
#426980000
b100 !
#426990000
b101 !
b0 #
#427030000
b110 !
#427040000
b1 !
b1000100 "
#427050000
b10 !
#427060000
b1 #
b11 !
#427070000
b10 #
#427540000
b100 #
#427550000
b11 #
#427560000
b100 !
#427570000
b101 !
b0 #
#427610000
b110 !
#427620000
b1 !
b1000101 "
#427630000
b10 !
#427640000
b1 #
b11 !
#427650000
b10 #
#428250000
b11 #
#428260000
b100 !
#428270000
b101 !
b0 #
#428310000
b110 !
#428320000
b1 !
b1000110 "
#428330000
b10 !
#428340000
b1 #
b11 !
#428350000
b10 #
#431610000
b100 #
#431620000
b11 #
#431630000
b100 !
#431640000
b0 #
b101 !
#431680000
b110 !
#431690000
b1000111 "
b1 !
#431700000
b10 !
#431710000
b11 !
b1 #
#431720000
b10 #
#434020000
b100 #
#434030000
b11 #
#434040000
b100 !
#434050000
b101 !
b0 #
#434090000
b110 !
#434100000
b1 !
b1001000 "
#434110000
b10 !
#434120000
b1 #
b11 !
#434130000
b10 #
#435510000
b100 #
#435520000
b11 #
#435530000
b100 !
#435540000
b0 #
b101 !
#435580000
b110 !
#435590000
b1001001 "
b1 !
#435600000
b10 !
#435610000
b11 !
b1 #
#435620000
b10 #
#437650000
b11 #
#437660000
b100 !
#437670000
b101 !
b0 #
#437710000
b110 !
#437720000
b1 !
b1001010 "
#437730000
b10 !
#437740000
b1 #
b11 !
#437750000
b10 #
#438110000
b100 #
#438120000
b11 #
#438130000
b100 !
#438140000
b0 #
b101 !
#438220000
b110 !
#438230000
b1001011 "
b1 !
#438240000
b10 !
#438250000
b11 !
b1 #
#438260000
b10 #
#439630000
b100 #
#439640000
b11 #
#439650000
b100 !
#439660000
b0 #
b101 !
#439700000
b110 !
#439710000
b1001100 "
b1 !
#439720000
b10 !
#439730000
b11 !
b1 #
#439740000
b10 #
#441900000
b100 #
#441910000
b11 #
#441920000
b100 !
#441930000
b101 !
b0 #
#441970000
b110 !
#441980000
b1 !
b1001101 "
#441990000
b10 !
#442000000
b1 #
b11 !
#442010000
b10 #
#443630000
b11 #
#443640000
b100 !
#443650000
b101 !
b0 #
#443690000
b110 !
#443700000
b1 !
b1001110 "
#443710000
b10 !
#443720000
b1 #
b11 !
#443730000
b10 #
#444090000
b11 #
#444100000
b100 !
#444110000
b101 !
b0 #
#444200000
b110 !
#444210000
b1001111 "
b1 !
#444220000
b10 !
#444230000
b11 !
b1 #
#444240000
b10 #
#444860000
b11 #
#444870000
b100 !
#444880000
b0 #
b101 !
#444920000
b110 !
#444930000
b1010000 "
b1 !
#444940000
b10 !
#444950000
b11 !
b1 #
#444960000
b10 #
#445980000
b100 #
#445990000
b11 #
#446000000
b100 !
#446010000
b101 !
b0 #
#446050000
b110 !
#446060000
b1 !
b1010001 "
#446070000
b10 !
#446080000
b1 #
b11 !
#446090000
b10 #
#448240000
b100 #
#448250000
b11 #
#448260000
b100 !
#448270000
b101 !
b0 #
#448310000
b110 !
#448320000
b1 !
b1010010 "
#448330000
b10 !
#448340000
b1 #
b11 !
#448350000
b10 #
#451610000
b100 #
#451620000
b11 #
#451630000
b100 !
#451640000
b0 #
b101 !
#451680000
b110 !
#451690000
b1010011 "
b1 !
#451700000
b10 !
#451710000
b11 !
b1 #
#451720000
b10 #
#453830000
b100 #
#453840000
b11 #
#453850000
b100 !
#453860000
b0 #
b101 !
#453900000
b110 !
#453910000
b1010100 "
b1 !
#453920000
b10 !
#453930000
b11 !
b1 #
#453940000
b10 #
#457500000
b11 #
#457510000
b100 !
#457520000
b0 #
b101 !
#457560000
b110 !
#457570000
b1010101 "
b1 !
#457580000
b10 !
#457590000
b11 !
b1 #
#457600000
b10 #
#460680000
b11 #
#460690000
b100 !
#460700000
b0 #
b101 !
#460740000
b110 !
#460750000
b1010110 "
b1 !
#460760000
b10 !
#460770000
b11 !
b1 #
#460780000
b10 #
#464100000
b100 #
#464110000
b11 #
#464120000
b100 !
#464130000
b101 !
b0 #
#464170000
b110 !
#464180000
b1 !
b1010111 "
#464190000
b10 !
#464200000
b1 #
b11 !
#464210000
b10 #
#467450000
b100 #
#467460000
b11 #
#467470000
b100 !
#467480000
b0 #
b101 !
#467520000
b110 !
#467530000
b1011000 "
b1 !
#467540000
b10 !
#467550000
b11 !
b1 #
#467560000
b10 #
#470350000
b100 #
#470360000
b11 #
#470370000
b100 !
#470380000
b0 #
b101 !
#470420000
b110 !
#470430000
b1011001 "
b1 !
#470440000
b10 !
#470450000
b11 !
b1 #
#470460000
b10 #
#472470000
b100 #
#472480000
b11 #
#472490000
b100 !
#472500000
b0 #
b101 !
#472540000
b110 !
#472550000
b1011010 "
b1 !
#472560000
b10 !
#472570000
b11 !
b1 #
#472580000
b10 #
#473640000
b11 #
#473650000
b100 !
#473660000
b0 #
b101 !
#473700000
b110 !
#473710000
b1011011 "
b1 !
#473720000
b10 !
#473730000
b11 !
b1 #
#473740000
b10 #
#477640000
b100 #
#477650000
b11 #
#477660000
b100 !
#477670000
b101 !
b0 #
#477710000
b110 !
#477720000
b1 !
b1011100 "
#477730000
b10 !
#477740000
b1 #
b11 !
#477750000
b10 #
#479210000
b100 #
#479220000
b11 #
#479230000
b100 !
#479240000
b0 #
b101 !
#479280000
b110 !
#479290000
b1011101 "
b1 !
#479300000
b10 !
#479310000
b11 !
b1 #
#479320000
b10 #
#481380000
b100 #
#481390000
b11 #
#481400000
b100 !
#481410000
b101 !
b0 #
#481450000
b110 !
#481460000
b1 !
b1011110 "
#481470000
b10 !
#481480000
b1 #
b11 !
#481490000
b10 #
#481950000
b11 #
#481960000
b100 !
#481970000
b101 !
b0 #
#482010000
b110 !
#482020000
b1 !
b1011111 "
#482030000
b10 !
#482040000
b1 #
b11 !
#482050000
b10 #
#482570000
b100 #
#482580000
b11 #
#482590000
b100 !
#482600000
b0 #
b101 !
#482640000
b110 !
#482650000
b1100000 "
b1 !
#482660000
b10 !
#482670000
b11 !
b1 #
#482680000
b10 #
#483980000
b11 #
#483990000
b100 !
#484000000
b0 #
b101 !
#484040000
b110 !
#484050000
b1100001 "
b1 !
#484060000
b10 !
#484070000
b11 !
b1 #
#484080000
b10 #
#487610000
b11 #
#487620000
b100 !
#487630000
b101 !
b0 #
#487670000
b110 !
#487680000
b1 !
b1100010 "
#487690000
b10 !
#487700000
b1 #
b11 !
#487710000
b10 #
#491230000
b100 #
#491240000
b11 #
#491250000
b100 !
#491260000
b0 #
b101 !
#491300000
b110 !
#491310000
b1100011 "
b1 !
#491320000
b10 !
#491330000
b11 !
b1 #
#491340000
b10 #
#491820000
b100 #
#491830000
b11 #
#491840000
b100 !
#491850000
b101 !
b0 #
#491890000
b110 !
#491900000
b1 !
b1100100 "
#491910000
b10 !
#491920000
b1 #
b11 !
#491930000
b10 #
#493190000
b100 #
#493200000
b11 #
#493210000
b100 !
#493220000
b0 #
b101 !
#493260000
b110 !
#493270000
b1100101 "
b1 !
#493280000
b10 !
#493290000
b11 !
b1 #
#493300000
b10 #
#494950000
b100 #
#494960000
b11 #
#494970000
b100 !
#494980000
b0 #
b101 !
#495020000
b110 !
#495030000
b1100110 "
b1 !
#495040000
b10 !
#495050000
b11 !
b1 #
#495060000
b10 #
#496710000
b100 #
#496720000
b11 #
#496730000
b100 !
#496740000
b0 #
b101 !
#496780000
b110 !
#496790000
b1100111 "
b1 !
#496800000
b10 !
#496810000
b11 !
b1 #
#496820000
b10 #
#500640000
b100 #
#500650000
b11 #
#500660000
b100 !
#500670000
b101 !
b0 #
#500710000
b110 !
#500720000
b1 !
b1101000 "
#500730000
b10 !
#500740000
b1 #
b11 !
#500750000
b10 #
#501530000
b100 #
#501540000
b11 #
#501550000
b100 !
#501560000
b0 #
b101 !
#501600000
b110 !
#501610000
b1101001 "
b1 !
#501620000
b10 !
#501630000
b11 !
b1 #
#501640000
b10 #
#501910000
b100 #
#501920000
b11 #
#501930000
b100 !
#501940000
b0 #
b101 !
#502030000
b110 !
#502040000
b1 !
b1101010 "
#502050000
b10 !
#502060000
b1 #
b11 !
#502070000
b10 #
#505750000
b100 #
#505760000
b11 #
#505770000
b100 !
#505780000
b0 #
b101 !
#505820000
b110 !
#505830000
b1101011 "
b1 !
#505840000
b10 !
#505850000
b11 !
b1 #
#505860000
b10 #
#507260000
b100 #
#507270000
b11 #
#507280000
b100 !
#507290000
b101 !
b0 #
#507330000
b110 !
#507340000
b1 !
b1101100 "
#507350000
b10 !
#507360000
b1 #
b11 !
#507370000
b10 #
#509080000
b100 #
#509090000
b11 #
#509100000
b100 !
#509110000
b101 !
b0 #
#509150000
b110 !
#509160000
b1 !
b1101101 "
#509170000
b10 !
#509180000
b1 #
b11 !
#509190000
b10 #
#511250000
b100 #
#511260000
b11 #
#511270000
b100 !
#511280000
b0 #
b101 !
#511320000
b110 !
#511330000
b1101110 "
b1 !
#511340000
b10 !
#511350000
b11 !
b1 #
#511360000
b10 #
#513110000
b100 #
#513120000
b11 #
#513130000
b100 !
#513140000
b0 #
b101 !
#513180000
b110 !
#513190000
b1101111 "
b1 !
#513200000
b10 !
#513210000
b11 !
b1 #
#513220000
b10 #
#513890000
b100 #
#513900000
b11 #
#513910000
b100 !
#513920000
b0 #
b101 !
#513960000
b110 !
#513970000
b1110000 "
b1 !
#513980000
b10 !
#513990000
b11 !
b1 #
#514000000
b10 #
#514870000
b100 #
#514880000
b11 #
#514890000
b100 !
#514900000
b0 #
b101 !
#514940000
b110 !
#514950000
b1110001 "
b1 !
#514960000
b10 !
#514970000
b11 !
b1 #
#514980000
b10 #
#515370000
b100 #
#515380000
b11 #
#515390000
b100 !
#515400000
b0 #
b101 !
#515440000
b110 !
#515450000
b1110010 "
b1 !
#515460000
b10 !
#515470000
b11 !
b1 #
#515480000
b10 #
#516140000
b100 #
#516150000
b11 #
#516160000
b100 !
#516170000
b101 !
b0 #
#516210000
b110 !
#516220000
b1 !
b1110011 "
#516230000
b10 !
#516240000
b1 #
b11 !
#516250000
b10 #
#519750000
b11 #
#519760000
b100 !
#519770000
b101 !
b0 #
#519810000
b110 !
#519820000
b1 !
b1110100 "
#519830000
b10 !
#519840000
b1 #
b11 !
#519850000
b10 #
#520330000
b100 #
#520340000
b11 #
#520350000
b100 !
#520360000
b0 #
b101 !
#520400000
b110 !
#520410000
b1110101 "
b1 !
#520420000
b10 !
#520430000
b11 !
b1 #
#520440000
b10 #
#522050000
b100 #
#522060000
b11 #
#522070000
b100 !
#522080000
b0 #
b101 !
#522120000
b110 !
#522130000
b1110110 "
b1 !
#522140000
b10 !
#522150000
b11 !
b1 #
#522160000
b10 #
#523130000
b100 #
#523140000
b11 #
#523150000
b100 !
#523160000
b0 #
b101 !
#523200000
b110 !
#523210000
b1110111 "
b1 !
#523220000
b10 !
#523230000
b11 !
b1 #
#523240000
b10 #
#526590000
b100 #
#526600000
b11 #
#526610000
b100 !
#526620000
b0 #
b101 !
#526660000
b110 !
#526670000
b1111000 "
b1 !
#526680000
b10 !
#526690000
b11 !
b1 #
#526700000
b10 #
#528930000
b11 #
#528940000
b100 !
#528950000
b101 !
b0 #
#528990000
b110 !
#529000000
b1 !
b1111001 "
#529010000
b10 !
#529020000
b1 #
b11 !
#529030000
b10 #
#531320000
b11 #
#531330000
b100 !
#531340000
b0 #
b101 !
#531380000
b110 !
#531390000
b1111010 "
b1 !
#531400000
b10 !
#531410000
b11 !
b1 #
#531420000
b10 #
#533470000
b11 #
#533480000
b100 !
#533490000
b101 !
b0 #
#533530000
b110 !
#533540000
b1 !
b1111011 "
#533550000
b10 !
#533560000
b1 #
b11 !
#533570000
b10 #
#536230000
b100 #
#536240000
b11 #
#536250000
b100 !
#536260000
b0 #
b101 !
#536300000
b110 !
#536310000
b1111100 "
b1 !
#536320000
b10 !
#536330000
b11 !
b1 #
#536340000
b10 #
#538300000
b100 #
#538310000
b11 #
#538320000
b100 !
#538330000
b101 !
b0 #
#538370000
b110 !
#538380000
b1 !
b1111101 "
#538390000
b10 !
#538400000
b1 #
b11 !
#538410000
b10 #
#540810000
b100 #
#540820000
b11 #
#540830000
b100 !
#540840000
b0 #
b101 !
#540880000
b110 !
#540890000
b1111110 "
b1 !
#540900000
b10 !
#540910000
b11 !
b1 #
#540920000
b10 #
#543140000
b11 #
#543150000
b100 !
#543160000
b0 #
b101 !
#543200000
b110 !
#543210000
b1111111 "
b1 !
#543220000
b10 !
#543230000
b11 !
b1 #
#543240000
b10 #
#545400000
b11 #
#545410000
b100 !
#545420000
b0 #
b101 !
#545460000
b110 !
#545470000
b10000000 "
b1 !
#545480000
b10 !
#545490000
b11 !
b1 #
#545500000
b10 #
#546880000
b100 #
#546890000
b11 #
#546900000
b100 !
#546910000
b101 !
b0 #
#546950000
b110 !
#546960000
b1 !
b10000001 "
#546970000
b10 !
#546980000
b1 #
b11 !
#546990000
b10 #
#547310000
b100 #
#547320000
b11 #
#547330000
b100 !
#547340000
b0 #
b101 !
#547530000
b110 !
#547540000
b1 !
b10000010 "
#547550000
b10 !
#547560000
b1 #
b11 !
#547570000
b10 #
#548690000
b100 #
#548700000
b11 #
#548710000
b100 !
#548720000
b0 #
b101 !
#548760000
b110 !
#548770000
b10000011 "
b1 !
#548780000
b10 !
#548790000
b11 !
b1 #
#548800000
b10 #
#549160000
b100 #
#549170000
b11 #
#549180000
b100 !
#549190000
b101 !
b0 #
#549240000
b110 !
#549250000
b10000100 "
b1 !
#549260000
b10 !
#549270000
b11 !
b1 #
#549280000
b10 #
#551040000
b11 #
#551050000
b100 !
#551060000
b0 #
b101 !
#551100000
b110 !
#551110000
b10000101 "
b1 !
#551120000
b10 !
#551130000
b11 !
b1 #
#551140000
b10 #
#554050000
b11 #
#554060000
b100 !
#554070000
b101 !
b0 #
#554110000
b110 !
#554120000
b1 !
b10000110 "
#554130000
b10 !
#554140000
b1 #
b11 !
#554150000
b10 #
#556190000
b11 #
#556200000
b100 !
#556210000
b101 !
b0 #
#556250000
b110 !
#556260000
b1 !
b10000111 "
#556270000
b10 !
#556280000
b1 #
b11 !
#556290000
b10 #
#558800000
b100 #
#558810000
b11 #
#558820000
b100 !
#558830000
b101 !
b0 #
#558870000
b110 !
#558880000
b1 !
b10001000 "
#558890000
b10 !
#558900000
b1 #
b11 !
#558910000
b10 #
#559920000
b100 #
#559930000
b11 #
#559940000
b100 !
#559950000
b101 !
b0 #
#559990000
b110 !
#560000000
b1 !
b10001001 "
#560010000
b10 !
#560020000
b1 #
b11 !
#560030000
b10 #
#560310000
b100 #
#560320000
b11 #
#560330000
b100 !
#560340000
b0 #
b101 !
#560380000
b110 !
#560390000
b10001010 "
b1 !
#560400000
b10 !
#560410000
b11 !
b1 #
#560420000
b10 #
#563780000
b11 #
#563790000
b100 !
#563800000
b0 #
b101 !
#563840000
b110 !
#563850000
b10001011 "
b1 !
#563860000
b10 !
#563870000
b11 !
b1 #
#563880000
b10 #
#567430000
b100 #
#567440000
b11 #
#567450000
b100 !
#567460000
b0 #
b101 !
#567500000
b110 !
#567510000
b10001100 "
b1 !
#567520000
b10 !
#567530000
b11 !
b1 #
#567540000
b10 #
#570990000
b100 #
#571000000
b11 #
#571010000
b100 !
