test/pe_sim/sim_build/pe_dump.vcd
$date
	Wed Jun 24 14:05:54 2026
$end
$version
	Icarus Verilog
$end
$timescale
	1ps
$end
$scope module tb_pe_top $end
$scope module u_pe $end
$var reg 3 ! state [2:0] $end
$upscope $end
$upscope $end
$scope module tb_pe_top $end
$scope module u_pe $end
$var reg 8 " row_idx [7:0] $end
$upscope $end
$upscope $end
$scope module tb_pe_top $end
$scope module u_pe $end
$var reg 16 # instr_ptr [15:0] $end
$upscope $end
$upscope $end
$scope module tb_pe_top $end
$scope module u_pe $end
$var reg 1 $ done $end
$upscope $end
$upscope $end
$enddefinitions $end
$comment Show the parameter values. $end
$dumpall
$end
#0
$dumpvars
0$
b0 #
b0 "
b0 !
$end
#663160000
b1 !
#663170000
b10 !
#663180000
b11 !
#663190000
b1 #
#663200000
b10 #
#663210000
b11 #
#663220000
b100 #
#663230000
b101 #
#663240000
b110 #
#663250000
b111 #
#663260000
b1000 #
#663270000
b1001 #
#663280000
b1010 #
#663290000
b1011 #
#663300000
b1100 #
#663310000
b1101 #
#663320000
b1110 #
#663330000
b1111 #
#663340000
b10000 #
#663350000
b10001 #
#663360000
b10010 #
#663370000
b10011 #
#663380000
b10100 #
#663390000
b10101 #
#663400000
b10110 #
#663410000
b10111 #
#663420000
b11000 #
#663430000
b11001 #
#663440000
b11010 #
#663450000
b11011 #
#663460000
b11100 #
#663470000
b11101 #
#663480000
b11110 #
#663490000
b11111 #
#663500000
b100000 #
#663510000
b100001 #
#663520000
b100010 #
#663530000
b100011 #
#663540000
b100100 #
#663550000
b100101 #
#663560000
b100110 #
#663570000
b100111 #
#663580000
b101000 #
#663590000
b101001 #
#663600000
b101010 #
#663610000
b101011 #
#663620000
b101100 #
#663630000
b101101 #
#663640000
b101110 #
#663650000
b101111 #
#663660000
b110000 #
#663670000
b110001 #
#663680000
b110010 #
#663690000
b110011 #
#663700000
b110100 #
#663710000
b110101 #
#663720000
b110110 #
#663730000
b110111 #
#663740000
b111000 #
#663750000
b111001 #
#663760000
b111010 #
#663770000
b111011 #
#663780000
b111100 #
#663790000
b111101 #
#663800000
b111110 #
#663810000
b111111 #
#663820000
b1000000 #
#663830000
b1000001 #
#663840000
b1000010 #
#663850000
b1000011 #
#663860000
b1000100 #
#663870000
b1000101 #
#663880000
b1000110 #
#663890000
b1000111 #
#663900000
b1001000 #
#663910000
b1001001 #
#663920000
b1001010 #
#663930000
b1001011 #
#663940000
b1001100 #
#663950000
b1001101 #
#663960000
b1001110 #
#663970000
b1001111 #
#663980000
b1010000 #
#663990000
b1010001 #
#664000000
b1010010 #
#664010000
b1010011 #
#664020000
b1010100 #
#664030000
b1010101 #
#664040000
b1010110 #
#664050000
b1010111 #
#664060000
b1011000 #
#664070000
b1011001 #
#664080000
b1011010 #
#664090000
b1011011 #
#664100000
b1011100 #
#664110000
b1011101 #
#664120000
b1011110 #
#664130000
b1011111 #
#664140000
b1100000 #
#664150000
b1100001 #
#664160000
b1100010 #
#664170000
b1100011 #
#664180000
b1100100 #
#664190000
b1100101 #
#664200000
b1100110 #
#664210000
b1100111 #
#664220000
b1101000 #
#664230000
b1101001 #
#664240000
b1101010 #
#664250000
b1101011 #
#664260000
b1101100 #
#664270000
b1101101 #
#664280000
b1101110 #
#664290000
b1101111 #
#664300000
b1110000 #
#664310000
b1110001 #
#664320000
b1110010 #
#664330000
b1110011 #
#664340000
b1110100 #
#664350000
b1110101 #
#664360000
b1110110 #
#664370000
b1110111 #
#664380000
b1111000 #
#664390000
b1111001 #
#664400000
b1111010 #
#664410000
b1111011 #
#664420000
b1111100 #
#664430000
b1111101 #
#664440000
b1111110 #
#664450000
b1111111 #
#664460000
b10000000 #
#664470000
b10000001 #
#664480000
b10000010 #
#664490000
b10000011 #
#664500000
b10000100 #
#664510000
b10000101 #
#664520000
b10000110 #
#664530000
b10000111 #
#664540000
b10001000 #
#664550000
b10001001 #
#664560000
b10001010 #
#664570000
b10001011 #
#664580000
b10001100 #
#664590000
b10001101 #
#664600000
b10001110 #
#664610000
b10001111 #
#664620000
b10010000 #
#664630000
b10010001 #
#664640000
b10010010 #
#664650000
b10010011 #
#664660000
b10010100 #
#664670000
b10010101 #
#664680000
b10010110 #
#664690000
b10010111 #
#664700000
b10011000 #
#664710000
b10011001 #
#664720000
b10011010 #
#664730000
b10011011 #
#664740000
b10011100 #
#664750000
b10011101 #
#664760000
b10011110 #
#664770000
b10011111 #
#664780000
b10100000 #
#664790000
b10100001 #
#664800000
b10100010 #
#664810000
b10100011 #
#664820000
b10100100 #
#664830000
b10100101 #
#664840000
b10100110 #
#664850000
b10100111 #
#664860000
b10101000 #
#664870000
b10101001 #
#664880000
b10101010 #
#664890000
b10101011 #
#664900000
b10101100 #
#664910000
b10101101 #
#664920000
b10101110 #
#664930000
b10101111 #
#664940000
b10110000 #
#664950000
b100 !
#664960000
b101 !
#664990000
b110 !
#665000000
b1 !
b0 #
b1 "
#665010000
b10 !
#665020000
b11 !
#665030000
b1 #
#665040000
b10 #
#665050000
b11 #
#665060000
b100 #
#665070000
b101 #
#665080000
b110 #
#665090000
b111 #
#665100000
b1000 #
#665110000
b1001 #
#665120000
b1010 #
#665130000
b1011 #
#665140000
b1100 #
#665150000
b1101 #
#665160000
b1110 #
#665170000
b1111 #
#665180000
b10000 #
#665190000
b10001 #
#665200000
b10010 #
#665210000
b10011 #
#665220000
b10100 #
#665230000
b10101 #
#665240000
b10110 #
#665250000
b10111 #
#665260000
b11000 #
#665270000
b11001 #
#665280000
b11010 #
#665290000
b11011 #
#665300000
b11100 #
#665310000
b11101 #
#665320000
b11110 #
#665330000
b11111 #
#665340000
b100000 #
#665350000
b100001 #
#665360000
b100010 #
#665370000
b100011 #
#665380000
b100100 #
#665390000
b100101 #
#665400000
b100110 #
#665410000
b100111 #
#665420000
b101000 #
#665430000
b101001 #
#665440000
b101010 #
#665450000
b101011 #
#665460000
b101100 #
#665470000
b101101 #
#665480000
b101110 #
#665490000
b101111 #
#665500000
b110000 #
#665510000
b110001 #
#665520000
b110010 #
#665530000
b110011 #
#665540000
b110100 #
#665550000
b110101 #
#665560000
b110110 #
#665570000
b110111 #
#665580000
b111000 #
#665590000
b111001 #
#665600000
b111010 #
#665610000
b111011 #
#665620000
b111100 #
#665630000
b111101 #
#665640000
b111110 #
#665650000
b111111 #
#665660000
b1000000 #
#665670000
b1000001 #
#665680000
b1000010 #
#665690000
b1000011 #
#665700000
b1000100 #
#665710000
b1000101 #
#665720000
b1000110 #
#665730000
b1000111 #
#665740000
b1001000 #
#665750000
b1001001 #
#665760000
b1001010 #
#665770000
b1001011 #
#665780000
b1001100 #
#665790000
b1001101 #
#665800000
b1001110 #
#665810000
b1001111 #
#665820000
b1010000 #
#665830000
b1010001 #
#665840000
b1010010 #
#665850000
b1010011 #
#665860000
b1010100 #
#665870000
b1010101 #
#665880000
b1010110 #
#665890000
b1010111 #
#665900000
b1011000 #
#665910000
b1011001 #
#665920000
b1011010 #
#665930000
b1011011 #
#665940000
b1011100 #
#665950000
b1011101 #
#665960000
b1011110 #
#665970000
b1011111 #
#665980000
b1100000 #
#665990000
b1100001 #
#666000000
b1100010 #
#666010000
b1100011 #
#666020000
b1100100 #
#666030000
b1100101 #
#666040000
b1100110 #
#666050000
b1100111 #
#666060000
b1101000 #
#666070000
b1101001 #
#666080000
b1101010 #
#666090000
b1101011 #
#666100000
b1101100 #
#666110000
b1101101 #
#666120000
b1101110 #
#666130000
b1101111 #
#666140000
b1110000 #
#666150000
b1110001 #
#666160000
b1110010 #
#666170000
b1110011 #
#666180000
b1110100 #
#666190000
b1110101 #
#666200000
b1110110 #
#666210000
b1110111 #
#666220000
b1111000 #
#666230000
b1111001 #
#666240000
b1111010 #
#666250000
b1111011 #
#666260000
b1111100 #
#666270000
b1111101 #
#666280000
b1111110 #
#666290000
b1111111 #
#666300000
b10000000 #
#666310000
b10000001 #
#666320000
b10000010 #
#666330000
b10000011 #
#666340000
b10000100 #
#666350000
b10000101 #
#666360000
b10000110 #
#666370000
b10000111 #
#666380000
b10001000 #
#666390000
b10001001 #
#666400000
b10001010 #
#666410000
b10001011 #
#666420000
b10001100 #
#666430000
b10001101 #
#666440000
b10001110 #
#666450000
b10001111 #
#666460000
b10010000 #
#666470000
b10010001 #
#666480000
b10010010 #
#666490000
b10010011 #
#666500000
b10010100 #
#666510000
b10010101 #
#666520000
b10010110 #
#666530000
b10010111 #
#666540000
b10011000 #
#666550000
b10011001 #
#666560000
b10011010 #
#666570000
b10011011 #
#666580000
b10011100 #
#666590000
b10011101 #
#666600000
b10011110 #
#666610000
b10011111 #
#666620000
b10100000 #
#666630000
b10100001 #
#666640000
b10100010 #
#666650000
b10100011 #
#666660000
b10100100 #
#666670000
b10100101 #
#666680000
b10100110 #
#666690000
b10100111 #
#666700000
b10101000 #
#666710000
b10101001 #
#666720000
b10101010 #
#666730000
b10101011 #
#666740000
b10101100 #
#666750000
b10101101 #
#666760000
b10101110 #
#666770000
b10101111 #
#666780000
b10110000 #
#666790000
b10110001 #
#666800000
b10110010 #
#666810000
b10110011 #
#666820000
b10110100 #
#666830000
b10110101 #
#666840000
b10110110 #
#666850000
b10110111 #
#666860000
b10111000 #
#666870000
b10111001 #
#666880000
b10111010 #
#666890000
b10111011 #
#666900000
b10111100 #
#666910000
b10111101 #
#666920000
b10111110 #
#666930000
b10111111 #
#666940000
b11000000 #
#666950000
b11000001 #
#666960000
b11000010 #
#666970000
b11000011 #
#666980000
b11000100 #
#666990000
b11000101 #
#667000000
b11000110 #
#667010000
b11000111 #
#667020000
b11001000 #
#667030000
b11001001 #
#667040000
b11001010 #
#667050000
b11001011 #
#667060000
b11001100 #
#667070000
b11001101 #
#667080000
b11001110 #
#667090000
b11001111 #
#667100000
b11010000 #
#667110000
b11010001 #
#667120000
b11010010 #
#667130000
b11010011 #
#667140000
b11010100 #
#667150000
b11010101 #
#667160000
b11010110 #
#667170000
b11010111 #
#667180000
b11011000 #
#667190000
b11011001 #
#667200000
b11011010 #
#667210000
b11011011 #
#667220000
b11011100 #
#667230000
b100 !
#667240000
b101 !
#667270000
b110 !
#667280000
b1 !
b0 #
b10 "
#667290000
b10 !
#667300000
b11 !
#667310000
b1 #
#667320000
b10 #
#667330000
b11 #
#667340000
b100 #
#667350000
b101 #
#667360000
b110 #
#667370000
b111 #
#667380000
b1000 #
#667390000
b1001 #
#667400000
b1010 #
#667410000
b1011 #
#667420000
b1100 #
#667430000
b1101 #
#667440000
b1110 #
#667450000
b1111 #
#667460000
b10000 #
#667470000
b10001 #
#667480000
b10010 #
#667490000
b10011 #
#667500000
b10100 #
#667510000
b10101 #
#667520000
b10110 #
#667530000
b10111 #
#667540000
b11000 #
#667550000
b11001 #
#667560000
b11010 #
#667570000
b11011 #
#667580000
b11100 #
#667590000
b11101 #
#667600000
b11110 #
#667610000
b11111 #
#667620000
b100000 #
#667630000
b100001 #
#667640000
b100010 #
#667650000
b100011 #
#667660000
b100100 #
#667670000
b100101 #
#667680000
b100110 #
#667690000
b100111 #
#667700000
b101000 #
#667710000
b101001 #
#667720000
b101010 #
#667730000
b101011 #
#667740000
b101100 #
#667750000
b101101 #
#667760000
b101110 #
#667770000
b101111 #
#667780000
b110000 #
#667790000
b110001 #
#667800000
b110010 #
#667810000
b110011 #
#667820000
b110100 #
#667830000
b110101 #
#667840000
b110110 #
#667850000
b110111 #
#667860000
b111000 #
#667870000
b111001 #
#667880000
b111010 #
#667890000
b111011 #
#667900000
b111100 #
#667910000
b111101 #
#667920000
b111110 #
#667930000
b111111 #
#667940000
b1000000 #
#667950000
b1000001 #
#667960000
b1000010 #
#667970000
b1000011 #
#667980000
b1000100 #
#667990000
b1000101 #
#668000000
b1000110 #
#668010000
b1000111 #
#668020000
b1001000 #
#668030000
b1001001 #
#668040000
b1001010 #
#668050000
b1001011 #
#668060000
b1001100 #
#668070000
b1001101 #
#668080000
b1001110 #
#668090000
b1001111 #
#668100000
b1010000 #
#668110000
b1010001 #
#668120000
b1010010 #
#668130000
b1010011 #
#668140000
b1010100 #
#668150000
b1010101 #
#668160000
b1010110 #
#668170000
b1010111 #
#668180000
b1011000 #
#668190000
b1011001 #
#668200000
b1011010 #
#668210000
b1011011 #
#668220000
b1011100 #
#668230000
b1011101 #
#668240000
b1011110 #
#668250000
b1011111 #
#668260000
b1100000 #
#668270000
b1100001 #
#668280000
b1100010 #
#668290000
b1100011 #
#668300000
b1100100 #
#668310000
b1100101 #
#668320000
b1100110 #
#668330000
b1100111 #
#668340000
b1101000 #
#668350000
b1101001 #
#668360000
b1101010 #
#668370000
b1101011 #
#668380000
b1101100 #
#668390000
b1101101 #
#668400000
b1101110 #
#668410000
b1101111 #
#668420000
b1110000 #
#668430000
b1110001 #
#668440000
b1110010 #
#668450000
b1110011 #
#668460000
b1110100 #
#668470000
b1110101 #
#668480000
b1110110 #
#668490000
b1110111 #
#668500000
b1111000 #
#668510000
b1111001 #
#668520000
b1111010 #
#668530000
b1111011 #
#668540000
b1111100 #
#668550000
b1111101 #
#668560000
b1111110 #
#668570000
b1111111 #
#668580000
b10000000 #
#668590000
b10000001 #
#668600000
b10000010 #
#668610000
b10000011 #
#668620000
b10000100 #
#668630000
b10000101 #
#668640000
b10000110 #
#668650000
b10000111 #
#668660000
b10001000 #
#668670000
b10001001 #
#668680000
b10001010 #
#668690000
b10001011 #
#668700000
b10001100 #
#668710000
b10001101 #
#668720000
b10001110 #
#668730000
b10001111 #
#668740000
b10010000 #
#668750000
b10010001 #
#668760000
b10010010 #
#668770000
b10010011 #
#668780000
b10010100 #
#668790000
b10010101 #
#668800000
b10010110 #
#668810000
b10010111 #
#668820000
b10011000 #
#668830000
b10011001 #
#668840000
b10011010 #
#668850000
b10011011 #
#668860000
b10011100 #
#668870000
b10011101 #
#668880000
b10011110 #
#668890000
b10011111 #
#668900000
b10100000 #
#668910000
b10100001 #
#668920000
b10100010 #
#668930000
b10100011 #
#668940000
b10100100 #
#668950000
b10100101 #
#668960000
b10100110 #
#668970000
b10100111 #
#668980000
b10101000 #
#668990000
b10101001 #
#669000000
b10101010 #
#669010000
b10101011 #
#669020000
b10101100 #
#669030000
b10101101 #
#669040000
b10101110 #
#669050000
b10101111 #
#669060000
b10110000 #
#669070000
b10110001 #
#669080000
b10110010 #
#669090000
b10110011 #
#669100000
b10110100 #
#669110000
b10110101 #
#669120000
b10110110 #
#669130000
b10110111 #
#669140000
b10111000 #
#669150000
b10111001 #
#669160000
b10111010 #
#669170000
b10111011 #
#669180000
b10111100 #
#669190000
b10111101 #
#669200000
b10111110 #
#669210000
b10111111 #
#669220000
b11000000 #
#669230000
b11000001 #
#669240000
b11000010 #
#669250000
b11000011 #
#669260000
b11000100 #
#669270000
b11000101 #
#669280000
b11000110 #
#669290000
b11000111 #
#669300000
b11001000 #
#669310000
b11001001 #
#669320000
b11001010 #
#669330000
b11001011 #
#669340000
b11001100 #
#669350000
b11001101 #
#669360000
b11001110 #
#669370000
b11001111 #
#669380000
b11010000 #
#669390000
b11010001 #
#669400000
b11010010 #
#669410000
b100 !
#669420000
b101 !
#669450000
b110 !
#669460000
b1 !
b0 #
b11 "
#669470000
b10 !
#669480000
b11 !
#669490000
b1 #
#669500000
b10 #
#669510000
b11 #
#669520000
b100 #
#669530000
b101 #
#669540000
b110 #
#669550000
b111 #
#669560000
b1000 #
#669570000
b1001 #
#669580000
b1010 #
#669590000
b1011 #
#669600000
b1100 #
#669610000
b1101 #
#669620000
b1110 #
#669630000
b1111 #
#669640000
b10000 #
#669650000
b10001 #
#669660000
b10010 #
#669670000
b10011 #
#669680000
b10100 #
#669690000
b10101 #
#669700000
b10110 #
#669710000
b10111 #
#669720000
b11000 #
#669730000
b11001 #
#669740000
b11010 #
#669750000
b11011 #
#669760000
b11100 #
#669770000
b11101 #
#669780000
b11110 #
#669790000
b11111 #
#669800000
b100000 #
#669810000
b100001 #
#669820000
b100010 #
#669830000
b100011 #
#669840000
b100100 #
#669850000
b100101 #
#669860000
b100110 #
#669870000
b100111 #
#669880000
b101000 #
#669890000
b101001 #
#669900000
b101010 #
#669910000
b101011 #
#669920000
b101100 #
#669930000
b101101 #
#669940000
b101110 #
#669950000
b101111 #
#669960000
b110000 #
#669970000
b110001 #
#669980000
b110010 #
#669990000
b110011 #
#670000000
b110100 #
#670010000
b110101 #
#670020000
b110110 #
#670030000
b110111 #
#670040000
b111000 #
#670050000
b111001 #
#670060000
b111010 #
#670070000
b111011 #
#670080000
b111100 #
#670090000
b111101 #
#670100000
b111110 #
#670110000
b111111 #
#670120000
b1000000 #
#670130000
b1000001 #
#670140000
b1000010 #
#670150000
b1000011 #
#670160000
b1000100 #
#670170000
b1000101 #
#670180000
b1000110 #
#670190000
b1000111 #
#670200000
b1001000 #
#670210000
b1001001 #
#670220000
b1001010 #
#670230000
b1001011 #
#670240000
b1001100 #
#670250000
b1001101 #
#670260000
b1001110 #
#670270000
b1001111 #
#670280000
b1010000 #
#670290000
b1010001 #
#670300000
b1010010 #
#670310000
b1010011 #
#670320000
b1010100 #
#670330000
b1010101 #
#670340000
b1010110 #
#670350000
b1010111 #
#670360000
b1011000 #
#670370000
b1011001 #
#670380000
b1011010 #
#670390000
b1011011 #
#670400000
b1011100 #
#670410000
b1011101 #
#670420000
b1011110 #
#670430000
b1011111 #
#670440000
b1100000 #
#670450000
b1100001 #
#670460000
b1100010 #
#670470000
b1100011 #
#670480000
b1100100 #
#670490000
b1100101 #
#670500000
b1100110 #
#670510000
b1100111 #
#670520000
b1101000 #
#670530000
b1101001 #
#670540000
b1101010 #
#670550000
b1101011 #
#670560000
b1101100 #
#670570000
b1101101 #
#670580000
b1101110 #
#670590000
b1101111 #
#670600000
b1110000 #
#670610000
b1110001 #
#670620000
b1110010 #
#670630000
b1110011 #
#670640000
b1110100 #
#670650000
b1110101 #
#670660000
b1110110 #
#670670000
b1110111 #
#670680000
b1111000 #
#670690000
b1111001 #
#670700000
b1111010 #
#670710000
b1111011 #
#670720000
b1111100 #
#670730000
b1111101 #
#670740000
b1111110 #
#670750000
b1111111 #
#670760000
b10000000 #
#670770000
b10000001 #
#670780000
b10000010 #
#670790000
b10000011 #
#670800000
b10000100 #
#670810000
b10000101 #
#670820000
b10000110 #
#670830000
b10000111 #
#670840000
b10001000 #
#670850000
b10001001 #
#670860000
b10001010 #
#670870000
b10001011 #
#670880000
b10001100 #
#670890000
b10001101 #
#670900000
b10001110 #
#670910000
b10001111 #
#670920000
b10010000 #
#670930000
b10010001 #
#670940000
b10010010 #
#670950000
b10010011 #
#670960000
b10010100 #
#670970000
b10010101 #
#670980000
b10010110 #
#670990000
b10010111 #
#671000000
b10011000 #
#671010000
b10011001 #
#671020000
b10011010 #
#671030000
b10011011 #
#671040000
b10011100 #
#671050000
b10011101 #
#671060000
b10011110 #
#671070000
b10011111 #
#671080000
b10100000 #
#671090000
b10100001 #
#671100000
b10100010 #
#671110000
b10100011 #
#671120000
b10100100 #
#671130000
b10100101 #
#671140000
b10100110 #
#671150000
b10100111 #
#671160000
b10101000 #
#671170000
b100 !
#671180000
b101 !
#671210000
b110 !
#671220000
b1 !
b0 #
b100 "
#671230000
b10 !
#671240000
b11 !
#671250000
b1 #
#671260000
b10 #
#671270000
b11 #
#671280000
b100 #
#671290000
b101 #
#671300000
b110 #
#671310000
b111 #
#671320000
b1000 #
#671330000
b1001 #
#671340000
b1010 #
#671350000
b1011 #
#671360000
b1100 #
#671370000
b1101 #
#671380000
b1110 #
#671390000
b1111 #
#671400000
b10000 #
#671410000
b10001 #
#671420000
b10010 #
#671430000
b10011 #
#671440000
b10100 #
#671450000
b10101 #
#671460000
b10110 #
#671470000
b10111 #
#671480000
b11000 #
#671490000
b11001 #
#671500000
b11010 #
#671510000
b11011 #
#671520000
b11100 #
#671530000
b11101 #
#671540000
b11110 #
#671550000
b11111 #
#671560000
b100000 #
#671570000
b100001 #
#671580000
b100010 #
#671590000
b100011 #
#671600000
b100100 #
#671610000
b100101 #
#671620000
b100110 #
#671630000
b100111 #
#671640000
b101000 #
#671650000
b101001 #
#671660000
b101010 #
#671670000
b101011 #
#671680000
b101100 #
#671690000
b101101 #
#671700000
b101110 #
#671710000
b101111 #
#671720000
b110000 #
#671730000
b110001 #
#671740000
b110010 #
#671750000
b110011 #
#671760000
b110100 #
#671770000
b110101 #
#671780000
b110110 #
#671790000
b110111 #
#671800000
b111000 #
#671810000
b111001 #
#671820000
b111010 #
#671830000
b111011 #
#671840000
b111100 #
#671850000
b111101 #
#671860000
b111110 #
#671870000
b111111 #
#671880000
b1000000 #
#671890000
b1000001 #
#671900000
b1000010 #
#671910000
b1000011 #
#671920000
b1000100 #
#671930000
b1000101 #
#671940000
b1000110 #
#671950000
b1000111 #
#671960000
b1001000 #
#671970000
b1001001 #
#671980000
b1001010 #
#671990000
b1001011 #
#672000000
b1001100 #
#672010000
b1001101 #
#672020000
b1001110 #
#672030000
b1001111 #
#672040000
b1010000 #
#672050000
b1010001 #
#672060000
b1010010 #
#672070000
b1010011 #
#672080000
b1010100 #
#672090000
b1010101 #
#672100000
b1010110 #
#672110000
b1010111 #
#672120000
b1011000 #
#672130000
b1011001 #
#672140000
b1011010 #
#672150000
b1011011 #
#672160000
b1011100 #
#672170000
b1011101 #
#672180000
b1011110 #
#672190000
b1011111 #
#672200000
b1100000 #
#672210000
b1100001 #
#672220000
b1100010 #
#672230000
b1100011 #
#672240000
b1100100 #
#672250000
b1100101 #
#672260000
b1100110 #
#672270000
b1100111 #
#672280000
b1101000 #
#672290000
b1101001 #
#672300000
b1101010 #
#672310000
b1101011 #
#672320000
b1101100 #
#672330000
b1101101 #
#672340000
b1101110 #
#672350000
b1101111 #
#672360000
b1110000 #
#672370000
b1110001 #
#672380000
b1110010 #
#672390000
b1110011 #
#672400000
b1110100 #
#672410000
b1110101 #
#672420000
b1110110 #
#672430000
b1110111 #
#672440000
b1111000 #
#672450000
b1111001 #
#672460000
b1111010 #
#672470000
b1111011 #
#672480000
b1111100 #
#672490000
b1111101 #
#672500000
b1111110 #
#672510000
b1111111 #
#672520000
b10000000 #
#672530000
b100 !
#672540000
b101 !
#672570000
b110 !
#672580000
b1 !
b0 #
b101 "
#672590000
b10 !
#672600000
b11 !
#672610000
b1 #
#672620000
b10 #
#672630000
b11 #
#672640000
b100 #
#672650000
b101 #
#672660000
b110 #
#672670000
b111 #
#672680000
b1000 #
#672690000
b1001 #
#672700000
b1010 #
#672710000
b1011 #
#672720000
b1100 #
#672730000
b1101 #
#672740000
b1110 #
#672750000
b1111 #
#672760000
b10000 #
#672770000
b10001 #
#672780000
b10010 #
#672790000
b10011 #
#672800000
b10100 #
#672810000
b10101 #
#672820000
b10110 #
#672830000
b10111 #
#672840000
b11000 #
#672850000
b11001 #
#672860000
b11010 #
#672870000
b11011 #
#672880000
b11100 #
#672890000
b11101 #
#672900000
b11110 #
#672910000
b11111 #
#672920000
b100000 #
#672930000
b100001 #
#672940000
b100010 #
#672950000
b100011 #
#672960000
b100100 #
#672970000
b100101 #
#672980000
b100110 #
#672990000
b100111 #
#673000000
b101000 #
#673010000
b101001 #
#673020000
b101010 #
#673030000
b101011 #
#673040000
b100 !
#673050000
b101 !
#673080000
b110 !
#673090000
b0 #
b110 "
b1 !
#673100000
b10 !
#673110000
b11 !
#673120000
b1 #
#673130000
b10 #
#673140000
b11 #
#673150000
b100 #
#673160000
b101 #
#673170000
b110 #
#673180000
b111 #
#673190000
b1000 #
#673200000
b1001 #
#673210000
b1010 #
#673220000
b1011 #
#673230000
b1100 #
#673240000
b1101 #
#673250000
b1110 #
#673260000
b1111 #
#673270000
b10000 #
#673280000
b10001 #
#673290000
b10010 #
#673300000
b10011 #
#673310000
b10100 #
#673320000
b10101 #
#673330000
b10110 #
#673340000
b10111 #
#673350000
b11000 #
#673360000
b11001 #
#673370000
b11010 #
#673380000
b11011 #
#673390000
b11100 #
#673400000
b11101 #
#673410000
b11110 #
#673420000
b11111 #
#673430000
b100000 #
#673440000
b100001 #
#673450000
b100010 #
#673460000
b100011 #
#673470000
b100100 #
#673480000
b100101 #
#673490000
b100110 #
#673500000
b100111 #
#673510000
b101000 #
#673520000
b101001 #
#673530000
b101010 #
#673540000
b101011 #
#673550000
b101100 #
#673560000
b101101 #
#673570000
b101110 #
#673580000
b101111 #
#673590000
b110000 #
#673600000
b110001 #
#673610000
b110010 #
#673620000
b110011 #
#673630000
b110100 #
#673640000
b110101 #
#673650000
b110110 #
#673660000
b110111 #
#673670000
b111000 #
#673680000
b111001 #
#673690000
b111010 #
#673700000
b111011 #
#673710000
b111100 #
#673720000
b111101 #
#673730000
b111110 #
#673740000
b111111 #
#673750000
b1000000 #
#673760000
b1000001 #
#673770000
b1000010 #
#673780000
b1000011 #
#673790000
b1000100 #
#673800000
b1000101 #
#673810000
b1000110 #
#673820000
b1000111 #
#673830000
b1001000 #
#673840000
b1001001 #
#673850000
b1001010 #
#673860000
b1001011 #
#673870000
b1001100 #
#673880000
b1001101 #
#673890000
b1001110 #
#673900000
b1001111 #
#673910000
b1010000 #
#673920000
b1010001 #
#673930000
b1010010 #
#673940000
b1010011 #
#673950000
b1010100 #
#673960000
b1010101 #
#673970000
b1010110 #
#673980000
b1010111 #
#673990000
b1011000 #
#674000000
b1011001 #
#674010000
b1011010 #
#674020000
b1011011 #
#674030000
b1011100 #
#674040000
b1011101 #
#674050000
b1011110 #
#674060000
b1011111 #
#674070000
b1100000 #
#674080000
b1100001 #
#674090000
b1100010 #
#674100000
b1100011 #
#674110000
b1100100 #
#674120000
b1100101 #
#674130000
b1100110 #
#674140000
b1100111 #
#674150000
b1101000 #
#674160000
b1101001 #
#674170000
b1101010 #
#674180000
b1101011 #
#674190000
b1101100 #
#674200000
b1101101 #
#674210000
b1101110 #
#674220000
b1101111 #
#674230000
b1110000 #
#674240000
b1110001 #
#674250000
b1110010 #
#674260000
b1110011 #
#674270000
b1110100 #
#674280000
b1110101 #
#674290000
b1110110 #
#674300000
b1110111 #
#674310000
b1111000 #
#674320000
b1111001 #
#674330000
b1111010 #
#674340000
b1111011 #
#674350000
b1111100 #
#674360000
b1111101 #
#674370000
b1111110 #
#674380000
b1111111 #
#674390000
b10000000 #
#674400000
b10000001 #
#674410000
b10000010 #
#674420000
b10000011 #
#674430000
b10000100 #
#674440000
b10000101 #
#674450000
b10000110 #
#674460000
b10000111 #
#674470000
b10001000 #
#674480000
b10001001 #
#674490000
b10001010 #
#674500000
b10001011 #
#674510000
b10001100 #
#674520000
b10001101 #
#674530000
b10001110 #
#674540000
b10001111 #
#674550000
b10010000 #
#674560000
b10010001 #
#674570000
b10010010 #
#674580000
b10010011 #
#674590000
b10010100 #
#674600000
b10010101 #
#674610000
b10010110 #
#674620000
b10010111 #
#674630000
b10011000 #
#674640000
b10011001 #
#674650000
b10011010 #
#674660000
b10011011 #
#674670000
b10011100 #
#674680000
b10011101 #
#674690000
b10011110 #
#674700000
b10011111 #
#674710000
b10100000 #
#674720000
b10100001 #
#674730000
b10100010 #
#674740000
b10100011 #
#674750000
b10100100 #
#674760000
b10100101 #
#674770000
b10100110 #
#674780000
b10100111 #
#674790000
b10101000 #
#674800000
b10101001 #
#674810000
b10101010 #
#674820000
b10101011 #
#674830000
b10101100 #
#674840000
b10101101 #
#674850000
b10101110 #
#674860000
b10101111 #
#674870000
b10110000 #
#674880000
b10110001 #
#674890000
b10110010 #
#674900000
b10110011 #
#674910000
b10110100 #
#674920000
b10110101 #
#674930000
b10110110 #
#674940000
b10110111 #
#674950000
b10111000 #
#674960000
b10111001 #
#674970000
b10111010 #
#674980000
b10111011 #
#674990000
b10111100 #
#675000000
b10111101 #
#675010000
b10111110 #
#675020000
b10111111 #
#675030000
b11000000 #
#675040000
b11000001 #
#675050000
b11000010 #
#675060000
b11000011 #
#675070000
b11000100 #
#675080000
b11000101 #
#675090000
b11000110 #
#675100000
b11000111 #
#675110000
b11001000 #
#675120000
b11001001 #
#675130000
b11001010 #
#675140000
b11001011 #
#675150000
b11001100 #
#675160000
b11001101 #
#675170000
b11001110 #
#675180000
b11001111 #
#675190000
b11010000 #
#675200000
b11010001 #
#675210000
b11010010 #
#675220000
b11010011 #
#675230000
b11010100 #
#675240000
b11010101 #
#675250000
b11010110 #
#675260000
b11010111 #
#675270000
b11011000 #
#675280000
b11011001 #
#675290000
b11011010 #
#675300000
b11011011 #
#675310000
b11011100 #
#675320000
b11011101 #
#675330000
b11011110 #
#675340000
b11011111 #
#675350000
b11100000 #
#675360000
b11100001 #
#675370000
b11100010 #
#675380000
b11100011 #
#675390000
b11100100 #
#675400000
b11100101 #
#675410000
b11100110 #
#675420000
b11100111 #
#675430000
b11101000 #
#675440000
b11101001 #
#675450000
b11101010 #
#675460000
b11101011 #
#675470000
b11101100 #
#675480000
b11101101 #
#675490000
b11101110 #
#675500000
b11101111 #
#675510000
b11110000 #
#675520000
b11110001 #
#675530000
b11110010 #
#675540000
b11110011 #
#675550000
b11110100 #
#675560000
b11110101 #
#675570000
b11110110 #
#675580000
b11110111 #
#675590000
b11111000 #
#675600000
b11111001 #
#675610000
b11111010 #
#675620000
b11111011 #
#675630000
b11111100 #
#675640000
b11111101 #
#675650000
b11111110 #
#675660000
b11111111 #
#675670000
b100000000 #
#675680000
b100000001 #
#675690000
b100000010 #
#675700000
b100000011 #
#675710000
b100000100 #
#675720000
b100000101 #
#675730000
b100000110 #
#675740000
b100000111 #
#675750000
b100001000 #
#675760000
b100001001 #
#675770000
b100001010 #
#675780000
b100001011 #
#675790000
b100001100 #
#675800000
b100001101 #
#675810000
b100001110 #
#675820000
b100001111 #
#675830000
b100010000 #
#675840000
b100010001 #
#675850000
b100010010 #
#675860000
b100010011 #
