test/pe_sim/sim_build/pe_dump.vcd
$date
	Mon Jun 22 14:33:08 2026
$end
$version
	Icarus Verilog
$end
$timescale
	1ps
$end
$scope module tb_pe_top $end
$scope module u_pe $end
$var reg 4 ! state [3:0] $end
$upscope $end
$upscope $end
$scope module tb_pe_top $end
$scope module u_pe $end
$var reg 8 " row_idx [7:0] $end
$upscope $end
$upscope $end
$scope module tb_pe_top $end
$scope module u_pe $end
$var reg 16 # a_nnz_left [15:0] $end
$upscope $end
$upscope $end
$scope module tb_pe_top $end
$scope module u_pe $end
$var reg 16 $ b_nnz_left [15:0] $end
$upscope $end
$upscope $end
$scope module tb_pe_top $end
$scope module u_pe $end
$var wire 1 % cbuf_wr_valid $end
$upscope $end
$upscope $end
$scope module tb_pe_top $end
$scope module u_pe $end
$var reg 1 & done $end
$upscope $end
$upscope $end
$enddefinitions $end
$comment Show the parameter values. $end
$dumpall
$end
#0
$dumpvars
0&
0%
b0 $
b0 #
b0 "
b0 !
$end
#286930000
b1 !
#286940000
b100001 #
#286950000
b10 !
#286960000
b11 !
#286980000
b100 !
#286990000
b10011 $
#287000000
b101 !
#287010000
b10010 $
#287020000
b10001 $
#287030000
b10000 $
#287040000
b1111 $
#287050000
b1110 $
#287060000
b1101 $
#287070000
b1100 $
#287080000
b1011 $
#287090000
b1010 $
#287100000
b1001 $
#287110000
b1000 $
#287120000
b111 $
#287130000
b110 $
#287140000
b101 $
#287150000
b100 $
#287160000
b11 $
#287170000
b10 $
#287180000
b1 $
#287190000
b0 $
#287200000
b110 !
b100000 #
#287220000
b101 !
b10110 $
#287230000
b10101 $
#287240000
b10100 $
#287250000
b10011 $
#287260000
b10010 $
#287270000
b10001 $
#287280000
b10000 $
#287290000
b1111 $
#287300000
b1110 $
#287310000
b1101 $
#287320000
b1100 $
#287330000
b1011 $
#287340000
b1010 $
#287350000
b1001 $
#287360000
b1000 $
#287370000
b111 $
#287380000
b110 $
#287390000
b101 $
#287400000
b100 $
#287410000
b11 $
#287420000
b10 $
#287430000
b1 $
#287440000
b0 $
#287450000
b11111 #
b110 !
#287470000
b10010 $
b101 !
#287480000
b10001 $
#287490000
b10000 $
#287500000
b1111 $
#287510000
b1110 $
#287520000
b1101 $
#287530000
b1100 $
#287540000
b1011 $
#287550000
b1010 $
#287560000
b1001 $
#287570000
b1000 $
#287580000
b111 $
#287590000
b110 $
#287600000
b101 $
#287610000
b100 $
#287620000
b11 $
#287630000
b10 $
#287640000
b1 $
#287650000
b0 $
#287660000
b110 !
b11110 #
#287680000
b101 !
b10010 $
#287690000
b10001 $
#287700000
b10000 $
#287710000
b1111 $
#287720000
b1110 $
#287730000
b1101 $
#287740000
b1100 $
#287750000
b1011 $
#287760000
b1010 $
#287770000
b1001 $
#287780000
b1000 $
#287790000
b111 $
#287800000
b110 $
#287810000
b101 $
#287820000
b100 $
#287830000
b11 $
#287840000
b10 $
#287850000
b1 $
#287860000
b0 $
#287870000
b11101 #
b110 !
#287890000
b10011 $
b101 !
#287900000
b10010 $
#287910000
b10001 $
#287920000
b10000 $
#287930000
b1111 $
#287940000
b1110 $
#287950000
b1101 $
#287960000
b1100 $
#287970000
b1011 $
#287980000
b1010 $
#287990000
b1001 $
#288000000
b1000 $
#288010000
b111 $
#288020000
b110 $
#288030000
b101 $
#288040000
b100 $
#288050000
b11 $
#288060000
b10 $
#288070000
b1 $
#288080000
b0 $
#288090000
b11100 #
b110 !
#288110000
b10111 $
b101 !
#288120000
b10110 $
#288130000
b10101 $
#288140000
b10100 $
#288150000
b10011 $
#288160000
b10010 $
#288170000
b10001 $
#288180000
b10000 $
#288190000
b1111 $
#288200000
b1110 $
#288210000
b1101 $
#288220000
b1100 $
#288230000
b1011 $
#288240000
b1010 $
#288250000
b1001 $
#288260000
b1000 $
#288270000
b111 $
#288280000
b110 $
#288290000
b101 $
#288300000
b100 $
#288310000
b11 $
#288320000
b10 $
#288330000
b1 $
#288340000
b0 $
#288350000
b11011 #
b110 !
#288370000
b1111 $
b101 !
#288380000
b1110 $
#288390000
b1101 $
#288400000
b1100 $
#288410000
b1011 $
#288420000
b1010 $
#288430000
b1001 $
#288440000
b1000 $
#288450000
b111 $
#288460000
b110 $
#288470000
b101 $
#288480000
b100 $
#288490000
b11 $
#288500000
b10 $
#288510000
b1 $
#288520000
b0 $
#288530000
b11010 #
b110 !
#288550000
b1011 $
b101 !
#288560000
b1010 $
#288570000
b1001 $
#288580000
b1000 $
#288590000
b111 $
#288600000
b110 $
#288610000
b101 $
#288620000
b100 $
#288630000
b11 $
#288640000
b10 $
#288650000
b1 $
#288660000
b0 $
#288670000
b11001 #
b110 !
#288690000
b11001 $
b101 !
#288700000
b11000 $
#288710000
b10111 $
#288720000
b10110 $
#288730000
b10101 $
#288740000
b10100 $
#288750000
b10011 $
#288760000
b10010 $
#288770000
b10001 $
#288780000
b10000 $
#288790000
b1111 $
#288800000
b1110 $
#288810000
b1101 $
#288820000
b1100 $
#288830000
b1011 $
#288840000
b1010 $
#288850000
b1001 $
#288860000
b1000 $
#288870000
b111 $
#288880000
b110 $
#288890000
b101 $
#288900000
b100 $
#288910000
b11 $
#288920000
b10 $
#288930000
b1 $
#288940000
b0 $
#288950000
b11000 #
b110 !
#288970000
b1110 $
b101 !
#288980000
b1101 $
#288990000
b1100 $
#289000000
b1011 $
#289010000
b1010 $
#289020000
b1001 $
#289030000
b1000 $
#289040000
b111 $
#289050000
b110 $
#289060000
b101 $
#289070000
b100 $
#289080000
b11 $
#289090000
b10 $
#289100000
b1 $
#289110000
b0 $
#289120000
b110 !
b10111 #
#289140000
b101 !
b1110 $
#289150000
b1101 $
#289160000
b1100 $
#289170000
b1011 $
#289180000
b1010 $
#289190000
b1001 $
#289200000
b1000 $
#289210000
b111 $
#289220000
b110 $
#289230000
b101 $
#289240000
b100 $
#289250000
b11 $
#289260000
b10 $
#289270000
b1 $
#289280000
b0 $
#289290000
b10110 #
b110 !
#289310000
b10010 $
b101 !
#289320000
b10001 $
#289330000
b10000 $
#289340000
b1111 $
#289350000
b1110 $
#289360000
b1101 $
#289370000
b1100 $
#289380000
b1011 $
#289390000
b1010 $
#289400000
b1001 $
#289410000
b1000 $
#289420000
b111 $
#289430000
b110 $
#289440000
b101 $
#289450000
b100 $
#289460000
b11 $
#289470000
b10 $
#289480000
b1 $
#289490000
b0 $
#289500000
b110 !
b10101 #
#289520000
b101 !
b10010 $
#289530000
b10001 $
#289540000
b10000 $
#289550000
b1111 $
#289560000
b1110 $
#289570000
b1101 $
#289580000
b1100 $
#289590000
b1011 $
#289600000
b1010 $
#289610000
b1001 $
#289620000
b1000 $
#289630000
b111 $
#289640000
b110 $
#289650000
b101 $
#289660000
b100 $
#289670000
b11 $
#289680000
b10 $
#289690000
b1 $
#289700000
b0 $
#289710000
b10100 #
b110 !
#289730000
b10011 $
b101 !
#289740000
b10010 $
#289750000
b10001 $
#289760000
b10000 $
#289770000
b1111 $
#289780000
b1110 $
#289790000
b1101 $
#289800000
b1100 $
#289810000
b1011 $
#289820000
b1010 $
#289830000
b1001 $
#289840000
b1000 $
#289850000
b111 $
#289860000
b110 $
#289870000
b101 $
#289880000
b100 $
#289890000
b11 $
#289900000
b10 $
#289910000
b1 $
#289920000
b0 $
#289930000
b10011 #
b110 !
#289950000
b11010 $
b101 !
#289960000
b11001 $
#289970000
b11000 $
#289980000
b10111 $
#289990000
b10110 $
#290000000
b10101 $
#290010000
b10100 $
#290020000
b10011 $
#290030000
b10010 $
#290040000
b10001 $
#290050000
b10000 $
#290060000
b1111 $
#290070000
b1110 $
#290080000
b1101 $
#290090000
b1100 $
#290100000
b1011 $
#290110000
b1010 $
#290120000
b1001 $
#290130000
b1000 $
#290140000
b111 $
#290150000
b110 $
#290160000
b101 $
#290170000
b100 $
#290180000
b11 $
#290190000
b10 $
#290200000
b1 $
#290210000
b0 $
#290220000
b110 !
b10010 #
#290240000
b101 !
b10010 $
#290250000
b10001 $
#290260000
b10000 $
#290270000
b1111 $
#290280000
b1110 $
#290290000
b1101 $
#290300000
b1100 $
#290310000
b1011 $
#290320000
b1010 $
#290330000
b1001 $
#290340000
b1000 $
#290350000
b111 $
#290360000
b110 $
#290370000
b101 $
#290380000
b100 $
#290390000
b11 $
#290400000
b10 $
#290410000
b1 $
#290420000
b0 $
#290430000
b10001 #
b110 !
#290450000
b11111 $
b101 !
#290460000
b11110 $
#290470000
b11101 $
#290480000
b11100 $
#290490000
b11011 $
#290500000
b11010 $
#290510000
b11001 $
#290520000
b11000 $
#290530000
b10111 $
#290540000
b10110 $
#290550000
b10101 $
#290560000
b10100 $
#290570000
b10011 $
#290580000
b10010 $
#290590000
b10001 $
#290600000
b10000 $
#290610000
b1111 $
#290620000
b1110 $
#290630000
b1101 $
#290640000
b1100 $
#290650000
b1011 $
#290660000
b1010 $
#290670000
b1001 $
#290680000
b1000 $
#290690000
b111 $
#290700000
b110 $
#290710000
b101 $
#290720000
b100 $
#290730000
b11 $
#290740000
b10 $
#290750000
b1 $
#290760000
b0 $
#290770000
b10000 #
b110 !
#290790000
b10001 $
b101 !
#290800000
b10000 $
#290810000
b1111 $
#290820000
b1110 $
#290830000
b1101 $
#290840000
b1100 $
#290850000
b1011 $
#290860000
b1010 $
#290870000
b1001 $
#290880000
b1000 $
#290890000
b111 $
#290900000
b110 $
#290910000
b101 $
#290920000
b100 $
#290930000
b11 $
#290940000
b10 $
#290950000
b1 $
#290960000
b0 $
#290970000
b1111 #
b110 !
#290990000
b10010 $
b101 !
#291000000
b10001 $
#291010000
b10000 $
#291020000
b1111 $
#291030000
b1110 $
#291040000
b1101 $
#291050000
b1100 $
#291060000
b1011 $
#291070000
b1010 $
#291080000
b1001 $
#291090000
b1000 $
#291100000
b111 $
#291110000
b110 $
#291120000
b101 $
#291130000
b100 $
#291140000
b11 $
#291150000
b10 $
#291160000
b1 $
#291170000
b0 $
#291180000
b110 !
b1110 #
#291200000
b101 !
b10101 $
#291210000
b10100 $
#291220000
b10011 $
#291230000
b10010 $
#291240000
b10001 $
#291250000
b10000 $
#291260000
b1111 $
#291270000
b1110 $
#291280000
b1101 $
#291290000
b1100 $
#291300000
b1011 $
#291310000
b1010 $
#291320000
b1001 $
#291330000
b1000 $
#291340000
b111 $
#291350000
b110 $
#291360000
b101 $
#291370000
b100 $
#291380000
b11 $
#291390000
b10 $
#291400000
b1 $
#291410000
b0 $
#291420000
b110 !
b1101 #
#291440000
b101 !
b10100 $
#291450000
b10011 $
#291460000
b10010 $
#291470000
b10001 $
#291480000
b10000 $
#291490000
b1111 $
#291500000
b1110 $
#291510000
b1101 $
#291520000
b1100 $
#291530000
b1011 $
#291540000
b1010 $
#291550000
b1001 $
#291560000
b1000 $
#291570000
b111 $
#291580000
b110 $
#291590000
b101 $
#291600000
b100 $
#291610000
b11 $
#291620000
b10 $
#291630000
b1 $
#291640000
b0 $
#291650000
b1100 #
b110 !
#291670000
b10101 $
b101 !
#291680000
b10100 $
#291690000
b10011 $
#291700000
b10010 $
#291710000
b10001 $
#291720000
b10000 $
#291730000
b1111 $
#291740000
b1110 $
#291750000
b1101 $
#291760000
b1100 $
#291770000
b1011 $
#291780000
b1010 $
#291790000
b1001 $
#291800000
b1000 $
#291810000
b111 $
#291820000
b110 $
#291830000
b101 $
#291840000
b100 $
#291850000
b11 $
#291860000
b10 $
#291870000
b1 $
#291880000
b0 $
#291890000
b1011 #
b110 !
#291910000
b10110 $
b101 !
#291920000
b10101 $
#291930000
b10100 $
#291940000
b10011 $
#291950000
b10010 $
#291960000
b10001 $
#291970000
b10000 $
#291980000
b1111 $
#291990000
b1110 $
#292000000
b1101 $
#292010000
b1100 $
#292020000
b1011 $
#292030000
b1010 $
#292040000
b1001 $
#292050000
b1000 $
#292060000
b111 $
#292070000
b110 $
#292080000
b101 $
#292090000
b100 $
#292100000
b11 $
#292110000
b10 $
#292120000
b1 $
#292130000
b0 $
#292140000
b110 !
b1010 #
#292160000
b101 !
b10110 $
#292170000
b10101 $
#292180000
b10100 $
#292190000
b10011 $
#292200000
b10010 $
#292210000
b10001 $
#292220000
b10000 $
#292230000
b1111 $
#292240000
b1110 $
#292250000
b1101 $
#292260000
b1100 $
#292270000
b1011 $
#292280000
b1010 $
#292290000
b1001 $
#292300000
b1000 $
#292310000
b111 $
#292320000
b110 $
#292330000
b101 $
#292340000
b100 $
#292350000
b11 $
#292360000
b10 $
#292370000
b1 $
#292380000
b0 $
#292390000
b1001 #
b110 !
#292410000
b10101 $
b101 !
#292420000
b10100 $
#292430000
b10011 $
#292440000
b10010 $
#292450000
b10001 $
#292460000
b10000 $
#292470000
b1111 $
#292480000
b1110 $
#292490000
b1101 $
#292500000
b1100 $
#292510000
b1011 $
#292520000
b1010 $
#292530000
b1001 $
#292540000
b1000 $
#292550000
b111 $
#292560000
b110 $
#292570000
b101 $
#292580000
b100 $
#292590000
b11 $
#292600000
b10 $
#292610000
b1 $
#292620000
b0 $
#292630000
b1000 #
b110 !
#292650000
b10110 $
b101 !
#292660000
b10101 $
#292670000
b10100 $
#292680000
b10011 $
#292690000
b10010 $
#292700000
b10001 $
#292710000
b10000 $
#292720000
b1111 $
#292730000
b1110 $
#292740000
b1101 $
#292750000
b1100 $
#292760000
b1011 $
#292770000
b1010 $
#292780000
b1001 $
#292790000
b1000 $
#292800000
b111 $
#292810000
b110 $
#292820000
b101 $
#292830000
b100 $
#292840000
b11 $
#292850000
b10 $
#292860000
b1 $
#292870000
b0 $
#292880000
b110 !
b111 #
#292900000
b101 !
b10010 $
#292910000
b10001 $
#292920000
b10000 $
#292930000
b1111 $
#292940000
b1110 $
#292950000
b1101 $
#292960000
b1100 $
#292970000
b1011 $
#292980000
b1010 $
#292990000
b1001 $
#293000000
b1000 $
#293010000
b111 $
#293020000
b110 $
#293030000
b101 $
#293040000
b100 $
#293050000
b11 $
#293060000
b10 $
#293070000
b1 $
#293080000
b0 $
#293090000
b110 #
b110 !
#293110000
b10000 $
b101 !
#293120000
b1111 $
#293130000
b1110 $
#293140000
b1101 $
#293150000
b1100 $
#293160000
b1011 $
#293170000
b1010 $
#293180000
b1001 $
#293190000
b1000 $
#293200000
b111 $
#293210000
b110 $
#293220000
b101 $
#293230000
b100 $
#293240000
b11 $
#293250000
b10 $
#293260000
b1 $
#293270000
b0 $
#293280000
b110 !
b101 #
#293300000
b101 !
b10010 $
#293310000
b10001 $
#293320000
b10000 $
#293330000
b1111 $
#293340000
b1110 $
#293350000
b1101 $
#293360000
b1100 $
#293370000
b1011 $
#293380000
b1010 $
#293390000
b1001 $
#293400000
b1000 $
#293410000
b111 $
#293420000
b110 $
#293430000
b101 $
#293440000
b100 $
#293450000
b11 $
#293460000
b10 $
#293470000
b1 $
#293480000
b0 $
#293490000
b100 #
b110 !
#293510000
b11011 $
b101 !
#293520000
b11010 $
#293530000
b11001 $
#293540000
b11000 $
#293550000
b10111 $
#293560000
b10110 $
#293570000
b10101 $
#293580000
b10100 $
#293590000
b10011 $
#293600000
b10010 $
#293610000
b10001 $
#293620000
b10000 $
#293630000
b1111 $
#293640000
b1110 $
#293650000
b1101 $
#293660000
b1100 $
#293670000
b1011 $
#293680000
b1010 $
#293690000
b1001 $
#293700000
b1000 $
#293710000
b111 $
#293720000
b110 $
#293730000
b101 $
#293740000
b100 $
#293750000
b11 $
#293760000
b10 $
#293770000
b1 $
#293780000
b0 $
#293790000
b11 #
b110 !
#293810000
b10010 $
b101 !
#293820000
b10001 $
#293830000
b10000 $
#293840000
b1111 $
#293850000
b1110 $
#293860000
b1101 $
#293870000
b1100 $
#293880000
b1011 $
#293890000
b1010 $
#293900000
b1001 $
#293910000
b1000 $
#293920000
b111 $
#293930000
b110 $
#293940000
b101 $
#293950000
b100 $
#293960000
b11 $
#293970000
b10 $
#293980000
b1 $
#293990000
b0 $
#294000000
b110 !
b10 #
#294020000
b101 !
b10001 $
#294030000
b10000 $
#294040000
b1111 $
#294050000
b1110 $
#294060000
b1101 $
#294070000
b1100 $
#294080000
b1011 $
#294090000
b1010 $
#294100000
b1001 $
#294110000
b1000 $
#294120000
b111 $
#294130000
b110 $
#294140000
b101 $
#294150000
b100 $
#294160000
b11 $
#294170000
b10 $
#294180000
b1 $
#294190000
b0 $
#294200000
b110 !
b1 #
#294220000
b101 !
b10001 $
#294230000
b10000 $
#294240000
b1111 $
#294250000
b1110 $
#294260000
b1101 $
#294270000
b1100 $
#294280000
b1011 $
#294290000
b1010 $
#294300000
b1001 $
#294310000
b1000 $
#294320000
b111 $
#294330000
b110 $
#294340000
b101 $
#294350000
b100 $
#294360000
b11 $
#294370000
b10 $
#294380000
b1 $
#294390000
b0 $
#294400000
b110 !
b0 #
#294420000
b111 !
#294440000
b1000 !
#294470000
b1010 !
#294480000
b1 "
#294490000
b1 !
#294500000
b101100 #
#294510000
b10 !
#294520000
b11 !
#294540000
b100 !
#294550000
b10000 $
#294560000
b101 !
#294570000
1%
b1111 $
#294580000
0%
b1110 $
#294590000
1%
b1101 $
#294600000
0%
b1100 $
#294610000
1%
b1011 $
#294620000
0%
b1010 $
#294630000
b1001 $
#294640000
1%
b1000 $
#294650000
0%
b111 $
#294660000
1%
b110 $
#294670000
0%
b101 $
#294680000
1%
b100 $
#294690000
0%
b11 $
#294700000
1%
b10 $
#294710000
0%
b1 $
#294720000
1%
b0 $
#294730000
0%
b101011 #
b110 !
#294740000
1%
#294750000
0%
b10000 $
b101 !
#294760000
1%
b1111 $
#294770000
0%
b1110 $
#294780000
1%
b1101 $
#294790000
0%
b1100 $
#294800000
1%
b1011 $
#294810000
0%
b1010 $
#294820000
1%
b1001 $
#294830000
0%
b1000 $
#294840000
1%
b111 $
#294850000
0%
b110 $
#294860000
1%
b101 $
#294870000
0%
b100 $
#294880000
1%
b11 $
#294890000
0%
b10 $
#294900000
1%
b1 $
#294910000
0%
b0 $
#294920000
1%
b110 !
b101010 #
#294930000
0%
#294940000
1%
b101 !
b1101 $
#294950000
0%
b1100 $
#294960000
1%
b1011 $
#294970000
0%
b1010 $
#294980000
1%
b1001 $
#294990000
0%
b1000 $
#295000000
1%
b111 $
#295010000
0%
b110 $
#295020000
1%
b101 $
#295030000
0%
b100 $
#295040000
1%
b11 $
#295050000
0%
b10 $
#295060000
1%
b1 $
#295070000
0%
b0 $
#295080000
1%
b110 !
b101001 #
#295090000
0%
#295100000
1%
b101 !
b10110 $
#295110000
0%
b10101 $
#295120000
1%
b10100 $
#295130000
0%
b10011 $
#295140000
1%
b10010 $
#295150000
0%
b10001 $
#295160000
1%
b10000 $
#295170000
0%
b1111 $
#295180000
1%
b1110 $
#295190000
0%
b1101 $
#295200000
1%
b1100 $
#295210000
0%
b1011 $
#295220000
1%
b1010 $
#295230000
0%
b1001 $
#295240000
1%
b1000 $
#295250000
0%
b111 $
#295260000
1%
b110 $
#295270000
0%
b101 $
#295280000
1%
b100 $
#295290000
0%
b11 $
#295300000
b10 $
#295310000
1%
b1 $
#295320000
0%
b0 $
#295330000
1%
b101000 #
b110 !
#295340000
0%
#295350000
1%
b1111 $
b101 !
#295360000
0%
b1110 $
#295370000
1%
b1101 $
#295380000
0%
b1100 $
#295390000
1%
b1011 $
#295400000
0%
b1010 $
#295410000
1%
b1001 $
#295420000
0%
b1000 $
#295430000
1%
b111 $
#295440000
0%
b110 $
#295450000
1%
b101 $
#295460000
0%
b100 $
#295470000
1%
b11 $
#295480000
0%
b10 $
#295490000
1%
b1 $
#295500000
0%
b0 $
#295510000
1%
b100111 #
b110 !
#295520000
0%
#295530000
1%
b10011 $
b101 !
#295540000
0%
b10010 $
#295550000
1%
b10001 $
#295560000
0%
b10000 $
#295570000
b1111 $
#295580000
b1110 $
#295590000
1%
b1101 $
#295600000
0%
b1100 $
#295610000
1%
b1011 $
#295620000
0%
b1010 $
#295630000
1%
b1001 $
#295640000
0%
b1000 $
#295650000
1%
b111 $
#295660000
0%
b110 $
#295670000
1%
b101 $
#295680000
0%
b100 $
#295690000
1%
b11 $
#295700000
0%
b10 $
#295710000
1%
b1 $
#295720000
0%
b0 $
#295730000
b100110 #
b110 !
#295740000
1%
#295750000
0%
b10110 $
b101 !
#295760000
1%
b10101 $
#295770000
0%
b10100 $
#295780000
1%
b10011 $
#295790000
0%
b10010 $
#295800000
1%
b10001 $
#295810000
0%
b10000 $
#295820000
1%
b1111 $
#295830000
0%
b1110 $
#295840000
1%
b1101 $
#295850000
0%
b1100 $
#295860000
1%
b1011 $
#295870000
0%
b1010 $
#295880000
1%
b1001 $
#295890000
0%
b1000 $
#295900000
1%
b111 $
#295910000
0%
b110 $
#295920000
1%
b101 $
#295930000
0%
b100 $
#295940000
1%
b11 $
#295950000
0%
b10 $
#295960000
1%
b1 $
#295970000
0%
b0 $
#295980000
1%
b110 !
b100101 #
#295990000
0%
#296000000
b101 !
b10010 $
#296010000
1%
b10001 $
#296020000
0%
b10000 $
#296030000
1%
b1111 $
#296040000
0%
b1110 $
#296050000
1%
b1101 $
#296060000
0%
b1100 $
#296070000
1%
b1011 $
#296080000
0%
b1010 $
#296090000
1%
b1001 $
#296100000
0%
b1000 $
#296110000
1%
b111 $
#296120000
0%
b110 $
#296130000
1%
b101 $
#296140000
0%
b100 $
#296150000
1%
b11 $
#296160000
0%
b10 $
#296170000
1%
b1 $
#296180000
0%
b0 $
#296190000
1%
b100100 #
b110 !
#296200000
0%
#296210000
1%
b10101 $
b101 !
#296220000
0%
b10100 $
#296230000
1%
b10011 $
#296240000
0%
b10010 $
#296250000
1%
b10001 $
#296260000
0%
b10000 $
#296270000
1%
b1111 $
#296280000
0%
b1110 $
#296290000
1%
b1101 $
#296300000
0%
b1100 $
#296310000
1%
b1011 $
#296320000
0%
b1010 $
#296330000
1%
b1001 $
#296340000
0%
b1000 $
#296350000
1%
b111 $
#296360000
0%
b110 $
#296370000
1%
b101 $
#296380000
0%
b100 $
#296390000
1%
b11 $
#296400000
0%
b10 $
#296410000
1%
b1 $
#296420000
0%
b0 $
#296430000
1%
b100011 #
b110 !
#296440000
0%
#296450000
1%
b10010 $
b101 !
#296460000
0%
b10001 $
#296470000
1%
b10000 $
#296480000
0%
b1111 $
#296490000
1%
b1110 $
#296500000
0%
b1101 $
#296510000
1%
b1100 $
#296520000
0%
b1011 $
#296530000
1%
b1010 $
#296540000
0%
b1001 $
#296550000
1%
b1000 $
#296560000
0%
b111 $
#296570000
1%
b110 $
#296580000
0%
b101 $
#296590000
1%
b100 $
#296600000
0%
b11 $
#296610000
1%
b10 $
#296620000
0%
b1 $
#296630000
1%
b0 $
#296640000
0%
b110 !
b100010 #
#296650000
1%
#296660000
0%
b101 !
b10011 $
#296670000
1%
b10010 $
#296680000
0%
b10001 $
#296690000
1%
b10000 $
#296700000
0%
b1111 $
#296710000
1%
b1110 $
#296720000
0%
b1101 $
#296730000
1%
b1100 $
#296740000
0%
b1011 $
#296750000
1%
b1010 $
#296760000
0%
b1001 $
#296770000
1%
b1000 $
#296780000
0%
b111 $
#296790000
1%
b110 $
#296800000
0%
b101 $
#296810000
1%
b100 $
#296820000
0%
b11 $
#296830000
1%
b10 $
#296840000
0%
b1 $
#296850000
1%
b0 $
#296860000
0%
b110 !
b100001 #
#296870000
1%
#296880000
0%
b101 !
b10111 $
#296890000
1%
b10110 $
#296900000
0%
b10101 $
#296910000
1%
b10100 $
#296920000
0%
b10011 $
#296930000
b10010 $
#296940000
b10001 $
#296950000
b10000 $
#296960000
b1111 $
#296970000
b1110 $
#296980000
b1101 $
#296990000
b1100 $
#297000000
b1011 $
#297010000
b1010 $
#297020000
b1001 $
#297030000
b1000 $
#297040000
b111 $
#297050000
b110 $
#297060000
b101 $
#297070000
b100 $
#297080000
b11 $
#297090000
b10 $
#297100000
b1 $
#297110000
b0 $
#297120000
b110 !
b100000 #
#297140000
b101 !
b10010 $
#297150000
b10001 $
#297160000
b10000 $
#297170000
b1111 $
#297180000
b1110 $
#297190000
b1101 $
#297200000
b1100 $
#297210000
b1011 $
#297220000
b1010 $
#297230000
b1001 $
#297240000
b1000 $
#297250000
b111 $
#297260000
b110 $
#297270000
b101 $
#297280000
b100 $
#297290000
b11 $
#297300000
b10 $
#297310000
b1 $
#297320000
b0 $
#297330000
b11111 #
b110 !
#297350000
b10010 $
b101 !
#297360000
b10001 $
#297370000
b10000 $
#297380000
b1111 $
#297390000
b1110 $
#297400000
b1101 $
#297410000
b1100 $
#297420000
b1011 $
#297430000
b1010 $
#297440000
b1001 $
#297450000
b1000 $
#297460000
b111 $
#297470000
b110 $
#297480000
b101 $
#297490000
b100 $
#297500000
b11 $
#297510000
b10 $
#297520000
b1 $
#297530000
b0 $
#297540000
b110 !
b11110 #
#297560000
b101 !
b1111 $
#297570000
b1110 $
#297580000
b1101 $
#297590000
b1100 $
#297600000
b1011 $
#297610000
b1010 $
#297620000
b1001 $
#297630000
b1000 $
#297640000
b111 $
#297650000
b110 $
#297660000
b101 $
#297670000
b100 $
#297680000
b11 $
#297690000
b10 $
#297700000
b1 $
#297710000
b0 $
#297720000
b110 !
b11101 #
#297740000
b101 !
b10001 $
#297750000
b10000 $
#297760000
b1111 $
#297770000
b1110 $
#297780000
b1101 $
#297790000
b1100 $
#297800000
b1011 $
#297810000
b1010 $
#297820000
b1001 $
#297830000
b1000 $
#297840000
b111 $
#297850000
b110 $
#297860000
b101 $
#297870000
b100 $
#297880000
b11 $
#297890000
b10 $
#297900000
b1 $
#297910000
b0 $
#297920000
b110 !
b11100 #
#297940000
b101 !
b11001 $
#297950000
b11000 $
#297960000
b10111 $
#297970000
b10110 $
#297980000
b10101 $
#297990000
b10100 $
#298000000
b10011 $
#298010000
b10010 $
#298020000
b10001 $
#298030000
b10000 $
#298040000
b1111 $
#298050000
b1110 $
#298060000
b1101 $
#298070000
b1100 $
#298080000
b1011 $
#298090000
b1010 $
#298100000
b1001 $
#298110000
b1000 $
#298120000
b111 $
#298130000
b110 $
#298140000
b101 $
#298150000
b100 $
#298160000
b11 $
#298170000
b10 $
#298180000
b1 $
#298190000
b0 $
#298200000
b110 !
b11011 #
#298220000
b101 !
b10011 $
#298230000
b10010 $
#298240000
b10001 $
#298250000
b10000 $
#298260000
b1111 $
#298270000
b1110 $
#298280000
b1101 $
#298290000
b1100 $
#298300000
b1011 $
#298310000
b1010 $
#298320000
b1001 $
#298330000
b1000 $
#298340000
b111 $
#298350000
b110 $
#298360000
b101 $
#298370000
b100 $
#298380000
b11 $
#298390000
b10 $
#298400000
b1 $
#298410000
b0 $
#298420000
b110 !
b11010 #
#298440000
b101 !
b10001 $
#298450000
b10000 $
#298460000
b1111 $
#298470000
b1110 $
#298480000
b1101 $
#298490000
b1100 $
#298500000
b1011 $
#298510000
b1010 $
#298520000
b1001 $
#298530000
b1000 $
#298540000
b111 $
#298550000
b110 $
#298560000
b101 $
#298570000
b100 $
#298580000
b11 $
#298590000
b10 $
#298600000
b1 $
#298610000
b0 $
#298620000
b110 !
b11001 #
#298640000
b101 !
b10011 $
#298650000
b10010 $
#298660000
b10001 $
#298670000
b10000 $
#298680000
b1111 $
#298690000
b1110 $
#298700000
b1101 $
#298710000
b1100 $
#298720000
b1011 $
#298730000
b1010 $
#298740000
b1001 $
#298750000
b1000 $
#298760000
b111 $
#298770000
b110 $
#298780000
b101 $
#298790000
b100 $
#298800000
b11 $
#298810000
b10 $
#298820000
b1 $
#298830000
b0 $
#298840000
b110 !
b11000 #
#298860000
b101 !
b1111 $
#298870000
b1110 $
#298880000
b1101 $
#298890000
b1100 $
#298900000
b1011 $
#298910000
b1010 $
#298920000
b1001 $
#298930000
b1000 $
#298940000
b111 $
#298950000
b110 $
#298960000
b101 $
#298970000
b100 $
#298980000
b11 $
#298990000
b10 $
#299000000
b1 $
#299010000
b0 $
#299020000
b110 !
b10111 #
#299040000
b101 !
b1110 $
#299050000
b1101 $
#299060000
b1100 $
#299070000
b1011 $
#299080000
b1010 $
#299090000
b1001 $
#299100000
b1000 $
#299110000
b111 $
#299120000
b110 $
#299130000
b101 $
#299140000
b100 $
#299150000
b11 $
#299160000
b10 $
#299170000
b1 $
#299180000
b0 $
#299190000
b10110 #
b110 !
#299210000
b1111 $
b101 !
#299220000
b1110 $
#299230000
b1101 $
#299240000
b1100 $
#299250000
b1011 $
#299260000
b1010 $
#299270000
b1001 $
#299280000
b1000 $
#299290000
b111 $
#299300000
b110 $
#299310000
b101 $
#299320000
b100 $
#299330000
b11 $
#299340000
b10 $
#299350000
b1 $
#299360000
b0 $
#299370000
b10101 #
b110 !
#299390000
b1100 $
b101 !
#299400000
b1011 $
#299410000
b1010 $
#299420000
b1001 $
#299430000
b1000 $
#299440000
b111 $
#299450000
b110 $
#299460000
b101 $
#299470000
b100 $
#299480000
b11 $
#299490000
b10 $
#299500000
b1 $
#299510000
b0 $
#299520000
b110 !
b10100 #
#299540000
b101 !
b11010 $
#299550000
b11001 $
#299560000
b11000 $
#299570000
b10111 $
#299580000
b10110 $
#299590000
b10101 $
#299600000
b10100 $
#299610000
b10011 $
#299620000
b10010 $
#299630000
b10001 $
#299640000
b10000 $
#299650000
b1111 $
#299660000
b1110 $
#299670000
b1101 $
#299680000
b1100 $
#299690000
b1011 $
#299700000
b1010 $
#299710000
b1001 $
#299720000
b1000 $
#299730000
b111 $
#299740000
b110 $
#299750000
b101 $
#299760000
b100 $
#299770000
b11 $
#299780000
b10 $
#299790000
b1 $
#299800000
b0 $
#299810000
b10011 #
b110 !
#299830000
b10110 $
b101 !
#299840000
b10101 $
#299850000
b10100 $
#299860000
b10011 $
#299870000
b10010 $
#299880000
b10001 $
#299890000
b10000 $
#299900000
b1111 $
#299910000
b1110 $
#299920000
b1101 $
#299930000
b1100 $
#299940000
b1011 $
#299950000
b1010 $
#299960000
b1001 $
#299970000
b1000 $
