test/pe_sim/sim_build/pe_dump.vcd
$date
	Wed Jul  1 20:42:46 2026
$end
$version
	Icarus Verilog
$end
$timescale
	1ps
$end
$scope module tb_pe_top $end
$scope module u_pe $end
$var reg 3 ! state [2:0] $end
$upscope $end
$upscope $end
$scope module tb_pe_top $end
$scope module u_pe $end
$var reg 8 " row_idx [7:0] $end
$upscope $end
$upscope $end
$scope module tb_pe_top $end
$scope module u_pe $end
$var reg 3 # gen_state [2:0] $end
$upscope $end
$upscope $end
$scope module tb_pe_top $end
$scope module u_pe $end
$var reg 1 $ done $end
$upscope $end
$upscope $end
$enddefinitions $end
$comment Show the parameter values. $end
$dumpall
$end
#0
$dumpvars
0$
b0 #
b0 "
b0 !
$end
#284420000
b1 !
#284430000
b10 !
#284440000
b1 #
b11 !
#284450000
b10 #
#284780000
b11 #
#284800000
b110 !
#284810000
b1 "
b1 !
b0 #
#284820000
b10 !
#284830000
b11 !
b1 #
#284840000
b10 #
#285280000
b11 #
#286430000
b110 !
#286440000
b0 #
b1 !
b10 "
#286450000
b10 !
#286460000
b1 #
b11 !
#286470000
b10 #
#286910000
b11 #
#286930000
b110 !
#286940000
b0 #
b1 !
b11 "
#286950000
b10 !
#286960000
b1 #
b11 !
#286970000
b10 #
#287310000
b11 #
#288400000
b110 !
#288410000
b100 "
b1 !
b0 #
#288420000
b10 !
#288430000
b11 !
b1 #
#288440000
b10 #
#288700000
b11 #
#288720000
b110 !
#288730000
b101 "
b1 !
b0 #
#288740000
b10 !
#288750000
b11 !
b1 #
#288760000
b10 #
#288840000
b11 #
#289540000
b110 !
#289550000
b110 "
b1 !
b0 #
#289560000
b10 !
#289570000
b11 !
b1 #
#289580000
b10 #
#290220000
b11 #
#290240000
b110 !
#290250000
b111 "
b1 !
b0 #
#290260000
b10 !
#290270000
b11 !
b1 #
#290280000
b10 #
#290710000
b11 #
#292250000
b110 !
#292260000
b0 #
b1 !
b1000 "
#292270000
b10 !
#292280000
b1 #
b11 !
#292290000
b10 #
#292410000
b11 #
#292470000
b110 !
#292480000
b0 #
b1 !
b1001 "
#292490000
b10 !
#292500000
b1 #
b11 !
#292510000
b10 #
#292930000
b11 #
#293680000
b110 !
#293690000
b1010 "
b1 !
b0 #
#293700000
b10 !
#293710000
b11 !
b1 #
#293720000
b10 #
#293740000
b11 #
#294050000
b110 !
#294060000
b0 #
b1 !
b1011 "
#294070000
b10 !
#294080000
b1 #
b11 !
#294090000
b10 #
#294400000
b11 #
#294420000
b110 !
#294430000
b1100 "
b1 !
b0 #
#294440000
b10 !
#294450000
b11 !
b1 #
#294460000
b10 #
#295170000
b11 #
#296490000
b110 !
#296500000
b0 #
b1 !
b1101 "
#296510000
b10 !
#296520000
b1 #
b11 !
#296530000
b10 #
#296780000
b11 #
#297020000
b110 !
#297030000
b1110 "
b1 !
b0 #
#297040000
b10 !
#297050000
b11 !
b1 #
#297060000
b10 #
#297160000
b11 #
#297660000
b110 !
#297670000
b1111 "
b1 !
b0 #
#297680000
b10 !
#297690000
b11 !
b1 #
#297700000
b10 #
#297840000
b11 #
#297880000
b110 !
#297890000
b10000 "
b1 !
b0 #
#297900000
b10 !
#297910000
b11 !
b1 #
#297920000
b10 #
#298470000
b11 #
#299390000
b110 !
#299400000
b0 #
b1 !
b10001 "
#299410000
b10 !
#299420000
b1 #
b11 !
#299430000
b10 #
#300110000
b11 #
#300130000
b110 !
#300140000
b0 #
b1 !
b10010 "
#300150000
b10 !
#300160000
b1 #
b11 !
#300170000
b10 #
#300520000
b11 #
#302040000
b110 !
#302050000
b10011 "
b1 !
b0 #
#302060000
b10 !
#302070000
b11 !
b1 #
#302080000
b10 #
#302380000
b11 #
#302400000
b110 !
#302410000
b10100 "
b1 !
b0 #
#302420000
b10 !
#302430000
b11 !
b1 #
#302440000
b10 #
#302500000
b11 #
#303330000
b110 !
#303340000
b0 #
b1 !
b10101 "
#303350000
b10 !
#303360000
b1 #
b11 !
#303370000
b10 #
#303530000
b11 #
#303550000
b110 !
#303560000
b0 #
b1 !
b10110 "
#303570000
b10 !
#303580000
b1 #
b11 !
#303590000
b10 #
#304330000
b11 #
#305440000
b110 !
#305450000
b10111 "
b1 !
b0 #
#305460000
b10 !
#305470000
b11 !
b1 #
#305480000
b10 #
#306130000
b11 #
#306210000
b110 !
#306220000
b0 #
b1 !
b11000 "
#306230000
b10 !
#306240000
b1 #
b11 !
#306250000
b10 #
#306780000
b11 #
#308350000
b110 !
#308360000
b0 #
b1 !
b11001 "
#308370000
b10 !
#308380000
b1 #
b11 !
#308390000
b10 #
#308560000
b11 #
#308580000
b110 !
#308590000
b11010 "
b1 !
b0 #
#308600000
b10 !
#308610000
b11 !
b1 #
#308620000
b10 #
#308660000
b11 #
#309230000
b110 !
#309240000
b0 #
b1 !
b11011 "
#309250000
b10 !
#309260000
b1 #
b11 !
#309270000
b10 #
#309680000
b11 #
#309700000
b110 !
#309710000
b11100 "
b1 !
b0 #
#309720000
b10 !
#309730000
b11 !
b1 #
#309740000
b10 #
#310310000
b11 #
#311630000
b110 !
#311640000
b0 #
b1 !
b11101 "
#311650000
b10 !
#311660000
b1 #
b11 !
#311670000
b10 #
#311810000
b11 #
#312080000
b110 !
#312090000
b11110 "
b1 !
b0 #
#312100000
b10 !
#312110000
b11 !
b1 #
#312120000
b10 #
#312190000
b11 #
#312380000
b110 !
#312390000
b11111 "
b1 !
b0 #
#312400000
b10 !
#312410000
b11 !
b1 #
#312420000
b10 #
#313180000
b11 #
#313200000
b110 !
#313210000
b100000 "
b1 !
b0 #
#313220000
b10 !
#313230000
b11 !
b1 #
#313240000
b10 #
#313680000
b11 #
#315440000
b110 !
#315450000
b100001 "
b1 !
b0 #
#315460000
b10 !
#315470000
b11 !
b1 #
#315480000
b10 #
#315850000
b11 #
#315870000
b110 !
#315880000
b0 #
b1 !
b100010 "
#315890000
b10 !
#315900000
b1 #
b11 !
#315910000
b10 #
#316540000
b11 #
#317740000
b110 !
#317750000
b100011 "
b1 !
b0 #
#317760000
b10 !
#317770000
b11 !
b1 #
#317780000
b10 #
#318400000
b11 #
#318410000
b110 !
#318420000
b0 #
b1 !
b100100 "
#318430000
b10 !
#318440000
b1 #
b11 !
#318450000
b10 #
#318960000
b11 #
#320440000
b110 !
#320450000
b100101 "
b1 !
b0 #
#320460000
b10 !
#320470000
b11 !
b1 #
#320480000
b10 #
#320870000
b11 #
#320890000
b110 !
#320900000
b0 #
b1 !
b100110 "
#320910000
b10 !
#320920000
b1 #
b11 !
#320930000
b10 #
#320960000
b11 #
#321930000
b110 !
#321940000
b0 #
b1 !
b100111 "
#321950000
b10 !
#321960000
b1 #
b11 !
#321970000
b10 #
#322560000
b11 #
#322580000
b110 !
#322590000
b101000 "
b1 !
b0 #
#322600000
b10 !
#322610000
b11 !
b1 #
#322620000
b10 #
#323030000
b11 #
#324460000
b110 !
#324470000
b101001 "
b1 !
b0 #
#324480000
b10 !
#324490000
b11 !
b1 #
#324500000
b10 #
#324690000
b11 #
#324710000
b110 !
#324720000
b0 #
b1 !
b101010 "
#324730000
b10 !
#324740000
b1 #
b11 !
#324750000
b10 #
#325260000
b11 #
#326170000
b110 !
#326180000
b0 #
b1 !
b101011 "
#326190000
b10 !
#326200000
b1 #
b11 !
#326210000
b10 #
#326360000
b11 #
#326500000
b110 !
#326510000
b101100 "
b1 !
b0 #
#326520000
b10 !
#326530000
b11 !
b1 #
#326540000
b10 #
#327100000
b11 #
#327950000
b110 !
#327960000
b0 #
b1 !
b101101 "
#327970000
b10 !
#327980000
b1 #
b11 !
#327990000
b10 #
#328070000
b11 #
#328520000
b110 !
#328530000
b101110 "
b1 !
b0 #
#328540000
b10 !
#328550000
b11 !
b1 #
#328560000
b10 #
#329160000
b11 #
#329180000
b110 !
#329190000
b101111 "
b1 !
b0 #
#329200000
b10 !
#329210000
b11 !
b1 #
#329220000
b10 #
#329250000
b11 #
#330620000
b110 !
#330630000
b110000 "
b1 !
b0 #
#330640000
b10 !
#330650000
b11 !
b1 #
#330660000
b10 #
#331100000
b11 #
#331120000
b110 !
#331130000
b110001 "
b1 !
b0 #
#331140000
b10 !
#331150000
b11 !
b1 #
#331160000
b10 #
#331370000
b11 #
#332440000
b110 !
#332450000
b110010 "
b1 !
b0 #
#332460000
b10 !
#332470000
b11 !
b1 #
#332480000
b10 #
#332610000
b11 #
#332660000
b110 !
#332670000
b110011 "
b1 !
b0 #
#332680000
b10 !
#332690000
b11 !
b1 #
#332700000
b10 #
#332990000
b11 #
#333620000
b110 !
#333630000
b110100 "
b1 !
b0 #
#333640000
b10 !
#333650000
b11 !
b1 #
#333660000
b10 #
#334350000
b11 #
#334370000
b110 !
#334380000
b0 #
b1 !
b110101 "
#334390000
b10 !
#334400000
b1 #
b11 !
#334410000
b10 #
#335010000
b11 #
#336700000
b110 !
#336710000
b110110 "
b1 !
b0 #
#336720000
b10 !
#336730000
b11 !
b1 #
#336740000
b10 #
#337180000
b11 #
#337200000
b110 !
#337210000
b110111 "
b1 !
b0 #
#337220000
b10 !
#337230000
b11 !
b1 #
#337240000
b10 #
#337430000
b11 #
#338490000
b110 !
#338500000
b0 #
b1 !
b111000 "
#338510000
b10 !
#338520000
b1 #
b11 !
#338530000
b10 #
#338600000
b11 #
#338710000
b110 !
#338720000
b0 #
b1 !
b111001 "
#338730000
b10 !
#338740000
b1 #
b11 !
#338750000
b10 #
#338960000
b11 #
#339030000
b110 !
#339040000
b0 #
b1 !
b111010 "
#339050000
b10 !
#339060000
b1 #
b11 !
#339070000
b10 #
#339750000
b11 #
#340830000
b110 !
#340840000
b0 #
b1 !
b111011 "
#340850000
b10 !
#340860000
b1 #
b11 !
#340870000
b10 #
#341270000
b11 #
#341510000
b110 !
#341520000
b0 #
b1 !
b111100 "
#341530000
b10 !
#341540000
b1 #
b11 !
#341550000
b10 #
#342070000
b11 #
#343180000
b110 !
#343190000
b111101 "
b1 !
b0 #
#343200000
b10 !
#343210000
b11 !
b1 #
#343220000
b10 #
#343720000
b11 #
#343740000
b110 !
#343750000
b111110 "
b1 !
b0 #
#343760000
b10 !
#343770000
b11 !
b1 #
#343780000
b10 #
#343970000
b11 #
#345040000
b110 !
#345050000
b111111 "
b1 !
b0 #
#345060000
b10 !
#345070000
b11 !
b1 #
#345080000
b10 #
#345770000
b11 #
#345790000
b110 !
#345800000
b0 #
b1 !
b1000000 "
#345810000
b10 !
#345820000
b1 #
b11 !
#345830000
b10 #
#345910000
b11 #
#347690000
b110 !
#347700000
b0 #
b1 !
b1000001 "
#347710000
b10 !
#347720000
b1 #
b11 !
#347730000
b10 #
#347910000
b11 #
#347930000
b110 !
#347940000
b0 #
b1 !
b1000010 "
#347950000
b10 !
#347960000
b1 #
b11 !
#347970000
b10 #
#348320000
b11 #
#349060000
b110 !
#349070000
b1000011 "
b1 !
b0 #
#349080000
b10 !
#349090000
b11 !
b1 #
#349100000
b10 #
#349720000
b11 #
#349740000
b110 !
#349750000
b1000100 "
b1 !
b0 #
#349760000
b10 !
#349770000
b11 !
b1 #
#349780000
b10 #
#349880000
b11 #
#351300000
b110 !
#351310000
b1000101 "
b1 !
b0 #
#351320000
b10 !
#351330000
b11 !
b1 #
#351340000
b10 #
#351460000
b11 #
#351520000
b110 !
#351530000
b1000110 "
b1 !
b0 #
#351540000
b10 !
#351550000
b11 !
b1 #
#351560000
b10 #
#352240000
b11 #
#353140000
b110 !
#353150000
b1000111 "
b1 !
b0 #
#353160000
b10 !
#353170000
b11 !
b1 #
#353180000
b10 #
#353650000
b11 #
#354040000
b110 !
#354050000
b1001000 "
b1 !
b0 #
#354060000
b10 !
#354070000
b11 !
b1 #
#354080000
b10 #
#354360000
b11 #
#355110000
b110 !
#355120000
b0 #
b1 !
b1001001 "
#355130000
b10 !
#355140000
b1 #
b11 !
#355150000
b10 #
#355580000
b11 #
#355600000
b110 !
#355610000
b1001010 "
b1 !
b0 #
#355620000
b10 !
#355630000
b11 !
b1 #
#355640000
b10 #
#355710000
b11 #
#356650000
b110 !
#356660000
b0 #
b1 !
b1001011 "
#356670000
b10 !
#356680000
b1 #
b11 !
#356690000
b10 #
#356970000
b11 #
#356990000
b110 !
#357000000
b0 #
b1 !
b1001100 "
#357010000
b10 !
#357020000
b1 #
b11 !
#357030000
b10 #
#357470000
b11 #
#358490000
b110 !
#358500000
b0 #
b1 !
b1001101 "
#358510000
b10 !
#358520000
b1 #
b11 !
#358530000
b10 #
#358850000
b11 #
#358860000
b110 !
#358870000
b1001110 "
b1 !
b0 #
#358880000
b10 !
#358890000
b11 !
b1 #
#358900000
b10 #
#358980000
b11 #
#359880000
b110 !
#359890000
b1001111 "
b1 !
b0 #
#359900000
b10 !
#359910000
b11 !
b1 #
#359920000
b10 #
#360050000
b11 #
#360100000
b110 !
#360110000
b1010000 "
b1 !
b0 #
#360120000
b10 !
#360130000
b11 !
b1 #
#360140000
b10 #
#360350000
b11 #
#360890000
b110 !
#360900000
b0 #
b1 !
b1010001 "
#360910000
b10 !
#360920000
b1 #
b11 !
#360930000
b10 #
#361370000
b11 #
#361390000
b110 !
#361400000
b0 #
b1 !
b1010010 "
#361410000
b10 !
#361420000
b1 #
b11 !
#361430000
b10 #
#362080000
b11 #
#363580000
b110 !
#363590000
b1010011 "
b1 !
b0 #
#363600000
b10 !
#363610000
b11 !
b1 #
#363620000
b10 #
#364030000
b11 #
#364050000
b110 !
#364060000
b0 #
b1 !
b1010100 "
#364070000
b10 !
#364080000
b1 #
b11 !
#364090000
b10 #
#364790000
b11 #
#366280000
b110 !
#366290000
b1010101 "
b1 !
b0 #
#366300000
b10 !
#366310000
b11 !
b1 #
#366320000
b10 #
#366920000
b11 #
#366940000
b110 !
#366950000
b1010110 "
b1 !
b0 #
#366960000
b10 !
#366970000
b11 !
b1 #
#366980000
b10 #
#367650000
b11 #
#369350000
b110 !
#369360000
b0 #
b1 !
b1010111 "
#369370000
b10 !
#369380000
b1 #
b11 !
#369390000
b10 #
#370040000
b11 #
#370060000
b110 !
#370070000
b1011000 "
b1 !
b0 #
#370080000
b10 !
#370090000
b11 !
b1 #
#370100000
b10 #
#370640000
b11 #
#372310000
b110 !
#372320000
b0 #
b1 !
b1011001 "
#372330000
b10 !
#372340000
b1 #
b11 !
#372350000
b10 #
#372760000
b11 #
#372780000
b110 !
#372790000
b1011010 "
b1 !
b0 #
#372800000
b10 !
#372810000
b11 !
b1 #
#372820000
b10 #
#373040000
b11 #
#374070000
b110 !
#374080000
b0 #
b1 !
b1011011 "
#374090000
b10 !
#374100000
b1 #
b11 !
#374110000
b10 #
#374860000
b11 #
#374880000
b110 !
#374890000
b1011100 "
b1 !
b0 #
#374900000
b10 !
#374910000
b11 !
b1 #
#374920000
b10 #
#375210000
b11 #
#376830000
b110 !
#376840000
b0 #
b1 !
b1011101 "
#376850000
b10 !
#376860000
b1 #
b11 !
#376870000
b10 #
#377290000
b11 #
#377310000
b110 !
#377320000
b0 #
b1 !
b1011110 "
#377330000
b10 !
#377340000
b1 #
b11 !
#377350000
b10 #
#377440000
b11 #
#378360000
b110 !
#378370000
b1011111 "
b1 !
b0 #
#378380000
b10 !
#378390000
b11 !
b1 #
#378400000
b10 #
#378510000
b11 #
#378580000
b110 !
#378590000
b1100000 "
b1 !
b0 #
#378600000
b10 !
#378610000
b11 !
b1 #
#378620000
b10 #
#378880000
b11 #
#379450000
b110 !
#379460000
b0 #
b1 !
b1100001 "
#379470000
b10 !
#379480000
b1 #
b11 !
#379490000
b10 #
#380200000
b11 #
#380220000
b110 !
#380230000
b1100010 "
b1 !
b0 #
#380240000
b10 !
#380250000
b11 !
b1 #
#380260000
b10 #
#380980000
b11 #
#382910000
b110 !
#382920000
b0 #
b1 !
b1100011 "
#382930000
b10 !
#382940000
b1 #
b11 !
#382950000
b10 #
#383050000
b11 #
#383270000
b110 !
#383280000
b0 #
b1 !
b1100100 "
#383290000
b10 !
#383300000
b1 #
b11 !
#383310000
b10 #
#383570000
b11 #
#383590000
b110 !
#383600000
b0 #
b1 !
b1100101 "
#383610000
b10 !
#383620000
b1 #
b11 !
#383630000
b10 #
#383960000
b11 #
#384850000
b110 !
#384860000
b0 #
b1 !
b1100110 "
#384870000
b10 !
#384880000
b1 #
b11 !
#384890000
b10 #
#385240000
b11 #
#385260000
b110 !
#385270000
b1100111 "
b1 !
b0 #
#385280000
b10 !
#385290000
b11 !
b1 #
#385300000
b10 #
#386040000
b11 #
#387520000
b110 !
#387530000
b1101000 "
b1 !
b0 #
#387540000
b10 !
#387550000
b11 !
b1 #
#387560000
b10 #
#387710000
b11 #
#388150000
b110 !
#388160000
b0 #
b1 !
b1101001 "
#388170000
b10 !
#388180000
b1 #
b11 !
#388190000
b10 #
#388240000
b11 #
#388370000
b110 !
#388380000
b0 #
b1 !
b1101010 "
#388390000
b10 !
#388400000
b1 #
b11 !
#388410000
b10 #
#389170000
b11 #
#389190000
b110 !
#389200000
b0 #
b1 !
b1101011 "
#389210000
b10 !
#389220000
b1 #
b11 !
#389230000
b10 #
#389520000
b11 #
#391040000
b110 !
#391050000
b1101100 "
b1 !
b0 #
#391060000
b10 !
#391070000
b11 !
b1 #
#391080000
b10 #
#391430000
b11 #
#391450000
b110 !
#391460000
b0 #
b1 !
b1101101 "
#391470000
b10 !
#391480000
b1 #
b11 !
#391490000
b10 #
#391910000
b11 #
#393000000
b110 !
#393010000
b1101110 "
b1 !
b0 #
#393020000
b10 !
#393030000
b11 !
b1 #
#393040000
b10 #
#393410000
b11 #
#393430000
b110 !
#393440000
b0 #
b1 !
b1101111 "
#393450000
b10 !
#393460000
b1 #
b11 !
#393470000
b10 #
#393610000
b11 #
#394450000
b110 !
#394460000
b0 #
b1 !
b1110000 "
#394470000
b10 !
#394480000
b1 #
b11 !
#394490000
b10 #
#394660000
b11 #
#394680000
b110 !
#394690000
b1110001 "
b1 !
b0 #
#394700000
b10 !
#394710000
b11 !
b1 #
#394720000
b10 #
#394800000
b11 #
#395420000
b110 !
#395430000
b1110010 "
b1 !
b0 #
#395440000
b10 !
#395450000
b11 !
b1 #
#395460000
b10 #
#395590000
b11 #
#395640000
b110 !
#395650000
b1110011 "
b1 !
b0 #
#395660000
b10 !
#395670000
b11 !
b1 #
#395680000
b10 #
#396390000
b11 #
#397410000
b110 !
#397420000
b0 #
b1 !
b1110100 "
#397430000
b10 !
#397440000
b1 #
b11 !
#397450000
b10 #
#397550000
b11 #
#398160000
b110 !
#398170000
b1110101 "
b1 !
b0 #
#398180000
b10 !
#398190000
b11 !
b1 #
#398200000
b10 #
#398510000
b11 #
#398530000
b110 !
#398540000
b0 #
b1 !
b1110110 "
#398550000
b10 !
#398560000
b1 #
b11 !
#398570000
b10 #
#398770000
b11 #
#399720000
b110 !
#399730000
b1110111 "
b1 !
b0 #
#399740000
b10 !
#399750000
b11 !
b1 #
#399760000
b10 #
#400440000
b11 #
#400460000
b110 !
#400470000
b1111000 "
b1 !
b0 #
#400480000
b10 !
#400490000
b11 !
b1 #
#400500000
b10 #
#400960000
b11 #
#402570000
b110 !
#402580000
b0 #
b1 !
b1111001 "
#402590000
b10 !
#402600000
b1 #
b11 !
#402610000
b10 #
#403050000
b11 #
#403070000
b110 !
#403080000
b0 #
b1 !
b1111010 "
#403090000
b10 !
#403100000
b1 #
b11 !
#403110000
b10 #
#403520000
b11 #
#404820000
b110 !
#404830000
b1111011 "
b1 !
b0 #
#404840000
b10 !
#404850000
b11 !
b1 #
#404860000
b10 #
#405380000
b11 #
#405400000
b110 !
#405410000
b1111100 "
b1 !
b0 #
#405420000
b10 !
#405430000
b11 !
b1 #
#405440000
b10 #
#405830000
b11 #
#407230000
b110 !
#407240000
b0 #
b1 !
b1111101 "
#407250000
b10 !
#407260000
b1 #
b11 !
#407270000
b10 #
#407760000
b11 #
#407780000
b110 !
#407790000
b1111110 "
b1 !
b0 #
#407800000
b10 !
#407810000
b11 !
b1 #
#407820000
b10 #
#408270000
b11 #
#409610000
b110 !
#409620000
b0 #
b1 !
b1111111 "
#409630000
b10 !
#409640000
b1 #
b11 !
#409650000
b10 #
#410080000
b11 #
#410090000
b110 !
#410100000
b0 #
b1 !
b10000000 "
#410110000
b10 !
#410120000
b1 #
b11 !
#410130000
b10 #
#410410000
b11 #
#411550000
b110 !
#411560000
b0 #
b1 !
b10000001 "
#411570000
b10 !
#411580000
b1 #
b11 !
#411590000
b10 #
#411650000
b11 #
#411770000
b110 !
#411780000
b0 #
b1 !
b10000010 "
#411790000
b10 !
#411800000
b1 #
b11 !
#411810000
b10 #
#412030000
b11 #
#412120000
b110 !
#412130000
b10000011 "
b1 !
b0 #
#412140000
b10 !
#412150000
b11 !
b1 #
#412160000
b10 #
#412220000
b11 #
#412840000
b110 !
#412850000
b10000100 "
b1 !
b0 #
#412860000
b10 !
#412870000
b11 !
b1 #
#412880000
b10 #
#413210000
b11 #
#413230000
b110 !
#413240000
b0 #
b1 !
b10000101 "
#413250000
b10 !
#413260000
b1 #
b11 !
#413270000
b10 #
#413850000
b11 #
#415170000
b110 !
#415180000
b0 #
b1 !
b10000110 "
#415190000
b10 !
#415200000
b1 #
b11 !
#415210000
b10 #
#415640000
b11 #
#415660000
b110 !
#415670000
b10000111 "
b1 !
b0 #
#415680000
b10 !
#415690000
b11 !
b1 #
#415700000
b10 #
#416210000
b11 #
#417480000
b110 !
#417490000
b10001000 "
b1 !
b0 #
#417500000
b10 !
#417510000
b11 !
b1 #
#417520000
b10 #
#417730000
b11 #
#417770000
b110 !
#417780000
b0 #
b1 !
b10001001 "
#417790000
b10 !
#417800000
b1 #
b11 !
#417810000
b10 #
#417870000
b11 #
#418470000
b110 !
#418480000
b0 #
b1 !
b10001010 "
#418490000
b10 !
#418500000
b1 #
b11 !
#418510000
b10 #
#419180000
b11 #
#419190000
b110 !
#419200000
b0 #
b1 !
b10001011 "
#419210000
b10 !
#419220000
b1 #
b11 !
#419230000
b10 #
#419970000
b11 #
#421810000
b110 !
#421820000
b0 #
b1 !
b10001100 "
#421830000
b10 !
#421840000
b1 #
b11 !
#421850000
b10 #
#422540000
b11 #
#422560000
b110 !
#422570000
b10001101 "
b1 !
b0 #
#422580000
b10 !
#422590000
b11 !
b1 #
#422600000
b10 #
#422790000
b11 #
#424250000
b110 !
#424260000
b0 #
b1 !
b10001110 "
#424270000
b10 !
#424280000
b1 #
b11 !
#424290000
b10 #
#424840000
b11 #
#424860000
b110 !
#424870000
b10001111 "
b1 !
b0 #
#424880000
b10 !
#424890000
b11 !
b1 #
#424900000
b10 #
#424950000
b11 #
#426090000
b110 !
#426100000
b0 #
b1 !
b10010000 "
#426110000
b10 !
#426120000
b1 #
b11 !
#426130000
b10 #
#426800000
b11 #
#426820000
b110 !
#426830000
b10010001 "
b1 !
b0 #
#426840000
b10 !
#426850000
b11 !
b1 #
#426860000
b10 #
#427280000
b11 #
#428860000
b110 !
#428870000
b10010010 "
b1 !
b0 #
#428880000
b10 !
#428890000
b11 !
b1 #
#428900000
b10 #
#429010000
b11 #
#429100000
b110 !
#429110000
b10010011 "
b1 !
b0 #
#429120000
b10 !
#429130000
b11 !
b1 #
#429140000
b10 #
#429520000
b11 #
#430220000
b110 !
#430230000
b10010100 "
b1 !
b0 #
#430240000
b10 !
#430250000
b11 !
b1 #
#430260000
b10 #
#430790000
b11 #
#430810000
b110 !
#430820000
b0 #
b1 !
b10010101 "
#430830000
b10 !
#430840000
b1 #
b11 !
#430850000
b10 #
#431290000
b11 #
#432730000
b110 !
#432740000
b0 #
b1 !
b10010110 "
#432750000
b10 !
#432760000
b1 #
b11 !
#432770000
b10 #
#433340000
b11 #
#433360000
b110 !
#433370000
b10010111 "
b1 !
b0 #
#433380000
b10 !
#433390000
b11 !
b1 #
#433400000
b10 #
#433980000
b11 #
#435560000
b110 !
#435570000
b10011000 "
b1 !
b0 #
#435580000
b10 !
#435590000
b11 !
b1 #
#435600000
b10 #
#435720000
b11 #
#435900000
b110 !
#435910000
b10011001 "
b1 !
b0 #
#435920000
b10 !
#435930000
b11 !
b1 #
#435940000
b10 #
#436150000
b11 #
#436290000
b110 !
#436300000
b0 #
b1 !
b10011010 "
#436310000
b10 !
#436320000
b1 #
b11 !
#436330000
b10 #
#436460000
b11 #
#437040000
b110 !
#437050000
b10011011 "
b1 !
b0 #
#437060000
b10 !
#437070000
b11 !
b1 #
#437080000
b10 #
#437710000
b11 #
#437730000
b110 !
#437740000
b0 #
b1 !
b10011100 "
#437750000
b10 !
#437760000
b1 #
b11 !
#437770000
b10 #
#438510000
b11 #
#440300000
b110 !
#440310000
b10011101 "
b1 !
b0 #
#440320000
b10 !
#440330000
b11 !
b1 #
#440340000
b10 #
#440950000
b11 #
#440970000
b110 !
#440980000
b0 #
b1 !
b10011110 "
#440990000
b10 !
#441000000
b1 #
b11 !
#441010000
b10 #
#441700000
b11 #
#443450000
b110 !
#443460000
b0 #
b1 !
b10011111 "
#443470000
b10 !
#443480000
b1 #
b11 !
#443490000
b10 #
#443740000
b11 #
#443870000
b110 !
#443880000
b0 #
b1 !
b10100000 "
#443890000
b10 !
#443900000
b1 #
b11 !
#443910000
b10 #
#444200000
b11 #
#444960000
b110 !
#444970000
b10100001 "
b1 !
b0 #
#444980000
b10 !
#444990000
b11 !
b1 #
#445000000
b10 #
#445710000
b11 #
#445730000
b110 !
#445740000
b0 #
b1 !
b10100010 "
#445750000
b10 !
#445760000
b1 #
b11 !
#445770000
b10 #
#445800000
b11 #
#447260000
b110 !
#447270000
b10100011 "
b1 !
b0 #
#447280000
b10 !
#447290000
b11 !
b1 #
#447300000
b10 #
#447410000
b11 #
#447480000
b110 !
#447490000
b10100100 "
b1 !
b0 #
#447500000
b10 !
#447510000
b11 !
b1 #
#447520000
b10 #
#447570000
b11 #
#448010000
b110 !
#448020000
b0 #
b1 !
b10100101 "
#448030000
b10 !
#448040000
b1 #
b11 !
#448050000
b10 #
#448640000
b11 #
#448660000
b110 !
#448670000
b10100110 "
b1 !
b0 #
#448680000
b10 !
#448690000
b11 !
b1 #
#448700000
b10 #
#448760000
b11 #
#450070000
b110 !
#450080000
b0 #
b1 !
b10100111 "
#450090000
b10 !
#450100000
b1 #
b11 !
#450110000
b10 #
#450390000
b11 #
#450400000
b110 !
#450410000
b10101000 "
b1 !
b0 #
#450420000
b10 !
#450430000
b11 !
b1 #
#450440000
b10 #
#451190000
b11 #
#452510000
b110 !
#452520000
b0 #
b1 !
b10101001 "
#452530000
b10 !
#452540000
b1 #
b11 !
#452550000
b10 #
#453260000
b11 #
#453280000
b110 !
#453290000
b10101010 "
b1 !
b0 #
#453300000
b10 !
#453310000
b11 !
b1 #
#453320000
b10 #
#453870000
b11 #
#455720000
b110 !
#455730000
b10101011 "
b1 !
b0 #
#455740000
b10 !
#455750000
b11 !
b1 #
#455760000
b10 #
#455970000
b11 #
#455990000
b110 !
#456000000
b0 #
b1 !
b10101100 "
#456010000
b10 !
#456020000
b1 #
b11 !
#456030000
b10 #
#456190000
b11 #
#456890000
b110 !
#456900000
b0 #
b1 !
b10101101 "
#456910000
b10 !
#456920000
b1 #
b11 !
#456930000
b10 #
#457230000
b11 #
#457240000
b110 !
#457250000
b10101110 "
b1 !
b0 #
#457260000
b10 !
#457270000
b11 !
b1 #
#457280000
b10 #
#457850000
b11 #
#459110000
b110 !
#459120000
b0 #
b1 !
b10101111 "
#459130000
b10 !
#459140000
b1 #
b11 !
#459150000
b10 #
#459450000
b11 #
#459490000
b110 !
#459500000
b0 #
b1 !
b10110000 "
#459510000
b10 !
#459520000
b1 #
b11 !
#459530000
b10 #
#459850000
b11 #
#460780000
b110 !
#460790000
b10110001 "
b1 !
b0 #
#460800000
b10 !
#460810000
b11 !
b1 #
#460820000
b10 #
#461250000
b11 #
#461270000
b110 !
#461280000
b0 #
b1 !
b10110010 "
#461290000
b10 !
#461300000
b1 #
b11 !
#461310000
b10 #
#461430000
b11 #
#462500000
b110 !
#462510000
b10110011 "
b1 !
b0 #
#462520000
b10 !
#462530000
b11 !
b11 #
#462720000
b110 !
#462730000
b10110100 "
b1 !
b0 #
#462740000
b10 !
#462750000
b11 !
b1 #
#462760000
b10 #
#463330000
b11 #
#463350000
b110 !
#463360000
b0 #
b1 !
b10110101 "
#463370000
b10 !
#463380000
b1 #
b11 !
#463390000
b10 #
#463420000
b11 #
#464860000
b110 !
#464870000
b10110110 "
b1 !
b0 #
#464880000
b10 !
#464890000
b11 !
b1 #
#464900000
b10 #
#465550000
b11 #
#465570000
b110 !
#465580000
b0 #
b1 !
b10110111 "
#465590000
b10 !
#465600000
b1 #
b11 !
#465610000
b10 #
#466150000
b11 #
#467860000
b110 !
#467870000
b10111000 "
b1 !
b0 #
#467880000
b10 !
#467890000
b11 !
b1 #
#467900000
b10 #
#468560000
b11 #
#468580000
b110 !
#468590000
b10111001 "
b1 !
b0 #
#468600000
b10 !
#468610000
b11 !
b1 #
#468620000
b10 #
#469020000
b11 #
#470590000
b110 !
#470600000
b0 #
b1 !
b10111010 "
#470610000
b10 !
#470620000
b1 #
b11 !
#470630000
b10 #
#471020000
b11 #
#471040000
b110 !
#471050000
b10111011 "
b1 !
b0 #
#471060000
b10 !
#471070000
b11 !
b1 #
#471080000
b10 #
#471550000
b11 #
#472770000
b110 !
#472780000
b0 #
b1 !
b10111100 "
#472790000
b10 !
#472800000
b1 #
b11 !
#472810000
b10 #
#472860000
b11 #
#473070000
b110 !
#473080000
b0 #
b1 !
b10111101 "
#473090000
b10 !
#473100000
b1 #
b11 !
#473110000
b10 #
#473230000
b11 #
#473290000
b110 !
#473300000
b0 #
b1 !
b10111110 "
#473310000
b10 !
#473320000
b1 #
b11 !
#473330000
b10 #
#473410000
b11 #
#473830000
b110 !
#473840000
b0 #
b1 !
b10111111 "
